{
  "operationConfig" : {
    "name" : "prEstmtConfirm4163",
    "type" : "MappedToBackend",
    "cachable" : false,
    "smsEnabled" : false,
    "security" : "authorized_app_user",
    "responseEncoding" : "UTF-8",
    "httpMethod" : "GET",
    "decodeResponseBody" : false,
    "iMapping" : "<?xml version=\"1.0\" encoding=\"UTF-8\" standalone=\"yes\"?><mapper xmlns=\"http://www.kony.com/ns/mapper\">            <map inputpath=\"request_in\" outputpath=\"request_out\">                        <set-param inputpath=\"p_sec_email_id\" outputpath=\"p_sec_email_id\"/>                        <set-param inputpath=\"custId\" outputpath=\"custId\"/>                        <set-param inputpath=\"p_fcdb_ref_no\" outputpath=\"p_fcdb_ref_no\"/>                        <set-param inputpath=\"p_primary_email_id\" outputpath=\"p_primary_email_id\"/>            </map></mapper>",
    "oMapping" : "<?xml version=\"1.0\" encoding=\"UTF-8\" standalone=\"yes\"?><mapper xmlns=\"http://www.kony.com/ns/mapper\">        <map inputpath=\"response_in\" outputpath=\"response_out\">                <set-param inputpath=\"referenceId\" outputpath=\"referenceId\"/>                <set-param inputpath=\"ErrorCode\" outputpath=\"ErrorCode\"/>          </map></mapper>",
    "applyCommonMapping" : false,
    "backendMeta" : {
      "serviceVersion" : "1.0",
      "operationName" : "prEstmtConfirm",
      "serviceName" : "BOJEstmtConfirm"
    },
    "relationshipHierarchyMapping" : {
      "children" : [ ],
      "name" : "User",
      "selected" : true
    },
    "requestXmlMappingOverride" : true,
    "responseXmlMappingOverride" : true
  }
}