{
  "operationConfig" : {
    "name" : "verifyOTP8379",
    "type" : "MappedToBackend",
    "cachable" : false,
    "smsEnabled" : false,
    "security" : "public",
    "responseEncoding" : "UTF-8",
    "httpMethod" : "GET",
    "decodeResponseBody" : false,
    "iMapping" : "<?xml version=\"1.0\" encoding=\"UTF-8\" standalone=\"yes\"?><mapper xmlns=\"http://www.kony.com/ns/mapper\">  <map inputpath=\"request_in\" outputpath=\"request_out\">    <set-param inputpath=\"language\" outputpath=\"language\"/>    <set-param inputpath=\"otp\" outputpath=\"otp\"/>  </map></mapper>",
    "oMapping" : "<?xml version=\"1.0\" encoding=\"UTF-8\" standalone=\"yes\"?><mapper xmlns=\"http://www.kony.com/ns/mapper\">  <map inputpath=\"response_in\" outputpath=\"response_out\">    <set-param inputpath=\"statusCode\" outputpath=\"statusCode\"/>    <set-param inputpath=\"opstatus\" outputpath=\"opstatus\"/>    <set-param inputpath=\"statusMsg\" outputpath=\"statusMsg\"/>  </map></mapper>",
    "applyCommonMapping" : true,
    "backendMeta" : {
      "serviceVersion" : "1.0",
      "operationName" : "verifyOTP",
      "serviceName" : "BOJJavaServices"
    },
    "relationshipHierarchyMapping" : {
      "children" : [ ],
      "name" : "User",
      "selected" : true
    },
    "requestXmlMappingOverride" : true,
    "responseXmlMappingOverride" : true
  }
}