{
    "DNDConfig": null,
    "_height_": {
        "type": "ref",
        "value": "preferred"
    },
    "_margin_": [
        0,
        0,
        0,
        0
    ],
    "_orientation_": 6,
    "_padding_": [
        0,
        0,
        0,
        0
    ],
    "_percent_": true,
    "_skin_": "scbac437d63645e999fd93a95dac609b",
    "allboxes": [],
    "autogrowmode": 1,
    "canUpdateUI": true,
    "children": [
        "flxBody",
        "lblSymbol",
        "imgNews"
    ],
    "clipbounds": true,
    "containerId": true,
    "containerweight": 100,
    "enablescrolling": true,
    "id": "flxInformation",
    "info": null,
    "isTemplate": true,
    "isvisible": true,
    "kuid": "d293a71c98ee40d29ee8a8f71022904d",
    "layouttype": 2,
    "name": "kony.ui.FlexContainer",
    "parent": "segInformation",
    "pf": "segInformation",
    "snapgridsize": 10,
    "snaptogrid": true,
    "wType": "FlexContainer",
    "widgetalignment": 1
}