{
    "DNDConfig": null,
    "__parentReadjusting__": false,
    "_height_": {
        "type": "string",
        "value": "25dp"
    },
    "_margin_": [
        0,
        0,
        0,
        0
    ],
    "_orientation_": 6,
    "_padding_": [
        0,
        0,
        0,
        0
    ],
    "_percent_": true,
    "_right_": {
        "type": "string",
        "value": "5%"
    },
    "_skin_": "s8cee9ddcb344024afcc0f0e0d2a9e37",
    "_top_": {
        "type": "string",
        "value": "0dp"
    },
    "_width_": {
        "type": "string",
        "value": "44dp"
    },
    "allboxes": [],
    "autogrowmode": 0,
    "canUpdateUI": true,
    "centery": {
        "type": "string",
        "value": "50%"
    },
    "children": [
        "CopyflxInnerEnabled0f51e641c7c174b",
        "CopyflxLineEnabled0fab2971411c349"
    ],
    "clipbounds": true,
    "containerweight": 100,
    "enablescrolling": true,
    "id": "flxAlertDepositEnable",
    "ide_onClick": "AS_FlexContainer_cb990460e21d46a9a56b74cb311a897a",
    "info": null,
    "isvisible": true,
    "kuid": "j33e4df0fcc445daae6b9c282aa02076",
    "layouttype": 2,
    "name": "kony.ui.FlexContainer",
    "parent": "flxAlertDeposit",
    "pf": "frmAlertsKA",
    "snapgridsize": 10,
    "snaptogrid": true,
    "wType": "FlexContainer",
    "widgetalignment": 1,
    "zindex": 1
}