{
  "operationConfig" : {
    "name" : "getAlternateLoginMethods1862",
    "type" : "MappedToBackend",
    "cachable" : false,
    "smsEnabled" : false,
    "security" : "public",
    "responseEncoding" : "UTF-8",
    "httpMethod" : "GET",
    "decodeResponseBody" : false,
    "iMapping" : "<?xml version=\"1.0\" encoding=\"UTF-8\" standalone=\"yes\"?><mapper xmlns=\"http://www.kony.com/ns/mapper\">  <map inputpath=\"request_in\" outputpath=\"request_out\">    <set-param inputpath=\"Language\" outputpath=\"Language\"/>    <set-param inputpath=\"Token\" outputpath=\"Token\"/>    <set-param inputpath=\"deviceId\" outputpath=\"deviceId\"/>  </map></mapper>",
    "applyCommonMapping" : true,
    "backendMeta" : {
      "serviceVersion" : "1.0",
      "operationName" : "getAlternateLoginMethods",
      "serviceName" : "BOJRestServices"
    },
    "relationshipHierarchyMapping" : {
      "children" : [ ],
      "name" : "DeviceRegistration",
      "selected" : true
    },
    "requestXmlMappingOverride" : true,
    "responseXmlMappingOverride" : true
  }
}