{
    "DNDConfig": null,
    "__parentReadjusting__": false,
    "_bottom_": {
        "type": "number",
        "value": "0"
    },
    "_left_": {
        "type": "string",
        "value": "0dp"
    },
    "_margin_": [
        0,
        0,
        0,
        0
    ],
    "_padding_": [
        0,
        0,
        0,
        0
    ],
    "_skin_": "s33c2b827d6745b5a56322e35bc3c999",
    "_top_": {
        "type": "string",
        "value": "50dp"
    },
    "_width_": {
        "type": "string",
        "value": "100%"
    },
    "allboxes": [],
    "allowhorizontalbounce": false,
    "allowverticalbounce": true,
    "bounces": false,
    "canUpdateUI": true,
    "children": [
        "FlexScrollContainermainKA",
        "getDirectionsContainer"
    ],
    "clipbounds": true,
    "containerweight": 100,
    "decelerat": false,
    "dragg": false,
    "enabled": false,
    "enablescrolling": false,
    "horizontalscrollindicator": true,
    "id": "mainContent",
    "info": null,
    "iphone": {
        "psp": {
            "bouncesZoom": false
        }
    },
    "isvisible": true,
    "kuid": "62f087b9e9c14101ae3670ec35b32653",
    "layouttype": 4,
    "name": "kony.ui.FlexScrollContainer",
    "orientation": 6,
    "pagingenabled": false,
    "parent": "frmLocatorATMDetailsKA",
    "percent": true,
    "pf": "frmLocatorATMDetailsKA",
    "scrolldirection": 2,
    "snapgridsize": 10,
    "snaptogrid": true,
    "track": false,
    "verticalscrollindicator": false,
    "wType": "FlexScrollContainer",
    "widgetalignment": 1,
    "zindex": 1
}