{
    "@class": "com.kony.gen.viz.model.component.KVizButton",
    "DNDConfig": null,
    "__markedForDelete__": true,
    "__parentReadjusting__": false,
    "_height_": {
        "type": "string",
        "value": "42dp"
    },
    "_margin_": [
        6,
        6,
        6,
        6
    ],
    "_padding_": [
        0,
        0,
        0,
        0
    ],
    "_skin_": "s51d68053cae4eba826625de179be4ae",
    "_text_": "CONFIRM",
    "_top_": {
        "type": "string",
        "value": "37%"
    },
    "_width_": {
        "type": "string",
        "value": "80%"
    },
    "canUpdateUI": true,
    "centerx": {
        "type": "string",
        "value": "50%"
    },
    "containerweight": 100,
    "contentalignment": 5,
    "displaytext": true,
    "focusskin": "sbe13586f59d4a768bfe23c1b619f8c6",
    "id": "btnConfirm",
    "ide_onClick": "AS_Button_d5275fc9a85e4466be88ee2c397aaabc",
    "info": null,
    "isvisible": true,
    "kuid": "da6070bf504d46199526ee73bafd2852",
    "name": "kony.ui.Button",
    "parent": "flexMainContainer",
    "pf": "frmConfirmNPPRegistration",
    "texti18n": "i18n.cashWithdraw.confirm",
    "wType": "Button"
}