{
    "@class": "com.kony.gen.viz.model.component.KVizButton",
    "DNDConfig": null,
    "__markedForDelete__": true,
    "__parentReadjusting__": false,
    "_height_": {
        "type": "string",
        "value": "35dp"
    },
    "_margin_": [
        6,
        6,
        6,
        6
    ],
    "_padding_": [
        0,
        0,
        0,
        0
    ],
    "_skin_": "s94d80e187a44bd9bb9ce6db5e729010",
    "_text_": "Edit",
    "_top_": {
        "type": "string",
        "value": "5dp"
    },
    "_width_": {
        "type": "string",
        "value": "260dp"
    },
    "canUpdateUI": true,
    "centerx": {
        "type": "string",
        "value": "50%"
    },
    "containerweight": 100,
    "contentalignment": 5,
    "displaytext": true,
    "focusskin": "s6e8459b84e349d98629a088bbfe1304",
    "id": "btnEditTranscation",
    "ide_onClick": "AS_Button_e168e7b6f9aa4408b88acbfcd0cdf3ec",
    "info": null,
    "isvisible": true,
    "kuid": "fda6de87f53c487f9acf13b6bee58338",
    "name": "kony.ui.Button",
    "parent": "flexMainContainer",
    "pf": "frmConfirmNPPRegistration",
    "texti18n": "i18n.NPP.edit",
    "wType": "Button",
    "zindex": 1
}