{
    "DNDConfig": null,
    "__parentReadjusting__": false,
    "_height_": {
        "type": "string",
        "value": "60dp"
    },
    "_left_": {
        "type": "string",
        "value": "75%"
    },
    "_margin_": [
        0,
        0,
        0,
        0
    ],
    "_orientation_": 6,
    "_padding_": [
        0,
        0,
        0,
        0
    ],
    "_percent_": true,
    "_skin_": "s388f0c575ef4d08ac3a5ed0a4b90085",
    "_top_": {
        "type": "string",
        "value": "4%"
    },
    "_width_": {
        "type": "string",
        "value": "60dp"
    },
    "allboxes": [],
    "autogrowmode": 0,
    "canUpdateUI": true,
    "children": [
        "chatbotIcon"
    ],
    "clipbounds": true,
    "containerweight": 100,
    "enablescrolling": true,
    "id": "flxIconMove",
    "ide_onClick": "AS_FlexContainer_faadade89d064587bd3bef706f6c6e72",
    "info": null,
    "iscustomlayout": true,
    "isvisible": false,
    "kuid": "g379b31e6574477094d22b033febb0db",
    "layouttype": 2,
    "name": "kony.ui.FlexContainer",
    "parent": "frmLoginKA",
    "pf": "frmLoginKA",
    "retaincontentalignment": false,
    "retainflexpositionproperties": true,
    "retainflowhorizontalalignment": false,
    "snapgridsize": 10,
    "snaptogrid": true,
    "wType": "FlexContainer",
    "widgetalignment": 1,
    "zindex": 1000
}