{
    "@class": "com.kony.gen.viz.model.component.KVizButton",
    "DNDConfig": null,
    "__parentReadjusting__": false,
    "_height_": {
        "type": "string",
        "value": "100%"
    },
    "_margin_": [
        6,
        6,
        6,
        6
    ],
    "_padding_": [
        0,
        0,
        0,
        0
    ],
    "_right_": {
        "type": "string",
        "value": "0.00%"
    },
    "_skin_": "sef0e6318cb74729a63354552567c681",
    "_text_": "Next",
    "_top_": {
        "type": "string",
        "value": "0.18%"
    },
    "_width_": {
        "type": "string",
        "value": "20%"
    },
    "canUpdateUI": true,
    "containerweight": 100,
    "contentalignment": 5,
    "disabledSkins": {},
    "displaytext": true,
    "focusskin": "sef0e6318cb74729a63354552567c681",
    "id": "btnNext",
    "ide_onClick": "AS_Button_ae3e65b833c744a88b0a6cbcfd3acabb",
    "info": null,
    "iphone": {
        "psp": {
            "showProgressIndicator": false
        }
    },
    "iscustomlayout": true,
    "isvisible": true,
    "kuid": "fbfef66a127d42a4b533ffca2bd1c6bf",
    "name": "kony.ui.Button",
    "parent": "flxJoMoPayHeader",
    "pf": "frmJoMoPay",
    "retainflexpositionproperties": true,
    "texti18n": "i18n.login.next",
    "wType": "Button",
    "zindex": 2
}