{
    "@class": "com.kony.gen.viz.model.component.KVizLabel",
    "DNDConfig": null,
    "__parentReadjusting__": false,
    "_height_": {
        "type": "ref",
        "value": "preferred"
    },
    "_left_": {
        "type": "string",
        "value": "5%"
    },
    "_margin_": [
        1,
        1,
        1,
        1
    ],
    "_padding_": [
        0,
        0,
        0,
        0
    ],
    "_skin_": "s2104a9dd6124a60a6fdc5aa6f001653",
    "_text_": "",
    "_top_": {
        "type": "string",
        "value": "54%"
    },
    "_width_": {
        "type": "string",
        "value": "90%"
    },
    "_wrapping_": 2,
    "android": {
        "textStyle": {
            "letterSpacing": 0,
            "strikeThrough": false
        }
    },
    "canUpdateUI": true,
    "containerweight": 100,
    "contentalignment": 1,
    "id": "lblMobileIDHint",
    "info": null,
    "ipad": {
        "psp": {
            "wrapping": 2
        }
    },
    "iphone": {
        "psp": {
            "wrapping": 2
        }
    },
    "isvisible": false,
    "kuid": "h35f324fe9f24b25965a5e6059fbb821",
    "name": "kony.ui.Label",
    "parent": "flxJoMoPayTransaction",
    "pf": "frmJoMoPay",
    "texti18n": "i18n.jomopay.mobilecashidhint",
    "textstyle": {},
    "tooltip": "",
    "wType": "Label",
    "zindex": 1
}