{
  "icon" : "icon.png",
  "description" : "RetailBankingServices",
  "subType" : "customapp",
  "identity" : [ "CustomLogin", "LinkedIn" ],
  "intSvcs" : [ {
    "name" : "BOJprCcPpPayment",
    "version" : "1.0"
  }, {
    "name" : "IPSCustomer",
    "version" : "1.0"
  }, {
    "name" : "BOJprIPSRegister",
    "version" : "1.0"
  }, {
    "name" : "BOJAutoBillsPay",
    "version" : "1.0"
  }, {
    "name" : "BOJNationalID",
    "version" : "1.0"
  }, {
    "name" : "BOJEMVParse",
    "version" : "1.0"
  }, {
    "name" : "BOJAliasIPS",
    "version" : "1.0"
  }, {
    "name" : "BOJprCheckExistIPSCust",
    "version" : "1.0"
  }, {
    "name" : "TestSondos",
    "version" : "1.0"
  }, {
    "name" : "BOJECMsendimage",
    "version" : "1.0"
  }, {
    "name" : "BOJSendIbanToSSC",
    "version" : "1.0"
  }, {
    "name" : "BOJIPSReturnTransfer",
    "version" : "1.0"
  }, {
    "name" : "BOJprCcEfwPaymentConfirm",
    "version" : "1.0"
  }, {
    "name" : "testips",
    "version" : "1.0"
  }, {
    "name" : "BOJprAccTransfer",
    "version" : "1.0"
  }, {
    "name" : "prCcInternetMailorder",
    "version" : "1.0"
  }, {
    "name" : "BOJPrGetLoanAccDetails",
    "version" : "1.0"
  }, {
    "name" : "BOJGetDbCardDetails",
    "version" : "1.0"
  }, {
    "name" : "BOJGetBillerDetails",
    "version" : "1.0"
  }, {
    "name" : "BojprDcActivation",
    "version" : "1.0"
  }, {
    "name" : "BOJCnfOpenNewAcc",
    "version" : "1.0"
  }, {
    "name" : "BOJprCcInstantCashback",
    "version" : "1.0"
  }, {
    "name" : "BOJApplyPrimaryCcNew",
    "version" : "1.0"
  }, {
    "name" : "addPrePaidBene",
    "version" : "1.0"
  }, {
    "name" : "BOJprChqBookOrder",
    "version" : "1.0"
  }, {
    "name" : "BOJEstmtConfirm",
    "version" : "1.0"
  }, {
    "name" : "BOJGetRegisteredEstmt",
    "version" : "1.0"
  }, {
    "name" : "BOJprCcUnblockPin",
    "version" : "1.0"
  }, {
    "name" : "BOJGetPpValidation",
    "version" : "1.0"
  }, {
    "name" : "BOJPpPayment",
    "version" : "1.0"
  }, {
    "name" : "BOJGetEfwListBillers",
    "version" : "1.0"
  }, {
    "name" : "BOJEfwPaymentConfirm",
    "version" : "1.0"
  }, {
    "name" : "BOJGetEfwServtypes",
    "version" : "1.0"
  }, {
    "name" : "BOJBillerAccounts",
    "version" : "1.0"
  }, {
    "name" : "pushNotificationsAuthService",
    "version" : "1.0"
  }, {
    "name" : "BOJPrJmpGetFees",
    "version" : "1.0"
  }, {
    "name" : "BOJPrExternalTransfer",
    "version" : "1.0"
  }, {
    "name" : "BOJJavaServices",
    "version" : "1.0"
  }, {
    "name" : "BOJDebitCrdTxnList",
    "version" : "1.0"
  }, {
    "name" : "BOJDeleteBeneficiary",
    "version" : "1.0"
  }, {
    "name" : "BOJApplyPrimCcReplace",
    "version" : "1.0"
  }, {
    "name" : "BOJsendUserName",
    "version" : "1.0"
  }, {
    "name" : "BOJApplySuppCcNew",
    "version" : "1.0"
  }, {
    "name" : "BOJApplyWcCardNew",
    "version" : "1.0"
  }, {
    "name" : "BOJRestServices",
    "version" : "1.0"
  }, {
    "name" : "BOJJmpRegister",
    "version" : "1.0"
  }, {
    "name" : "BOJBeneBranchList",
    "version" : "1.0"
  }, {
    "name" : "BOJCancelDebitCard",
    "version" : "1.0"
  }, {
    "name" : "BOJCrdtCrdChngSms",
    "version" : "1.0"
  }, {
    "name" : "BOJPrfChngSms",
    "version" : "1.0"
  }, {
    "name" : "iWatchBOJPrGetLoanAccDetails",
    "version" : "1.0"
  }, {
    "name" : "BOJSendSMSMobile",
    "version" : "1.0"
  }, {
    "name" : "iWatchBOJPrGetTdDetails",
    "version" : "1.0"
  }, {
    "name" : "BOJGetWebChrgCardDetails",
    "version" : "1.0"
  }, {
    "name" : "ManualUserCreation",
    "version" : "1.0"
  }, {
    "name" : "BOJBankList",
    "version" : "1.0"
  }, {
    "name" : "GoogleAPIs",
    "version" : "1.0"
  }, {
    "name" : "BOJprCcActivation",
    "version" : "1.0"
  }, {
    "name" : "BOJrApplySuppDcNew",
    "version" : "1.0"
  }, {
    "name" : "BOJPushNotification",
    "version" : "1.0"
  }, {
    "name" : "BOJprAccStmtOrder",
    "version" : "1.0"
  }, {
    "name" : "BOJprCcSpendingControl",
    "version" : "1.0"
  }, {
    "name" : "BOJprDcReqNewPin",
    "version" : "1.0"
  }, {
    "name" : "BOJPOSprCcSpendingControl",
    "version" : "1.0"
  }, {
    "name" : "BOJprJmpGetRegisterDetails",
    "version" : "1.0"
  }, {
    "name" : "BOJprDcLinkedAccount",
    "version" : "1.0"
  }, {
    "name" : "BojGetPpRegisteredBilling",
    "version" : "1.0"
  }, {
    "name" : "BOJApplyDebitCard",
    "version" : "1.0"
  }, {
    "name" : "prGetExternalTransferComm",
    "version" : "1.0"
  }, {
    "name" : "BOJPPBillerAccounts",
    "version" : "1.0"
  }, {
    "name" : "BOJprCcPinReminder",
    "version" : "1.0"
  }, {
    "name" : "SendPushMessage",
    "version" : "1.0"
  }, {
    "name" : "BOJprGetOutRemitDetails",
    "version" : "1.0"
  }, {
    "name" : "BOJprGetInRemitDetails",
    "version" : "1.0"
  }, {
    "name" : "BOJGetBillerList",
    "version" : "1.0"
  }, {
    "name" : "BOJGetStandingInstructions",
    "version" : "1.0"
  }, {
    "name" : "prGetBeneficiaryDetails",
    "version" : "1.0"
  }, {
    "name" : "BOJGetPpServiceTypes",
    "version" : "1.0"
  }, {
    "name" : "prAddBeneficiary",
    "version" : "1.0"
  }, {
    "name" : "BOJGetEfwMappingCodes",
    "version" : "1.0"
  }, {
    "name" : "BOJGetEfwDebitAmt",
    "version" : "1.0"
  }, {
    "name" : "BOJGetAccountDetails",
    "version" : "1.0"
  }, {
    "name" : "BOJPrGetTdDetails",
    "version" : "1.0"
  }, {
    "name" : "BOJUnClearTxn",
    "version" : "1.0"
  }, {
    "name" : "BOJCheckCardPin",
    "version" : "1.0"
  }, {
    "name" : "BOJCancelCreditCard",
    "version" : "1.0"
  }, {
    "name" : "BOJGetTransferFee",
    "version" : "1.0"
  }, {
    "name" : "BOJGetCrCardStmt",
    "version" : "1.0"
  }, {
    "name" : "BOJPrConfirmJmpPayments",
    "version" : "1.0"
  }, {
    "name" : "BOJGetCrCardHistTrans",
    "version" : "1.0"
  }, {
    "name" : "BOJGetProfileData",
    "version" : "1.0"
  }, {
    "name" : "BOJGetCrCardDetails",
    "version" : "1.0"
  }, {
    "name" : "BOJCreditCardPayment",
    "version" : "1.0"
  }, {
    "name" : "BOJGetStatisticsDetails",
    "version" : "1.0"
  }, {
    "name" : "BOJGetExchRates",
    "version" : "1.0"
  }, {
    "name" : "BOJCardlessTransList",
    "version" : "1.0"
  }, {
    "name" : "BOJCancelCardlessRequest",
    "version" : "1.0"
  }, {
    "name" : "BOJCardlessAuth",
    "version" : "1.0"
  }, {
    "name" : "BOJDcAddAccLink",
    "version" : "1.0"
  }, {
    "name" : "BOJDcChangeDefaultAcc",
    "version" : "1.0"
  }, {
    "name" : "BOJprApplyLoanPostpone",
    "version" : "1.0"
  }, {
    "name" : "BOJDcDelAccLink",
    "version" : "1.0"
  }, {
    "name" : "RetailBankingBEServices",
    "version" : "1.0"
  }, {
    "name" : "BOJGetTransactionDetails",
    "version" : "1.0"
  }, {
    "name" : "BOJGetAccDetailsNode",
    "version" : "1.0"
  }, {
    "name" : "BOJCnfSiCancellation",
    "version" : "1.0"
  }, {
    "name" : "BOJSendOTP",
    "version" : "1.0"
  }, {
    "name" : "BOJBranchList",
    "version" : "1.0"
  }, {
    "name" : "BOJATMList",
    "version" : "1.0"
  }, {
    "name" : "BOJUpdateFavorBeneficiary",
    "version" : "1.0"
  }, {
    "name" : "BOJBitlyShortenURL",
    "version" : "1.0"
  }, {
    "name" : "BOJprGetTransferLimit",
    "version" : "1.0"
  }, {
    "name" : "BOJprGetAccTxnMaster",
    "version" : "1.0"
  }, {
    "name" : "BOJGetPalpayMappingCodes",
    "version" : "1.0"
  }, {
    "name" : "BOJprCreateAddFtd",
    "version" : "1.0"
  }, {
    "name" : "BOJIPS",
    "version" : "1.0"
  }, {
    "name" : "testregestered",
    "version" : "1.0"
  }, {
    "name" : "BOJPrGetIPSAcceptedDetail",
    "version" : "1.0"
  }, {
    "name" : "BOJprGetFtdIntRate",
    "version" : "1.0"
  }, {
    "name" : "BOJCXLead",
    "version" : "1.0"
  }, {
    "name" : "BOJGetIPSCreditStatus",
    "version" : "1.0"
  } ],
  "orchSvcs" : [ {
    "name" : "LoopInRemitDetails",
    "version" : "1.0"
  }, {
    "name" : "PushNotification",
    "version" : "1.0"
  }, {
    "name" : "getTncProfileData",
    "version" : "1.0"
  }, {
    "name" : "loopCardUnLinkAccount",
    "version" : "1.0"
  }, {
    "name" : "GetDetails",
    "version" : "1.0"
  }, {
    "name" : "OTPSMSController",
    "version" : "1.0"
  }, {
    "name" : "updateBeneficiary",
    "version" : "1.0"
  }, {
    "name" : "LoopBulkPaymentPrePaid",
    "version" : "1.0"
  }, {
    "name" : "ChangeUnamePwd",
    "version" : "1.0"
  }, {
    "name" : "EFWateercomBillerList1",
    "version" : "1.0"
  }, {
    "name" : "updateJMPBene",
    "version" : "1.0"
  }, {
    "name" : "LoopStatistics",
    "version" : "1.0"
  }, {
    "name" : "ATMLocator",
    "version" : "1.0"
  }, {
    "name" : "TransferMoneySS",
    "version" : "1.0"
  }, {
    "name" : "loopCardLinkAccount",
    "version" : "1.0"
  }, {
    "name" : "PrePaidValnDebitAmount",
    "version" : "1.0"
  }, {
    "name" : "AccountTransactions",
    "version" : "1.0"
  }, {
    "name" : "GetNotificationController",
    "version" : "1.0"
  }, {
    "name" : "ATMPOSLimit",
    "version" : "1.0"
  }, {
    "name" : "AllCardList",
    "version" : "1.0"
  }, {
    "name" : "LoopBulkPayment",
    "version" : "1.0"
  }, {
    "name" : "OTPController",
    "version" : "1.0"
  }, {
    "name" : "LoopBulkPrepaidPaymentServ",
    "version" : "1.0"
  }, {
    "name" : "GetCommission",
    "version" : "1.0"
  }, {
    "name" : "DebitCardList",
    "version" : "1.0"
  }, {
    "name" : "ApplyCards",
    "version" : "1.0"
  }, {
    "name" : "InformationSupport",
    "version" : "1.0"
  }, {
    "name" : "BranchATMLocator",
    "version" : "1.0"
  }, {
    "name" : "LoopBulkPaymentPostpaid",
    "version" : "1.0"
  }, {
    "name" : "GetTransactionAndMaster",
    "version" : "1.0"
  }, {
    "name" : "CancelCard",
    "version" : "1.0"
  }, {
    "name" : "LoopOutRemitDetails",
    "version" : "1.0"
  }, {
    "name" : "BojUserReg",
    "version" : "1.0"
  }, {
    "name" : "LoopExample",
    "version" : "1.0"
  }, {
    "name" : "EFWateercomBillerList",
    "version" : "1.0"
  }, {
    "name" : "BOJChangeSMSNo",
    "version" : "1.0"
  }, {
    "name" : "NotificationController",
    "version" : "1.0"
  }, {
    "name" : "GetAccountListService",
    "version" : "1.0"
  } ],
  "objectSvcs" : [ {
    "name" : "RBObjects",
    "version" : "1.0"
  } ]
}