{
    "@class": "com.kony.gen.viz.model.component.KVizBrowser",
    "DNDConfig": null,
    "__parentReadjusting__": false,
    "_height_": {
        "type": "string",
        "value": "96%"
    },
    "_left_": {
        "type": "string",
        "value": "5%"
    },
    "_margin_": [
        0,
        0,
        0,
        0
    ],
    "_padding_": [
        0,
        0,
        0,
        0
    ],
    "_top_": {
        "type": "string",
        "value": "3%"
    },
    "_type_": 3,
    "_width_": {
        "type": "string",
        "value": "90%"
    },
    "canUpdateUI": true,
    "containerweight": 69,
    "detecttelnumber": true,
    "htmlstring": "",
    "id": "richTexttermsandconditions",
    "ide_onPageFinished": "AS_Browser_f1e1fb9d4b8b46e692fe3fe24daa4fbc",
    "info": null,
    "isvisible": true,
    "kuid": "c29c2028528a46e2b16bbb6b3927c9f2",
    "margininpixel": false,
    "method": "get",
    "name": "kony.ui.Browser",
    "paddinginpixel": false,
    "parent": "mainContent",
    "pf": "frmTermsAndConditionsKA",
    "requesturlconfig": {
        "URL": "",
        "requestMethod": "get"
    },
    "screenlevelwidget": false,
    "url": "",
    "wType": "Browser",
    "zindex": 1
}