{
    "DNDConfig": null,
    "__markedForDelete__": true,
    "__parentReadjusting__": false,
    "_height_": {
        "type": "string",
        "value": "13%"
    },
    "_left_": {
        "type": "string",
        "value": "5%"
    },
    "_margin_": [
        0,
        0,
        0,
        0
    ],
    "_orientation_": 6,
    "_padding_": [
        0,
        0,
        0,
        0
    ],
    "_percent_": true,
    "_skin_": "s388f0c575ef4d08ac3a5ed0a4b90085",
    "_top_": {
        "type": "string",
        "value": "1%"
    },
    "_width_": {
        "type": "string",
        "value": "90%"
    },
    "allboxes": [],
    "autogrowmode": 0,
    "canUpdateUI": true,
    "children": [
        "lblDepositStartDateTitle",
        "lblDepositStartDate",
        "Image0e7683ea123f546",
        "calOpenDeposite",
        "FlexContainer0a01d5f3c26114a",
        "lblMaturityDate"
    ],
    "clipbounds": true,
    "containerweight": 100,
    "enablescrolling": true,
    "id": "flxDepositStartDate",
    "info": null,
    "isvisible": true,
    "kuid": "aca1ff24f4ae4c3a9ba190c3fe9becff",
    "layouttype": 2,
    "name": "kony.ui.FlexContainer",
    "parent": "flxDepositSelection",
    "pf": "frmOpenTermDeposit",
    "snapgridsize": 10,
    "snaptogrid": true,
    "wType": "FlexContainer",
    "widgetalignment": 1,
    "zindex": 1
}