{
    "DNDConfig": null,
    "_height_": {
        "type": "string",
        "value": "90%"
    },
    "_margin_": [
        0,
        0,
        0,
        0
    ],
    "_orientation_": 6,
    "_padding_": [
        0,
        0,
        0,
        0
    ],
    "_percent_": true,
    "_skin_": "s15e4ac2d02f475fbc70f4dcf387a73a",
    "allboxes": [],
    "autogrowmode": 0,
    "canUpdateUI": true,
    "children": [
        "cardType",
        "flxCardDetails"
    ],
    "clipbounds": true,
    "containerId": true,
    "containerweight": 100,
    "defaultunit": 2,
    "enablescrolling": true,
    "focusskin": "s942fa7f07cb4101be2034e97dd1a163",
    "id": "flxCreditCardTemplateKA",
    "info": null,
    "isTemplate": true,
    "isvisible": true,
    "kuid": "1c85ca18a8294d78b84ff07c2c5ff267",
    "layouttype": 2,
    "name": "kony.ui.FlexContainer",
    "parent": "segmanagecardstmplt",
    "pf": "segmanagecardstmplt",
    "snapgridsize": 10,
    "snaptogrid": true,
    "wType": "FlexContainer",
    "widgetalignment": 1
}