{
  "type" : "svcdriven",
  "custom" : false,
  "junction" : false,
  "customizable" : false,
  "verbs" : {
    "GetEfwBillerList" : "GetEfwBillerListMapping",
    "getPrePaidBillers" : "getPrePaidBillersMapping",
    "GetPPServiceType" : "GetPPServiceTypeMapping",
    "partialupdate" : "partialupdateMapping",
    "delete" : "deleteMapping",
    "addBenePrePaid" : "addBenePrePaidMapping",
    "GetEfwServiceType" : "GetEfwServiceTypeMapping",
    "GetEfwBillerCategory" : "GetEfwBillerCategoryMapping",
    "get" : "getMapping",
    "create" : "createMapping",
    "PrePaidValDebit" : "PrePaidValDebitMapping",
    "GetBillDetails" : "GetBillDetailsMapping",
    "getFeeForBill" : "getFeeForBillMapping"
  },
  "entityProperties" : {
    "BatchMode" : "buffer",
    "designTimeBackendMeta" : {
    },
    "backendMeta" : {
      "serviceVersion" : "1.0",
      "operationName" : "getPayeeList",
      "serviceName" : "RetailBankingBEServices"
    }
  }
}