{
    "@class": "com.kony.gen.viz.model.component.KVizImage2",
    "DNDConfig": null,
    "__parentReadjusting__": false,
    "_base64_": null,
    "_height_": {
        "type": "string",
        "value": "28dp"
    },
    "_left_": {
        "type": "string",
        "value": "5%"
    },
    "_margin_": [
        0,
        0,
        0,
        0
    ],
    "_padding_": [
        0,
        0,
        0,
        0
    ],
    "_skin_": "s319dbfc5808408bbf0cda0a09d985ce",
    "_src_": "imagedrag.png",
    "_top_": {
        "type": "string",
        "value": "0dp"
    },
    "_width_": {
        "type": "string",
        "value": "28dp"
    },
    "canUpdateUI": true,
    "centery": {
        "type": "string",
        "value": "50%"
    },
    "containerId": true,
    "containerweight": 100,
    "context": {
        "channel": "mobile",
        "formID": "FBox02fdfea8b923649",
        "templateType": "segments",
        "topLevelBox": null
    },
    "enabled": false,
    "id": "informationListIcon",
    "imagescalemode": 1,
    "info": null,
    "isvisible": true,
    "kuid": "f9ac86f1585a4b59853bf61797fb354c",
    "name": "kony.ui.Image2",
    "parent": "CopyFBox02b498f6048be4e",
    "pf": "CopyFBox02b498f6048be4e",
    "srcType": 1,
    "wType": "Image",
    "widgetalignment": 5
}