{
    "DNDConfig": null,
    "__parentReadjusting__": false,
    "_height_": {
        "type": "string",
        "value": "100%"
    },
    "_left_": {
        "type": "string",
        "value": "0dp"
    },
    "_margin_": [
        0,
        0,
        0,
        0
    ],
    "_orientation_": 6,
    "_padding_": [
        0,
        0,
        0,
        0
    ],
    "_percent_": true,
    "_skin_": "s32d25172d404d44bb0583edda857abf",
    "_top_": {
        "type": "string",
        "value": "0dp"
    },
    "_width_": {
        "type": "string",
        "value": "100%"
    },
    "allboxes": [],
    "autogrowmode": 0,
    "canUpdateUI": true,
    "children": [
        "flxSeg"
    ],
    "clipbounds": true,
    "containerweight": 100,
    "enablescrolling": true,
    "id": "flxSiriinfo",
    "ide_onClick": "AS_FlexContainer_ee7003bb67c74a5494053c5c17ac05e5",
    "info": null,
    "isvisible": false,
    "kuid": "j4016748b2a24feda0bec611dd107223",
    "layouttype": 2,
    "name": "kony.ui.FlexContainer",
    "parent": "frmUserSettingsSiri",
    "pf": "frmUserSettingsSiri",
    "snapgridsize": 10,
    "snaptogrid": true,
    "wType": "FlexContainer",
    "widgetalignment": 1,
    "zindex": 1
}