{
    "DNDConfig": null,
    "__parentReadjusting__": false,
    "_height_": {
        "type": "string",
        "value": "10%"
    },
    "_left_": {
        "type": "string",
        "value": "0dp"
    },
    "_margin_": [
        0,
        0,
        0,
        0
    ],
    "_orientation_": 6,
    "_padding_": [
        0,
        0,
        0,
        0
    ],
    "_percent_": true,
    "_skin_": "s5556363cd32445c97a0b69cb7889976",
    "_top_": {
        "type": "string",
        "value": "0dp"
    },
    "_width_": {
        "type": "string",
        "value": "100%"
    },
    "allboxes": [],
    "autogrowmode": 0,
    "canUpdateUI": true,
    "children": [
        "lblQuickBalance",
        "CopylblMyProfileRightIcon0dbe4d02cceae40",
        "flxHideQUick"
    ],
    "clipbounds": true,
    "containerweight": 100,
    "enablescrolling": true,
    "id": "flxQuickBalance",
    "ide_onClick": "AS_FlexContainer_a48f8de72f8d43778d38b42590c24dda",
    "info": null,
    "isvisible": false,
    "kuid": "a8b16a1b08ac4c75af074563875ca3e4",
    "layouttype": 2,
    "name": "kony.ui.FlexContainer",
    "parent": "flxMenuContainer",
    "pf": "frmSettingsKA",
    "snapgridsize": 10,
    "snaptogrid": true,
    "wType": "FlexContainer",
    "widgetalignment": 1,
    "zindex": 1
}