{
    "@class": "com.kony.gen.viz.model.component.KVizButton",
    "DNDConfig": null,
    "__parentReadjusting__": false,
    "_height_": {
        "type": "string",
        "value": "98%"
    },
    "_margin_": [
        6,
        6,
        6,
        6
    ],
    "_padding_": [
        0,
        0,
        0,
        0
    ],
    "_right_": {
        "type": "string",
        "value": "0%"
    },
    "_skin_": "s41fb5693a024ca6af3b2c8c71179333",
    "_text_": "International",
    "_width_": {
        "type": "string",
        "value": "33%"
    },
    "canUpdateUI": true,
    "centery": {
        "type": "string",
        "value": "50%"
    },
    "containerweight": 100,
    "contentalignment": 5,
    "displaytext": true,
    "focusskin": "s0eacd0585e64c81a58d225fcf6cd7c5",
    "id": "btnInternational",
    "ide_onClick": "AS_Button_f01cc5f187b947d7af5ca061e7a43307",
    "info": null,
    "iscustomlayout": true,
    "isvisible": true,
    "kuid": "c589cf5bf77f493696561413c31d9c26",
    "name": "kony.ui.Button",
    "paddinginpixel": false,
    "parent": "flxContent",
    "pf": "frmAddExternalAccountKA",
    "retainflexpositionproperties": false,
    "texti18n": "i18n.transfer.International",
    "wType": "Button",
    "zindex": 2
}