{
    "DNDConfig": null,
    "__parentReadjusting__": false,
    "_bottom_": {
        "type": "number",
        "value": "0"
    },
    "_left_": {
        "type": "string",
        "value": "0dp"
    },
    "_margin_": [
        0,
        0,
        0,
        0
    ],
    "_padding_": [
        0,
        0,
        0,
        0
    ],
    "_skin_": "s33c2b827d6745b5a56322e35bc3c999",
    "_top_": {
        "type": "string",
        "value": "50dp"
    },
    "_width_": {
        "type": "string",
        "value": "100%"
    },
    "allboxes": [],
    "allowhorizontalbounce": false,
    "allowverticalbounce": true,
    "bounces": false,
    "canUpdateUI": true,
    "children": [
        "externalAccountType",
        "CopyborderBottom0008e9525288547",
        "CopyLabel03e39ab4661a845",
        "CopyborderBottom067eebb20425141",
        "externalAccountCountry",
        "CopyexternalAccountNameContainer02cb7c7ca6e1a48",
        "CopyexternalAccountNameContainer03d9566d885a944",
        "externalAccountTypeContainer",
        "CopyborderBottom05049ab71905c44",
        "externalAccountNumberContainer",
        "externalRountingNumberContainer",
        "externalSwiftCodeKA",
        "CopybuttonWrapper076c20712f8344b"
    ],
    "clipbounds": true,
    "containerweight": 100,
    "decelerat": false,
    "dragg": false,
    "enabled": false,
    "enablescrolling": true,
    "horizontalscrollindicator": true,
    "id": "mainScrollContainer",
    "info": null,
    "isvisible": false,
    "kuid": "388d6d9dfe794c4889478ee39089ada1",
    "layouttype": 4,
    "name": "kony.ui.FlexScrollContainer",
    "orientation": 6,
    "pagingenabled": false,
    "parent": "frmAddExternalAccountKA",
    "percent": true,
    "pf": "frmAddExternalAccountKA",
    "scrolldirection": 2,
    "snapgridsize": 10,
    "snaptogrid": true,
    "track": false,
    "verticalscrollindicator": false,
    "wType": "FlexScrollContainer",
    "widgetalignment": 1,
    "zindex": 1
}