{
    "@class": "com.kony.gen.viz.model.component.KVizTextBox2",
    "DNDConfig": null,
    "__parentReadjusting__": false,
    "_height_": {
        "type": "number",
        "value": "38"
    },
    "_left_": {
        "type": "string",
        "value": "0dp"
    },
    "_margin_": [
        0,
        0,
        0,
        0
    ],
    "_padding_": [
        0,
        0,
        0,
        0
    ],
    "_placeholder_": "Enter a 9 digit routing number",
    "_right_": {
        "type": "number",
        "value": "0"
    },
    "_skin_": "s91685645d0c4a43826fdd5c95fe611d",
    "_text_": "",
    "_top_": {
        "type": "string",
        "value": "0dp"
    },
    "android": {},
    "autocapitalize": "none",
    "autocomplete": false,
    "autocorrect": false,
    "autofilter": false,
    "canUpdateUI": true,
    "containerheight": "",
    "containerheightmode": 1,
    "containerweight": 100,
    "contentalignment": 4,
    "enabled": false,
    "focusskin": "s16addfe9da944a3add187c9cd34aa56",
    "id": "txtExternalRoutingNumberKA",
    "info": null,
    "iphone": {},
    "isvisible": true,
    "keyboardstyle": "digitpad",
    "keyboardtype": "A",
    "kuid": "c0004b729e7045848ebdcaddec538810",
    "mode": "N",
    "name": "kony.ui.TextBox2",
    "parent": "routingNumberContainer",
    "pf": "frmAddExternalAccountKA",
    "placeholderi18n": "i18n.overview.enterRoutingNumberPlh",
    "placeholderskin": "s2533d36333546558bba8e47391a2f5f",
    "securetextentry": false,
    "textinputmode": "N",
    "viewtype": "default",
    "wType": "TextField"
}