{
    "DNDConfig": null,
    "__parentReadjusting__": false,
    "_bottom_": {
        "type": "string",
        "value": "10dp"
    },
    "_height_": {
        "type": "string",
        "value": "45%"
    },
    "_left_": {
        "type": "string",
        "value": "3dp"
    },
    "_margin_": [
        0,
        0,
        0,
        0
    ],
    "_padding_": [
        0,
        0,
        0,
        0
    ],
    "_skin_": "s70ada2a35b147dd81600d092800acc6",
    "_top_": {
        "type": "string",
        "value": "126dp"
    },
    "_width_": {
        "type": "string",
        "value": "100%"
    },
    "allboxes": [],
    "autogrowmode": 0,
    "canUpdateUI": true,
    "children": [
        "CopyAccountDetailsWrapper0c341cf3e0a544b",
        "CopyStatementsWrapper0fe2c9a16a9c84b",
        "CopyMoreWrapper0c65fcc8b23ab42"
    ],
    "clipbounds": true,
    "containerweight": 100,
    "enabled": false,
    "enablescrolling": true,
    "id": "CopyactionWrapper0d3c3d4aa2a8548",
    "info": null,
    "isvisible": false,
    "kuid": "d09d003bb82e4ec38002728fb340d00c",
    "layouttype": 3,
    "masterType": 1,
    "name": "kony.ui.FlexContainer",
    "orientation": 6,
    "parent": "CopyaccountDetailsOverview0h78ad6c5ba654e",
    "percent": true,
    "pf": "frmAccountDetailKA",
    "snapgridsize": 10,
    "snaptogrid": true,
    "wType": "FlexContainer",
    "widgetalignment": 1,
    "zindex": 1
}