{
    "@class": "com.kony.gen.viz.model.component.KVizLabel",
    "DNDConfig": null,
    "__parentReadjusting__": false,
    "_height_": {
        "type": "string",
        "value": "14.50%"
    },
    "_left_": {
        "type": "string",
        "value": "0dp"
    },
    "_margin_": [
        1,
        1,
        1,
        1
    ],
    "_padding_": [
        0,
        0,
        0,
        0
    ],
    "_skin_": "s86ec0623e9f461a996351afb1a95219",
    "_text_": "Recent Transactions",
    "_top_": {
        "type": "string",
        "value": "0dp"
    },
    "_width_": {
        "type": "string",
        "value": "100%"
    },
    "_wrapping_": 2,
    "canUpdateUI": true,
    "containerweight": 100,
    "contentalignment": 5,
    "enabled": false,
    "id": "CopyresourcesLabel0ff9c4baa95684d",
    "info": null,
    "ipad": {
        "psp": {
            "wrapping": 2
        }
    },
    "iphone": {
        "psp": {
            "wrapping": 2
        }
    },
    "isvisible": false,
    "kuid": "a75164206a5e476fb4d2ee5d4f54cc1b",
    "name": "kony.ui.Label",
    "parent": "flxLoansLower",
    "pf": "frmAccountDetailKA",
    "texti18n": "i18n.common.recentTransactions",
    "tooltip": "",
    "wType": "Label",
    "zindex": 10000
}