{
    "DNDConfig": null,
    "__parentReadjusting__": false,
    "_height_": {
        "type": "ref",
        "value": "preferred"
    },
    "_left_": {
        "type": "string",
        "value": "7.84%"
    },
    "_margin_": [
        0,
        0,
        0,
        0
    ],
    "_orientation_": 6,
    "_padding_": [
        0,
        0,
        0,
        0
    ],
    "_percent_": true,
    "_skin_": "s9c993eee1b04e9bb1a208e2b207902b",
    "_top_": {
        "type": "string",
        "value": "140dp"
    },
    "_width_": {
        "type": "string",
        "value": "100%"
    },
    "allboxes": [],
    "autogrowmode": 1,
    "canUpdateUI": true,
    "centerx": {
        "type": "string",
        "value": "50.01%"
    },
    "children": [
        "flxMoreOption1",
        "flxMoreOption2",
        "flxMoreOption3",
        "flxMoreOption4",
        "flxMoreOption5",
        "flxMoreOption6",
        "flxMoreOption7",
        "flxMoreOption8",
        "lineDivider",
        "collapseButton"
    ],
    "clipbounds": true,
    "containerweight": 100,
    "enablescrolling": true,
    "id": "flxMore",
    "info": null,
    "isvisible": false,
    "kuid": "d05b7e33941849e185bda5b6f23fbb71",
    "layouttype": 2,
    "name": "kony.ui.FlexContainer",
    "parent": "accountDetailsOverview",
    "pf": "frmAccountDetailKA",
    "snapgridsize": 10,
    "snaptogrid": true,
    "vizProps": {},
    "wType": "FlexContainer",
    "widgetalignment": 1,
    "zindex": 10
}