{
    "@class": "com.kony.gen.viz.model.component.KVizButton",
    "DNDConfig": null,
    "__parentReadjusting__": false,
    "_height_": {
        "type": "string",
        "value": "100%"
    },
    "_left_": {
        "type": "string",
        "value": "0dp"
    },
    "_margin_": [
        6,
        6,
        6,
        6
    ],
    "_padding_": [
        0,
        0,
        0,
        0
    ],
    "_skin_": "sd3a41987f644ccea1a1c110fa339c2d",
    "_text_": "",
    "_top_": {
        "type": "string",
        "value": "0dp"
    },
    "_width_": {
        "type": "string",
        "value": "100%"
    },
    "canUpdateUI": true,
    "containerweight": 100,
    "contentalignment": 5,
    "displaytext": true,
    "focusskin": "s4a474f768d84d40a70f44c068b4940d",
    "id": "Morebtn3",
    "ide_onClick": "AS_Button_ed52e33870904115b74c23556f90f40d",
    "info": null,
    "iphone": {
        "psp": {
            "showProgressIndicator": false
        }
    },
    "isvisible": true,
    "kuid": "g3e3f1f4b534488da198641161bcb4a8",
    "name": "kony.ui.Button",
    "parent": "flxMoreOption3",
    "pf": "frmAccountDetailKA",
    "showprogressindicator": false,
    "wType": "Button",
    "zindex": 1
}