{
    "DNDConfig": null,
    "__parentReadjusting__": false,
    "_height_": {
        "type": "string",
        "value": "100%"
    },
    "_left_": {
        "type": "string",
        "value": "0dp"
    },
    "_margin_": [
        0,
        0,
        0,
        0
    ],
    "_orientation_": 6,
    "_padding_": [
        0,
        0,
        0,
        0
    ],
    "_percent_": true,
    "_render_": true,
    "_skin_": "s388f0c575ef4d08ac3a5ed0a4b90085",
    "_top_": {
        "type": "string",
        "value": "0dp"
    },
    "_width_": {
        "type": "string",
        "value": "20%"
    },
    "allboxes": [],
    "android": {
        "render": true
    },
    "autogrowmode": 0,
    "canUpdateUI": true,
    "children": [
        "imgBot",
        "CopybtnAccounts0ff48f9feb0aa42",
        "CopyLabel0i584dcaf2e8546"
    ],
    "clipbounds": true,
    "containerId": true,
    "containerweight": 100,
    "enablescrolling": true,
    "id": "FlxBot",
    "ide_onClick": "AS_FlexContainer_gae364c3256e43af8b7fe6f2fdb3e9e8",
    "info": null,
    "iphone": {
        "render": true
    },
    "isvisible": true,
    "kuid": "b64b9cf81ddb4935b66f51f7ee99e344",
    "layouttype": 2,
    "name": "kony.ui.FlexContainer",
    "parent": "footerBackground",
    "pf": "iphoneFooterAr",
    "snapgridsize": 10,
    "snaptogrid": true,
    "spaan": {
        "render": true
    },
    "spabb": {
        "render": true
    },
    "spaip": {
        "render": true
    },
    "spawinphone8": {
        "render": true
    },
    "wType": "FlexContainer",
    "widgetalignment": 1,
    "winphone8": {
        "render": true
    },
    "zindex": 2
}