{
    "@class": "com.kony.gen.viz.model.component.KVizButton",
    "DNDConfig": null,
    "__parentReadjusting__": false,
    "_height_": {
        "type": "string",
        "value": "42dp"
    },
    "_margin_": [
        6,
        6,
        6,
        6
    ],
    "_padding_": [
        0,
        0,
        0,
        0
    ],
    "_skin_": "s6fe78a1f97447859f858ee585f6510a",
    "_text_": "PULL FOR ACCOUNT INSIGHTS",
    "_top_": {
        "type": "string",
        "value": "0dp"
    },
    "_width_": {
        "type": "string",
        "value": "250dp"
    },
    "canUpdateUI": true,
    "centerx": {
        "type": "string",
        "value": "50.00%"
    },
    "containerweight": 100,
    "contentalignment": 5,
    "disabledSkins": {},
    "displaytext": true,
    "focusskin": "sbe13586f59d4a768bfe23c1b619f8c6",
    "id": "insightsPullLabel",
    "ide_onClick": "AS_Button_c21faf739fa74b958dfaca3246379d02",
    "info": null,
    "isvisible": false,
    "kuid": "236091881720485d9b343a17c9513642",
    "name": "kony.ui.Button",
    "onclick": "AS_Button_39f01c9419164f99b6699259dccc866a",
    "parent": "insightsPull",
    "pf": "frmAccountsLandingKA",
    "texti18n": "i18n.overview.pullForAccountInsights",
    "wType": "Button",
    "zindex": 9999
}