{
  "operationConfig" : {
    "name" : "getMessageSubCategories7924",
    "type" : "MappedToBackend",
    "cachable" : false,
    "smsEnabled" : false,
    "security" : "authorized_app_user",
    "responseEncoding" : "UTF-8",
    "httpMethod" : "GET",
    "decodeResponseBody" : false,
    "oMapping" : "<?xml version=\"1.0\" encoding=\"UTF-8\" standalone=\"yes\"?><mapper xmlns=\"http://www.kony.com/ns/mapper\">  <map inputpath=\"response_in\" outputpath=\"response_out\">    <map inputpath=\"MessageSubCategory\" outputpath=\"MessageSubCategory\">      <set-param inputpath=\"subcategoryName\" outputpath=\"subcategoryName\"/>      <set-param inputpath=\"subcategoryId\" outputpath=\"subcategoryId\"/>      <set-param inputpath=\"categoryId\" outputpath=\"categoryId\"/>    </map>  </map></mapper>",
    "applyCommonMapping" : true,
    "backendMeta" : {
      "serviceVersion" : "1.0",
      "operationName" : "getMessageSubCategories",
      "serviceName" : "RetailBankingBEServices"
    },
    "relationshipHierarchyMapping" : {
      "children" : [ ],
      "name" : "MessageSubCategory",
      "selected" : true
    },
    "requestXmlMappingOverride" : false,
    "responseXmlMappingOverride" : false
  }
}