{
    "@class": "com.kony.gen.viz.model.component.KVizButton",
    "DNDConfig": null,
    "__parentReadjusting__": false,
    "_height_": {
        "type": "string",
        "value": "50dp"
    },
    "_left_": {
        "type": "string",
        "value": "0dp"
    },
    "_margin_": [
        6,
        6,
        6,
        6
    ],
    "_padding_": [
        0,
        0,
        0,
        0
    ],
    "_skin_": "s1b558d5a76c4e74aa712819f5be63d1",
    "_text_": "",
    "_top_": {
        "type": "string",
        "value": "0dp"
    },
    "_width_": {
        "type": "string",
        "value": "50dp"
    },
    "canUpdateUI": true,
    "containerweight": 100,
    "contentalignment": 5,
    "displaytext": true,
    "focusskin": "sb803869ef8f4c42a3233b6ac9dce91b",
    "id": "androidBack",
    "ide_onClick": "AS_Button_c7d9c0cf4fa445fdb67a930088657c7f",
    "info": null,
    "iphone": {
        "psp": {
            "showProgressIndicator": false
        }
    },
    "isvisible": true,
    "kuid": "c710a4459b684e9fa47cb25d91fedf06",
    "name": "kony.ui.Button",
    "onclick": "AS_Button_24ac1164d80b4630a93de14057e8dde0",
    "parent": "androidTitleBar",
    "pf": "frmtransactionChequeKA",
    "showprogressindicator": false,
    "wType": "Button",
    "zindex": 1
}