{
    "@class": "com.kony.gen.viz.model.container.KVizSegment2",
    "DNDConfig": null,
    "__parentReadjusting__": false,
    "_data_": [
        {
            "CopylblCurrency0c4373e11aa8641": {
                "@class": "com.viz.ide.model.segment.SimpleTextSegmentData",
                "text": ""
            },
            "CopylblDescriptionAr0ca1638a7c3ee4b": {
                "@class": "com.viz.ide.model.segment.SimpleTextSegmentData",
                "text": ""
            },
            "imgCountryIcon": {
                "@class": "com.viz.ide.model.segment.ImageSegmentData",
                "src": ""
            },
            "imgTickIcon": {
                "@class": "com.viz.ide.model.segment.SimpleTextSegmentData",
                "text": ""
            },
            "lblCurrCode": {
                "@class": "com.viz.ide.model.segment.SimpleTextSegmentData",
                "text": ""
            },
            "lblCurrency": {
                "@class": "com.viz.ide.model.segment.SimpleTextSegmentData",
                "text": ""
            },
            "lblDecimal": {
                "@class": "com.viz.ide.model.segment.SimpleTextSegmentData",
                "text": ""
            },
            "lblDescriptionAr": {
                "@class": "com.viz.ide.model.segment.SimpleTextSegmentData",
                "text": ""
            },
            "lblDescriptionEn": {
                "@class": "com.viz.ide.model.segment.SimpleTextSegmentData",
                "text": ""
            },
            "lblMobileCountry": {
                "@class": "com.viz.ide.model.segment.SimpleTextSegmentData",
                "text": ""
            }
        }
    ],
    "_height_": {
        "type": "string",
        "value": "100%"
    },
    "_indicator_": "none",
    "_left_": {
        "type": "string",
        "value": "0dp"
    },
    "_margin_": [
        0,
        0,
        0,
        0
    ],
    "_orientation_": 2,
    "_padding_": [
        0,
        0,
        0,
        0
    ],
    "_top_": {
        "type": "string",
        "value": "0dp"
    },
    "_width_": {
        "type": "string",
        "value": "100%"
    },
    "autogrowmode": 0,
    "canUpdateUI": true,
    "containerweight": 100,
    "counter": "00",
    "focusedindex": null,
    "focuseditem": null,
    "groupcells": false,
    "hasSections": false,
    "id": "segCurrency",
    "ide_onRowClick": "AS_Segment_fe32acaba15741509c67abb3e766d4f8",
    "info": null,
    "invokedProperty": "unselectedStateImage",
    "ipad": {
        "psp": {
            "indicator": "rowselect"
        }
    },
    "iphone": {
        "psp": {
            "indicator": "none"
        }
    },
    "isvisible": true,
    "kuid": "ce3fc2555063443fa1609082857000c7",
    "masterdata": {},
    "name": "kony.ui.SegmentedUI2",
    "needpageindicator": true,
    "pageoffdotimage": "pageoffdot.png",
    "pageondotimage": "pageondot.png",
    "paginationconfig": {
        "position": "bottom"
    },
    "parent": "flxCurrency",
    "pf": "frmCurrency",
    "retainselection": false,
    "rowTemplateId": "ba1e826139914cf1b46ce2600a630ac6",
    "rowcounter": 0,
    "rowfocusskin": "s5fa38be22fb4f22b7c642b08276ab82",
    "rowskin": "sdb5c84bf91546c1acb345dbb8ea40c7",
    "rowtemplate": "tmpFlxCurrency",
    "screenlevelwidget": false,
    "seccounter": 0,
    "sectionHeaderTemplateId": null,
    "sectionheaderskin": "s67621b8a82d49f285da06b4f5a0c993",
    "selectedRows": null,
    "selectedState": false,
    "selectedindex": null,
    "selectedindices": null,
    "selecteditems": null,
    "selectedsectionindex": 0,
    "selectimage": "tick.png",
    "selectionbehavior": "singleselect",
    "selectionbehaviorconfig": {
        "imageIdentifier": "imgTickIcon",
        "selectedStateImage": "tick.png",
        "unselectedStateImage": "tran.png"
    },
    "selectionindicator": "imgTickIcon",
    "separatorcolor": "023a6900",
    "separatorrequired": true,
    "separatorthickness": 1,
    "showscrollbars": false,
    "unselectimage": "tran.png",
    "viewtype": "tableview",
    "vizProps": {},
    "wType": "Segment",
    "widgetalignment": 5,
    "widgetdatamap": {
        "CopylblCurrency0c4373e11aa8641": "CopylblCurrency0c4373e11aa8641",
        "CopylblDescriptionAr0ca1638a7c3ee4b": "CopylblDescriptionAr0ca1638a7c3ee4b",
        "flxCountryIcon": "flxCountryIcon",
        "flxCurrencydetails": "flxCurrencydetails",
        "imgCountryIcon": "imgCountryIcon",
        "imgTickIcon": "imgTickIcon",
        "lblCurrCode": "lblCurrCode",
        "lblCurrency": "lblCurrency",
        "lblDecimal": "lblDecimal",
        "lblDescriptionAr": "lblDescriptionAr",
        "lblDescriptionEn": "lblDescriptionEn",
        "lblMobileCountry": "lblMobileCountry",
        "tmpFlxCurrency": "tmpFlxCurrency"
    },
    "zindex": 1
}