{
    "DNDConfig": null,
    "__parentReadjusting__": false,
    "_height_": {
        "type": "string",
        "value": "90dp"
    },
    "_left_": {
        "type": "string",
        "value": "5%"
    },
    "_margin_": [
        0,
        0,
        0,
        0
    ],
    "_padding_": [
        0,
        0,
        0,
        0
    ],
    "_render_": true,
    "_skin_": "s942fa7f07cb4101be2034e97dd1a163",
    "_top_": {
        "type": "string",
        "value": "0dp"
    },
    "_width_": {
        "type": "string",
        "value": "100%"
    },
    "allboxes": [],
    "android": {
        "render": true
    },
    "autogrowmode": 0,
    "canUpdateUI": true,
    "children": [
        "nameContainer",
        "amtOutsatndingBal",
        "amountcurrBal",
        "typeAccount",
        "typeKA",
        "lblRowSeparator",
        "Label0bed5640cdb4b46",
        "btnNav",
        "flxamount",
        "flxLine",
        "btnNav1",
        "flxCardless"
    ],
    "clipbounds": true,
    "containerId": true,
    "containerweight": 100,
    "disabledSkins": {},
    "enabled": false,
    "enablescrolling": true,
    "focusskin": "s6ce7a32ad744c6bb6a656db53b05b02",
    "id": "yourAccount1",
    "ide_onClick": "AS_FlexContainer_b70ab343f2154834a459e23563641473",
    "info": null,
    "iphone": {
        "render": true
    },
    "isTemplate": true,
    "isvisible": true,
    "kuid": "4db3c326cedb4508a2c21373ef82e07b",
    "layouttype": 2,
    "name": "kony.ui.FlexContainer",
    "orientation": 6,
    "parent": "tmpAccountLandingKA",
    "percent": true,
    "pf": "tmpAccountLandingKA",
    "snapgridsize": 10,
    "snaptogrid": true,
    "spaan": {
        "render": true
    },
    "spabb": {
        "render": true
    },
    "spaip": {
        "render": true
    },
    "spawinphone8": {
        "render": true
    },
    "wType": "FlexContainer",
    "widgetalignment": 1,
    "winphone8": {
        "render": true
    },
    "zindex": 1
}