{
    "@class": "com.kony.gen.viz.model.container.KVizSegment2",
    "DNDConfig": null,
    "__parentReadjusting__": false,
    "_data_": [
        {
            "lblCompanyNameKA": {
                "@class": "com.viz.ide.model.segment.SimpleTextSegmentData",
                "text": "Kony"
            },
            "lblSepKA": {
                "@class": "com.viz.ide.model.segment.SimpleTextSegmentData",
                "text": "Label"
            }
        },
        {
            "lblCompanyNameKA": {
                "@class": "com.viz.ide.model.segment.SimpleTextSegmentData",
                "text": "Gati"
            },
            "lblSepKA": {
                "@class": "com.viz.ide.model.segment.SimpleTextSegmentData",
                "text": "Label"
            }
        },
        {
            "lblCompanyNameKA": {
                "@class": "com.viz.ide.model.segment.SimpleTextSegmentData",
                "text": "Adobe"
            },
            "lblSepKA": {
                "@class": "com.viz.ide.model.segment.SimpleTextSegmentData",
                "text": "Label"
            }
        },
        {
            "lblCompanyNameKA": {
                "@class": "com.viz.ide.model.segment.SimpleTextSegmentData",
                "text": "Amazon"
            },
            "lblSepKA": {
                "@class": "com.viz.ide.model.segment.SimpleTextSegmentData",
                "text": "Label"
            }
        },
        {
            "lblCompanyNameKA": {
                "@class": "com.viz.ide.model.segment.SimpleTextSegmentData",
                "text": "Microsoft"
            },
            "lblSepKA": {
                "@class": "com.viz.ide.model.segment.SimpleTextSegmentData",
                "text": "Label"
            }
        },
        {
            "lblCompanyNameKA": {
                "@class": "com.viz.ide.model.segment.SimpleTextSegmentData",
                "text": "Pramati"
            },
            "lblSepKA": {
                "@class": "com.viz.ide.model.segment.SimpleTextSegmentData",
                "text": "Label"
            }
        },
        {
            "lblCompanyNameKA": {
                "@class": "com.viz.ide.model.segment.SimpleTextSegmentData",
                "text": "Pega"
            },
            "lblSepKA": {
                "@class": "com.viz.ide.model.segment.SimpleTextSegmentData",
                "text": "Label"
            }
        },
        {
            "lblCompanyNameKA": {
                "@class": "com.viz.ide.model.segment.SimpleTextSegmentData",
                "text": "Factset"
            },
            "lblSepKA": {
                "@class": "com.viz.ide.model.segment.SimpleTextSegmentData",
                "text": "Label"
            }
        },
        {
            "lblCompanyNameKA": {
                "@class": "com.viz.ide.model.segment.SimpleTextSegmentData",
                "text": "Intel"
            },
            "lblSepKA": {
                "@class": "com.viz.ide.model.segment.SimpleTextSegmentData",
                "text": "Label"
            }
        },
        {
            "lblCompanyNameKA": {
                "@class": "com.viz.ide.model.segment.SimpleTextSegmentData",
                "text": "Kony Private Ltd"
            },
            "lblSepKA": {
                "@class": "com.viz.ide.model.segment.SimpleTextSegmentData",
                "text": "Label"
            }
        },
        {
            "lblCompanyNameKA": {
                "@class": "com.viz.ide.model.segment.SimpleTextSegmentData",
                "text": "Adobe2"
            },
            "lblSepKA": {
                "@class": "com.viz.ide.model.segment.SimpleTextSegmentData",
                "text": "Label"
            }
        },
        {
            "lblCompanyNameKA": {
                "@class": "com.viz.ide.model.segment.SimpleTextSegmentData",
                "text": "Amazon3"
            },
            "lblSepKA": {
                "@class": "com.viz.ide.model.segment.SimpleTextSegmentData",
                "text": "Label"
            }
        },
        {
            "lblCompanyNameKA": {
                "@class": "com.viz.ide.model.segment.SimpleTextSegmentData",
                "text": "Micro"
            },
            "lblSepKA": {
                "@class": "com.viz.ide.model.segment.SimpleTextSegmentData",
                "text": "Label"
            }
        }
    ],
    "_height_": {
        "type": "string",
        "value": "100%"
    },
    "_indicator_": "none",
    "_left_": {
        "type": "string",
        "value": "0dp"
    },
    "_margin_": [
        0,
        0,
        0,
        0
    ],
    "_orientation_": 2,
    "_padding_": [
        0,
        0,
        0,
        0
    ],
    "_top_": {
        "type": "string",
        "value": "0dp"
    },
    "_width_": {
        "type": "string",
        "value": "100%"
    },
    "autogrowmode": 0,
    "canUpdateUI": true,
    "containerweight": 100,
    "counter": "012",
    "focusedindex": null,
    "focuseditem": null,
    "groupcells": false,
    "hasSections": false,
    "id": "segCompanyListKA",
    "ide_onRowClick": "AS_Segment_c5acee60d33647ee96e481a376cb0a0d",
    "info": null,
    "ipad": {
        "psp": {
            "indicator": "rowselect"
        }
    },
    "iphone": {
        "psp": {
            "indicator": "none"
        }
    },
    "isvisible": true,
    "kuid": "fdbe77f66cde4359b0f8bcb6e543d300",
    "masterdata": {},
    "name": "kony.ui.SegmentedUI2",
    "needpageindicator": true,
    "pageoffdotimage": "pageoffdot.png",
    "pageondotimage": "pageondot.png",
    "paginationconfig": {
        "position": "bottom"
    },
    "parent": "flxScrollCompanyListKA",
    "pf": "frmAddNewPayeeKA",
    "retainselection": false,
    "rowTemplateId": "abf6a6de2dd6455295a9efd194242bb8",
    "rowcounter": 12,
    "rowfocusskin": "s5fa38be22fb4f22b7c642b08276ab82",
    "rowskin": "sd2ca277651a46c0ba82f3226859f5a6",
    "rowtemplate": "FlexContainer040c5584262324d",
    "screenlevelwidget": false,
    "seccounter": 0,
    "sectionheaderskin": "s67621b8a82d49f285da06b4f5a0c993",
    "selectedRows": null,
    "selectedState": false,
    "selectedindex": null,
    "selectedindices": null,
    "selecteditems": null,
    "selectedsectionindex": 0,
    "selectionbehavior": "default",
    "separatorcolor": "f7f7f700",
    "separatorrequired": true,
    "showscrollbars": false,
    "viewtype": "tableview",
    "vizProps": {},
    "wType": "Segment",
    "widgetalignment": 5,
    "widgetdatamap": {
        "FlexContainer040c5584262324d": "FlexContainer040c5584262324d",
        "lblCompanyNameKA": "lblCompanyNameKA",
        "lblSepKA": "lblSepKA"
    },
    "zindex": 1
}