{
    "@class": "com.kony.gen.viz.model.component.KVizButton",
    "DNDConfig": null,
    "__parentReadjusting__": false,
    "_height_": {
        "type": "string",
        "value": "42dp"
    },
    "_margin_": [
        6,
        6,
        6,
        6
    ],
    "_padding_": [
        0,
        0,
        0,
        0
    ],
    "_skin_": "s51d68053cae4eba826625de179be4ae",
    "_text_": "START",
    "_top_": {
        "type": "string",
        "value": "5%"
    },
    "_width_": {
        "type": "string",
        "value": "80%"
    },
    "canUpdateUI": true,
    "centerx": {
        "type": "string",
        "value": "50%"
    },
    "containerweight": 100,
    "contentalignment": 5,
    "disabledSkins": {
        "focusSkin": "s10149300144466da99cbf92f4fdacc8"
    },
    "displaytext": true,
    "id": "btnCancel",
    "ide_onClick": "AS_Button_db95248c8a1b48a1be59130b70ec8f12",
    "info": null,
    "isvisible": true,
    "kuid": "b06b782b3c9843ea8bb8915cd267e862",
    "name": "kony.ui.Button",
    "parent": "flxMain",
    "pf": "frmFaceIDCapture",
    "texti18n": "i18n.START",
    "wType": "Button",
    "zindex": 1
}