{
    "@class": "com.kony.gen.viz.model.component.KVizButton",
    "DNDConfig": null,
    "__parentReadjusting__": false,
    "_height_": {
        "type": "string",
        "value": "58dp"
    },
    "_margin_": [
        6,
        6,
        6,
        6
    ],
    "_padding_": [
        0,
        0,
        0,
        0
    ],
    "_skin_": "s94d80e187a44bd9bb9ce6db5e729010",
    "_text_": "",
    "_top_": {
        "type": "string",
        "value": "0dp"
    },
    "_width_": {
        "type": "string",
        "value": "80%"
    },
    "canUpdateUI": true,
    "centerx": {
        "type": "string",
        "value": "50.00%"
    },
    "containerweight": 100,
    "contentalignment": 5,
    "disabledSkins": {},
    "displaytext": true,
    "focusskin": "s6e8459b84e349d98629a088bbfe1304",
    "id": "btnViewAllKA",
    "ide_onClick": "AS_Button_if1db169e591421b93f95c0202b765bb",
    "info": null,
    "iphone": {
        "psp": {
            "showProgressIndicator": false
        }
    },
    "isvisible": true,
    "kuid": "c53b370f40504cdabcd0e0912e18ed28",
    "name": "kony.ui.Button",
    "onclick": "AS_Button_fd389e2eb47247a6891b5bb124a9f8d7",
    "parent": "toCardInner",
    "pf": "frmNewTransferKA",
    "showprogressindicator": false,
    "texti18n": "i18n.transfer.viewAll",
    "wType": "Button",
    "zindex": 1
}