{
    "@class": "com.kony.gen.viz.model.component.KVizButton",
    "DNDConfig": null,
    "__parentReadjusting__": false,
    "_height_": {
        "type": "string",
        "value": "50dp"
    },
    "_left_": {
        "type": "string",
        "value": "0dp"
    },
    "_margin_": [
        6,
        6,
        6,
        6
    ],
    "_padding_": [
        0,
        0,
        0,
        0
    ],
    "_skin_": "s1a96e0a6f17402ca691f55c7b41e893",
    "_text_": "Cancel",
    "_top_": {
        "type": "string",
        "value": "0dp"
    },
    "_width_": {
        "type": "string",
        "value": "70dp"
    },
    "canUpdateUI": true,
    "containerweight": 100,
    "contentalignment": 5,
    "displaytext": true,
    "focusskin": "s55cab51ac7b40b5a2db38b7b9c5822a",
    "id": "buttonLeft",
    "ide_onClick": "AS_Button_b37365556cbe4bc79765405aa7463b53",
    "info": null,
    "iphone": {
        "psp": {
            "showProgressIndicator": false
        }
    },
    "isvisible": true,
    "kuid": "708e72bf752b46249cea1f313ff46ebe",
    "minwidth": {
        "type": "string",
        "value": "50dp"
    },
    "name": "kony.ui.Button",
    "onclick": "AS_Button_b37365556cbe4bc79765405aa7463b53",
    "paddinginpixel": false,
    "parent": "titleBarNewTransfer",
    "pf": "frmNewTransferKA",
    "showprogressindicator": false,
    "texti18n": "i18n.common.cancel",
    "wType": "Button",
    "zindex": 1
}