{
    "DNDConfig": null,
    "_height_": {
        "type": "string",
        "value": "0dp"
    },
    "_margin_": [
        0,
        0,
        0,
        0
    ],
    "_orientation_": 6,
    "_padding_": [
        0,
        0,
        0,
        0
    ],
    "_percent_": true,
    "_skin_": "s15e4ac2d02f475fbc70f4dcf387a73a",
    "allboxes": [],
    "autogrowmode": 0,
    "canUpdateUI": true,
    "children": [
        "lblAccPrecheckNoTrans"
    ],
    "clipbounds": true,
    "containerId": true,
    "containerweight": 100,
    "enablescrolling": true,
    "id": "flxtmpAccPrecheckNoTransactions",
    "info": null,
    "isvisible": true,
    "kuid": "b12303c4f34146549f9ac1e0bfe75f4c",
    "layouttype": 2,
    "name": "kony.ui.FlexContainer",
    "parent": "tmpAccPrecheckNoTransactions",
    "pf": "tmpAccPrecheckNoTransactions",
    "snapgridsize": "0",
    "snaptogrid": false,
    "wType": "FlexContainer",
    "widgetalignment": 1
}