{
    "@class": "com.kony.gen.viz.model.component.KVizButton",
    "DNDConfig": null,
    "__parentReadjusting__": false,
    "_height_": {
        "type": "string",
        "value": "50%"
    },
    "_left_": {
        "type": "string",
        "value": "0%"
    },
    "_margin_": [
        6,
        6,
        6,
        6
    ],
    "_padding_": [
        0,
        0,
        0,
        0
    ],
    "_skin_": "sfdddcea6cff4d788f42120343a323ef",
    "_text_": "d",
    "_top_": {
        "type": "string",
        "value": "35%"
    },
    "_width_": {
        "type": "string",
        "value": "100%"
    },
    "canUpdateUI": true,
    "containerweight": 100,
    "contentalignment": 6,
    "displaytext": true,
    "focusskin": "sfdddcea6cff4d788f42120343a323ef",
    "id": "btnAccountNumber",
    "ide_onClick": "AS_Button_h469116c554740b485052ead96391b7d",
    "info": null,
    "isvisible": true,
    "kuid": "d08706cf99654303a8b8527ee8e35f50",
    "name": "kony.ui.Button",
    "parent": "flxAccountNumber",
    "pf": "frmApplyNewCardsKA",
    "wType": "Button",
    "zindex": 1
}