{
    "DNDConfig": null,
    "__parentReadjusting__": false,
    "_height_": {
        "type": "string",
        "value": "90%"
    },
    "_left_": {
        "type": "string",
        "value": "0%"
    },
    "_margin_": [
        0,
        0,
        0,
        0
    ],
    "_orientation_": 6,
    "_padding_": [
        0,
        0,
        0,
        0
    ],
    "_percent_": true,
    "_skin_": "s3f548bda3524e0388552e16122dc6fa",
    "_top_": {
        "type": "string",
        "value": "10%"
    },
    "_width_": {
        "type": "string",
        "value": "100%"
    },
    "allboxes": [],
    "allowhorizontalbounce": false,
    "allowverticalbounce": true,
    "bounces": true,
    "canUpdateUI": true,
    "children": [
        "flxPrimaryCardNumber",
        "flxUpgradeCard",
        "flxSuplementryCardType",
        "flxCardHolder",
        "lblHintCardHolder",
        "flxRelationshipType",
        "flxAge",
        "flxReason",
        "flxColor",
        "flxLimitType",
        "flxSuplementryCardLimit",
        "flxEmploymentStatus",
        "flxProfession",
        "flxTransferedSalary",
        "flxMonthlyIncome",
        "flxRequestLimit",
        "lblRequestLimitHint",
        "flxAccountNumber",
        "lblMobileNumberHint",
        "flxDeliveryMode",
        "flxBranchName",
        "flxAddress",
        "flxNotes",
        "lblReasonHint"
    ],
    "clipbounds": false,
    "containerweight": 100,
    "decelerat": false,
    "dragg": false,
    "enablescrolling": true,
    "horizontalscrollindicator": true,
    "id": "flxApplyNewCardsSecond",
    "info": null,
    "isvisible": false,
    "kuid": "ab01551e723746b19a27035808afe538",
    "layouttype": 4,
    "name": "kony.ui.FlexScrollContainer",
    "pagingenabled": false,
    "parent": "frmApplyNewCardsKA",
    "pf": "frmApplyNewCardsKA",
    "scrolldirection": 2,
    "snapgridsize": 10,
    "snaptogrid": true,
    "track": false,
    "verticalscrollindicator": true,
    "vizProps": {},
    "wType": "FlexScrollContainer",
    "widgetalignment": 1,
    "zindex": 2
}