{
    "@class": "com.kony.gen.viz.model.container.KVizSegment2",
    "DNDConfig": null,
    "__parentReadjusting__": false,
    "_data_": [
        {
            "CurrencyNameKA": {
                "@class": "com.viz.ide.model.segment.SimpleTextSegmentData",
                "text": "AUD"
            },
            "currencyValKA": {
                "@class": "com.viz.ide.model.segment.SimpleTextSegmentData",
                "text": "1.338"
            }
        },
        {
            "CurrencyNameKA": {
                "@class": "com.viz.ide.model.segment.SimpleTextSegmentData",
                "text": "CAD"
            },
            "currencyValKA": {
                "@class": "com.viz.ide.model.segment.SimpleTextSegmentData",
                "text": "1.270"
            }
        },
        {
            "CurrencyNameKA": {
                "@class": "com.viz.ide.model.segment.SimpleTextSegmentData",
                "text": "CNY"
            },
            "currencyValKA": {
                "@class": "com.viz.ide.model.segment.SimpleTextSegmentData",
                "text": "6.209"
            }
        },
        {
            "CurrencyNameKA": {
                "@class": "com.viz.ide.model.segment.SimpleTextSegmentData",
                "text": "EUR"
            },
            "currencyValKA": {
                "@class": "com.viz.ide.model.segment.SimpleTextSegmentData",
                "text": "0.894"
            }
        },
        {
            "CurrencyNameKA": {
                "@class": "com.viz.ide.model.segment.SimpleTextSegmentData",
                "text": "INR"
            },
            "currencyValKA": {
                "@class": "com.viz.ide.model.segment.SimpleTextSegmentData",
                "text": "63.39"
            }
        },
        {
            "CurrencyNameKA": {
                "@class": "com.viz.ide.model.segment.SimpleTextSegmentData",
                "text": "JPY"
            },
            "currencyValKA": {
                "@class": "com.viz.ide.model.segment.SimpleTextSegmentData",
                "text": "122.3"
            }
        },
        {
            "CurrencyNameKA": {
                "@class": "com.viz.ide.model.segment.SimpleTextSegmentData",
                "text": "USD"
            },
            "currencyValKA": {
                "@class": "com.viz.ide.model.segment.SimpleTextSegmentData",
                "text": "1"
            }
        }
    ],
    "_height_": {
        "type": "ref",
        "value": "preferred"
    },
    "_indicator_": "none",
    "_left_": {
        "type": "string",
        "value": "0dp"
    },
    "_margin_": [
        0,
        0,
        0,
        0
    ],
    "_orientation_": 2,
    "_padding_": [
        0,
        0,
        0,
        0
    ],
    "_top_": {
        "type": "string",
        "value": "0dp"
    },
    "_width_": {
        "type": "string",
        "value": "100%"
    },
    "autogrowmode": 1,
    "canUpdateUI": true,
    "containerweight": 100,
    "counter": "06",
    "focusedindex": null,
    "focuseditem": null,
    "generatedtemplate": "0271905c7acb41c1ab6fa7e29bec2e98",
    "groupcells": false,
    "hasSections": false,
    "id": "segForeignExRatesKA",
    "info": null,
    "ipad": {
        "psp": {
            "indicator": "rowselect"
        }
    },
    "iphone": {
        "psp": {
            "indicator": "none"
        }
    },
    "isvisible": true,
    "kuid": "1dbd3611ce5248b096265e3d40c7b2e6",
    "masterdata": {},
    "name": "kony.ui.SegmentedUI2",
    "needpageindicator": true,
    "pageoffdotimage": "pageoffdot.png",
    "pageondotimage": "pageondot.png",
    "paginationconfig": {
        "position": "bottom"
    },
    "parent": "mainContent",
    "pf": "frmMoreForeignExchangeRatesKA",
    "retainselection": false,
    "rowTemplateId": "0271905c7acb41c1ab6fa7e29bec2e98",
    "rowcounter": 6,
    "rowfocusskin": "sbded94310044f4a8af0f74747158a6d",
    "rowskin": "s188360adf7c445da91ce74d44371e05",
    "rowtemplate": "CopyFBox0c9be9d6518174e",
    "screenlevelwidget": false,
    "seccounter": 0,
    "sectionheaderskin": "s166bbed35d04ad1b28badead9d39877",
    "selectedRows": null,
    "selectedState": false,
    "selectedindex": null,
    "selectedindices": null,
    "selecteditems": null,
    "selectedsectionindex": 0,
    "selectionbehavior": "default",
    "separatorcolor": "eeeeee00",
    "separatorrequired": true,
    "separatorthickness": 1,
    "showscrollbars": false,
    "viewtype": "tableview",
    "wType": "Segment",
    "widgetalignment": 5,
    "widgetdatamap": {
        "lblCurrencyValKA": "lblCurrencyValKA",
        "lblUSDExRateKA": "lblUSDExRateKA"
    },
    "zindex": 1
}