{
    "@class": "com.kony.gen.viz.model.component.KVizTextBox2",
    "DNDConfig": null,
    "__parentReadjusting__": false,
    "_height_": {
        "type": "string",
        "value": "60%"
    },
    "_left_": {
        "type": "string",
        "value": "5%"
    },
    "_margin_": [
        0,
        0,
        0,
        0
    ],
    "_padding_": [
        3,
        0,
        0,
        0
    ],
    "_placeholder_": "0.000",
    "_skin_": "s8466dd9ae2243d092680f806c9b361c",
    "_text_": "",
    "_top_": {
        "type": "string",
        "value": "30%"
    },
    "_width_": {
        "type": "string",
        "value": "25%"
    },
    "autocapitalize": "none",
    "autocomplete": false,
    "autocorrect": false,
    "autofilter": false,
    "canUpdateUI": true,
    "containerheight": "",
    "containerheightmode": 1,
    "containerweight": 100,
    "contentalignment": 4,
    "focusskin": "s8466dd9ae2243d092680f806c9b361c",
    "id": "txtAmountRangeFrom",
    "ide_onDone": "AS_TextField_jc1ad7d3ef9c4040a0adfcf21d63bc5e",
    "ide_onTextChange": "AS_TextField_f2e65402127f4df890f4e326fc5f84fc",
    "info": null,
    "isvisible": true,
    "keyboardstyle": "A",
    "keyboardtype": "A",
    "kuid": "ed0305cda13242ee82d87b469db5071c",
    "mode": "N",
    "name": "kony.ui.TextBox2",
    "parent": "FlexContainer0b0328c9555bb43",
    "pf": "frmFilterTransaction",
    "securetextentry": false,
    "textinputmode": "N",
    "viewtype": "default",
    "wType": "TextField",
    "zindex": 1
}