{
    "@class": "com.kony.gen.viz.model.component.KVizTextBox2",
    "DNDConfig": null,
    "__parentReadjusting__": false,
    "_height_": {
        "type": "string",
        "value": "60%"
    },
    "_left_": {
        "type": "string",
        "value": "50%"
    },
    "_margin_": [
        0,
        0,
        0,
        0
    ],
    "_padding_": [
        3,
        0,
        0,
        0
    ],
    "_placeholder_": "0.000",
    "_skin_": "s8466dd9ae2243d092680f806c9b361c",
    "_text_": "",
    "_top_": {
        "type": "string",
        "value": "30%"
    },
    "_width_": {
        "type": "string",
        "value": "25%"
    },
    "autocapitalize": "none",
    "autocomplete": false,
    "autocorrect": false,
    "autofilter": false,
    "canUpdateUI": true,
    "containerheight": "",
    "containerheightmode": 1,
    "containerweight": 100,
    "contentalignment": 4,
    "focusskin": "s8466dd9ae2243d092680f806c9b361c",
    "id": "txtAmountRangeTo",
    "ide_onDone": "AS_TextField_fc8cf52d3b9c45b98b76d05ddc5bbb91",
    "ide_onTextChange": "AS_TextField_cf222c5878b444aa885df2bc71375aee",
    "info": null,
    "isvisible": true,
    "keyboardstyle": "A",
    "keyboardtype": "A",
    "kuid": "a92e1f22c47c463389e95a1c5b74cf50",
    "mode": "N",
    "name": "kony.ui.TextBox2",
    "parent": "FlexContainer0b0328c9555bb43",
    "pf": "frmFilterTransaction",
    "securetextentry": false,
    "textinputmode": "N",
    "viewtype": "default",
    "wType": "TextField",
    "zindex": 1
}