{
  "background_color": "ffffffff",
  "bg_type": "one",
  "border_color": "00000019",
  "border_radius": 25,
  "border_style": "custom",
  "border_type": 0,
  "border_width": 2,
  "isDefaultSkin": false,
  "kuid": "s90a2d0d49284e4cb81ec24a2102a216",
  "wType": "FlexContainer"
}