{
  "background_color": "ffffffed",
  "bg_type": "one",
  "border_color": "000000ff",
  "border_style": "plain",
  "border_type": 0,
  "border_width": 0,
  "isDefaultSkin": false,
  "kuid": "s951498607ef4e13a1c7dccf8b6288a5",
  "wType": "Segment"
}