{
  "background_color": "ff1414ff",
  "bg_type": "one",
  "border_color": "000000ff",
  "border_style": "plain",
  "border_type": 0,
  "border_width": 0,
  "isDefaultSkin": false,
  "kuid": "s047ede7551c4d8ebf3ec2186f70924a",
  "wType": "FlexContainer"
}