{
  "background_color": "7e7e7eff",
  "bg_type": "one",
  "border_color": "000000ff",
  "border_style": "plain",
  "border_type": 0,
  "border_width": 0,
  "isDefaultSkin": false,
  "kuid": "s0d6d9cbe1c14d2594d1910828a8302b",
  "wType": "FlexContainer"
}