{
  "background_color": "02acd833",
  "bg_type": "one",
  "border_color": "000000ff",
  "border_style": "plain",
  "border_type": 0,
  "border_width": 0,
  "isDefaultSkin": false,
  "kuid": "s8a35ec8a93f462bb7e55a021309ffbf",
  "wType": "FlexContainer"
}