{
  "background_color": "ffffff66",
  "bg_type": "one",
  "border_color": "424242ff",
  "border_style": "plain",
  "border_type": 0,
  "border_width": 0,
  "font_color": "424242ff",
  "font_name": "Cairo-Regular",
  "font_size": 215,
  "font_style": "normal",
  "font_weight": "normal",
  "isDefaultSkin": false,
  "kuid": "sae331dca44f4869a666483dd9a9e2dc",
  "wType": "Label"
}