{
  "background_color": "ffffff00",
  "bg_type": "one",
  "border_color": "282828ff",
  "border_style": "plain",
  "border_type": 0,
  "border_width": 0,
  "font_color": "555555fc",
  "font_name": "Cairo-Regular",
  "font_size": 125,
  "isDefaultSkin": false,
  "kuid": "s39f3aad91554b53b48ff59c5fe0f714",
  "wType": "TextField"
}