{
  "android": {
    "background_color": "ffffffff",
    "bg_type": "one",
    "border_color": "f0f0f0ff",
    "border_style": "plain",
    "border_type": 0,
    "border_width": 1,
    "isForked": true
  },
  "background_color": "ffffffff",
  "bg_type": "one",
  "border_color": "fafafaff",
  "border_style": "plain",
  "border_type": 0,
  "border_width": 1,
  "desktopweb": {
    "background_color": "ffffffff",
    "bg_type": "one",
    "bottom_left_border_color": "fafafaff",
    "bottom_left_border_style": "plain",
    "bottom_left_border_width": 1,
    "bottom_right_border_color": "fafafaff",
    "bottom_right_border_style": "plain",
    "bottom_right_border_width": 1,
    "isForked": true,
    "top_left_border_color": "fafafaff",
    "top_left_border_style": "plain",
    "top_left_border_width": 1,
    "top_right_border_color": "fafafaff",
    "top_right_border_style": "plain",
    "top_right_border_width": 1
  },
  "ipad": {
    "background_color": "ffffffff",
    "bg_type": "one",
    "border_color": "f0f0f0ff",
    "border_style": "plain",
    "border_type": 0,
    "border_width": 1,
    "isForked": true
  },
  "iphone": {
    "background_color": "ffffffff",
    "bg_type": "one",
    "border_color": "f0f0f0ff",
    "border_style": "plain",
    "border_type": 0,
    "border_width": 1,
    "isForked": true
  },
  "isDefaultSkin": false,
  "kiosk": {
    "background_color": "ffffffff",
    "bg_type": "one",
    "border_color": "f0f0f0ff",
    "border_style": "plain",
    "border_type": 0,
    "border_width": 1,
    "isForked": true
  },
  "kuid": "s2437510d4b545229d40da29f13826ca",
  "spaan": {
    "background_color": "ffffffff",
    "bg_type": "one",
    "bottom_left_border_color": "fafafaff",
    "bottom_left_border_style": "plain",
    "bottom_left_border_width": 1,
    "bottom_right_border_color": "fafafaff",
    "bottom_right_border_style": "plain",
    "bottom_right_border_width": 1,
    "isForked": true,
    "top_left_border_color": "fafafaff",
    "top_left_border_style": "plain",
    "top_left_border_width": 1,
    "top_right_border_color": "fafafaff",
    "top_right_border_style": "plain",
    "top_right_border_width": 1
  },
  "spaandroidtablet": {
    "background_color": "ffffffff",
    "bg_type": "one",
    "bottom_left_border_color": "fafafaff",
    "bottom_left_border_style": "plain",
    "bottom_left_border_width": 1,
    "bottom_right_border_color": "fafafaff",
    "bottom_right_border_style": "plain",
    "bottom_right_border_width": 1,
    "isForked": true,
    "top_left_border_color": "fafafaff",
    "top_left_border_style": "plain",
    "top_left_border_width": 1,
    "top_right_border_color": "fafafaff",
    "top_right_border_style": "plain",
    "top_right_border_width": 1
  },
  "spabb": {
    "background_color": "ffffffff",
    "bg_type": "one",
    "bottom_left_border_color": "fafafaff",
    "bottom_left_border_style": "plain",
    "bottom_left_border_width": 1,
    "bottom_right_border_color": "fafafaff",
    "bottom_right_border_style": "plain",
    "bottom_right_border_width": 1,
    "isForked": true,
    "top_left_border_color": "fafafaff",
    "top_left_border_style": "plain",
    "top_left_border_width": 1,
    "top_right_border_color": "fafafaff",
    "top_right_border_style": "plain",
    "top_right_border_width": 1
  },
  "spaip": {
    "background_color": "ffffffff",
    "bg_type": "one",
    "bottom_left_border_color": "fafafaff",
    "bottom_left_border_style": "plain",
    "bottom_left_border_width": 1,
    "bottom_right_border_color": "fafafaff",
    "bottom_right_border_style": "plain",
    "bottom_right_border_width": 1,
    "isForked": true,
    "top_left_border_color": "fafafaff",
    "top_left_border_style": "plain",
    "top_left_border_width": 1,
    "top_right_border_color": "fafafaff",
    "top_right_border_style": "plain",
    "top_right_border_width": 1
  },
  "spaipad": {
    "background_color": "ffffffff",
    "bg_type": "one",
    "bottom_left_border_color": "fafafaff",
    "bottom_left_border_style": "plain",
    "bottom_left_border_width": 1,
    "bottom_right_border_color": "fafafaff",
    "bottom_right_border_style": "plain",
    "bottom_right_border_width": 1,
    "isForked": true,
    "top_left_border_color": "fafafaff",
    "top_left_border_style": "plain",
    "top_left_border_width": 1,
    "top_right_border_color": "fafafaff",
    "top_right_border_style": "plain",
    "top_right_border_width": 1
  },
  "spawindowstablet": {
    "background_color": "ffffffff",
    "bg_type": "one",
    "bottom_left_border_color": "fafafaff",
    "bottom_left_border_style": "plain",
    "bottom_left_border_width": 1,
    "bottom_right_border_color": "fafafaff",
    "bottom_right_border_style": "plain",
    "bottom_right_border_width": 1,
    "isForked": true,
    "top_left_border_color": "fafafaff",
    "top_left_border_style": "plain",
    "top_left_border_width": 1,
    "top_right_border_color": "fafafaff",
    "top_right_border_style": "plain",
    "top_right_border_width": 1
  },
  "spawinphone8": {
    "background_color": "ffffffff",
    "bg_type": "one",
    "bottom_left_border_color": "fafafaff",
    "bottom_left_border_style": "plain",
    "bottom_left_border_width": 1,
    "bottom_right_border_color": "fafafaff",
    "bottom_right_border_style": "plain",
    "bottom_right_border_width": 1,
    "isForked": true,
    "top_left_border_color": "fafafaff",
    "top_left_border_style": "plain",
    "top_left_border_width": 1,
    "top_right_border_color": "fafafaff",
    "top_right_border_style": "plain",
    "top_right_border_width": 1
  },
  "tabrcandroid": {
    "background_color": "ffffffff",
    "bg_type": "one",
    "border_color": "f0f0f0ff",
    "border_style": "plain",
    "border_type": 0,
    "border_width": 1,
    "isForked": true
  },
  "wType": "FlexContainer",
  "windows8": {
    "background_color": "ffffffff",
    "bg_type": "one",
    "border_color": "f0f0f0ff",
    "border_style": "plain",
    "border_type": 0,
    "border_width": 1,
    "isForked": true
  },
  "winphone8": {
    "background_color": "ffffffff",
    "bg_type": "one",
    "border_color": "f0f0f0ff",
    "border_style": "plain",
    "border_type": 0,
    "border_width": 1,
    "isForked": true
  }
}