{
  "background_color": "fafafaff",
  "bg_type": "one",
  "border_color": "d6d6d6ff",
  "border_radius": 100,
  "border_style": "custom",
  "border_type": 0,
  "border_width": 1,
  "isDefaultSkin": false,
  "kuid": "s5de8e6307dc45c3b01c9d98301ebd64",
  "wType": "FlexContainer"
}