{
  "background_color": "ffffff99",
  "bg_type": "one",
  "border_color": "ffffff99",
  "border_radius": 100,
  "border_style": "custom",
  "border_type": 0,
  "border_width": 1,
  "isDefaultSkin": false,
  "kuid": "sbcfe7bb08044eec8c39d165593571dc",
  "wType": "FlexContainer"
}