{
  "android": {
    "font_name": "Cairo-SemiBold",
    "font_size": 110,
    "isForked": false
  },
  "background_color": "00000000",
  "bg_type": "one",
  "border_color": "424242ff",
  "border_style": "plain",
  "border_type": 0,
  "border_width": 0,
  "desktopweb": {
    "font_name": "Andale Mono",
    "font_size": 110,
    "isForked": false
  },
  "fontSizeInPx": false,
  "font_color": "ffffffff",
  "font_name": "Cairo-Regular",
  "font_size": 110,
  "font_style": "normal",
  "font_weight": "normal",
  "ipad": {
    "font_name": "AmericanTypewriter",
    "font_size": 110,
    "isForked": false
  },
  "iphone": {
    "font_name": "Cairo-SemiBold",
    "font_size": 110,
    "isForked": false
  },
  "isDefaultSkin": false,
  "kiosk": {
    "font_name": "GenericMonospace",
    "font_size": 110,
    "isForked": false
  },
  "kuid": "s693c216f8734823a2ba5e606d9f03ad",
  "spaan": {
    "font_name": "Andale Mono",
    "font_size": 110,
    "isForked": false
  },
  "spaandroidtablet": {
    "font_name": "Andale Mono",
    "font_size": 110,
    "isForked": false
  },
  "spabb": {
    "font_name": "Andale Mono",
    "font_size": 110,
    "isForked": false
  },
  "spaip": {
    "font_name": "Andale Mono",
    "font_size": 110,
    "isForked": false
  },
  "spaipad": {
    "font_name": "Andale Mono",
    "font_size": 110,
    "isForked": false
  },
  "spawindowstablet": {
    "font_name": "Andale Mono",
    "font_size": 110,
    "isForked": false
  },
  "spawinphone8": {
    "font_name": "Andale Mono",
    "font_size": 110,
    "isForked": false
  },
  "tabrcandroid": {
    "font_name": "BOJ-Phase-II",
    "font_size": 110,
    "isForked": false
  },
  "wType": "Label",
  "watchos": {
    "font_name": "Cairo-Regular",
    "font_size": 110,
    "isForked": false
  },
  "windows8": {
    "font_name": "GenericMonospace",
    "font_size": 110,
    "isForked": false
  },
  "winphone8": {
    "font_name": "GenericMonospace",
    "font_size": 110,
    "isForked": false
  }
}