{
  "background_color": "1caed6ff",
  "bg_type": "one",
  "border_color": "000000ff",
  "border_style": "plain",
  "border_type": 0,
  "border_width": 0,
  "isDefaultSkin": false,
  "kuid": "s3a72e41f61f4997b2b34dfd00878123",
  "wType": "FlexContainer"
}