{
  "background_color": "ffffff7f",
  "bg_type": "one",
  "border_color": "000000ff",
  "border_style": "plain",
  "border_type": 0,
  "border_width": 0,
  "isDefaultSkin": false,
  "kuid": "s5b612865e87411791502779205e6265",
  "wType": "FlexContainer"
}