{
  "background_color": "ffffff00",
  "bg_type": "one",
  "border_color": "ffffff4c",
  "border_radius": 100,
  "border_style": "custom",
  "border_type": 0,
  "border_width": 1,
  "isDefaultSkin": false,
  "kuid": "sa59815bf0a24b7597105ffd464ad8e3",
  "wType": "FlexContainer"
}