{
  "background_color": "ffffffff",
  "bg_type": "one",
  "border_color": "282828ff",
  "border_style": "plain",
  "border_type": 0,
  "border_width": 1,
  "font_color": "555555ff",
  "font_name": "Cairo-Regular",
  "font_size": 125,
  "font_style": "normal",
  "font_weight": "normal",
  "isDefaultSkin": true,
  "kuid": "sf877c4652534e40b40e74b79f9b1115",
  "wType": "TextField"
}