{
    "@class": "com.kony.gen.viz.model.component.KVizSwitch",
    "DNDConfig": null,
    "__markedForDelete__": true,
    "__parentReadjusting__": false,
    "_height_": {
        "type": "ref",
        "value": "preferred"
    },
    "_margin_": [
        0,
        0,
        0,
        0
    ],
    "_padding_": [
        0,
        0,
        0,
        0
    ],
    "_right_": {
        "type": "string",
        "value": "4%"
    },
    "_skin_": "s3483e19c5c64dbeadb5a7edbd0b21d8",
    "_top_": {
        "type": "string",
        "value": "0dp"
    },
    "_width_": {
        "type": "string",
        "value": "20%"
    },
    "canUpdateUI": true,
    "containerweight": 100,
    "id": "CopySwitch0ca632b3700c14e",
    "info": null,
    "isvisible": false,
    "kiosk": {
        "render": false
    },
    "kuid": "a11a8e66fd0b40c28f5bab69708bd3d3",
    "leftsidetext": "ON",
    "name": "kony.ui.Switch",
    "onslide": null,
    "osPlatform": "android",
    "osVersion": "iOS7",
    "parent": "CopyflxAltAuthPIN0i58c1e23dacd40",
    "pf": "frmAuthorizationAlternatives",
    "rightsidetext": "OFF",
    "selectedindex": 1,
    "wType": "Switch",
    "widgetalignment": 5,
    "zindex": 1
}