{
    "@class": "com.kony.gen.viz.model.container.KVizScrollFlexForm",
    "DNDConfig": null,
    "_footers_": [],
    "_margin_": [
        0,
        0,
        0,
        0
    ],
    "_orientation_": 1,
    "_padding_": [
        0,
        0,
        0,
        0
    ],
    "_percent_": true,
    "_skin_": "saccb95b58984589af381140b9870839",
    "_title_": null,
    "addWidgetsdone": false,
    "allboxes": [],
    "android": {
        "ide_onDeviceBack": "AS_Form_660213d662b74d749bdeee9771831aef",
        "needAppMenu": false
    },
    "bounces": false,
    "canUpdateUI": true,
    "children": [
        "flxHeader",
        "mainContent",
        "flxProfileEdit"
    ],
    "containerweight": 100,
    "currentLocale": "ar",
    "desktopweb": {
        "needAppMenu": false
    },
    "device": "iPhoneXS",
    "displayorientation": 1,
    "enabledforidletimeout": true,
    "enablescrolling": true,
    "footer": "frmUserSettingsMyProfileKA_footer",
    "headeroverlap": true,
    "id": "frmUserSettingsMyProfileKA",
    "info": null,
    "initdone": false,
    "inputaccessoryviewtype": 4,
    "invokedProperty": "footers",
    "ipad": {
        "psp": {
            "inputAccessoryViewType": 4
        }
    },
    "iphone": {
        "needAppMenu": false,
        "psp": {
            "inputAccessoryViewType": 4,
            "titleBarAttributes": {
                "barStyle": 0,
                "hidesBackButton": true,
                "kuid": "d7fbcec17d7c4d4fb3421fbf2f94f0e0",
                "leftBarButtonItems": [
                    {
                        "kuid": "f2f8e019f15f4ca2aebe3e98c0048947",
                        "leftButtonText": "Back",
                        "leftTitle": "Back",
                        "prevFormTitle": false,
                        "titleBarLeftSideView": "button",
                        "type": 4
                    }
                ],
                "leftItemsSupplementBackButton": true,
                "prompt": "",
                "renderTitleText": true,
                "rightBarButtonItems": [
                    {
                        "enabled": true,
                        "info": {
                            "title": "Edit"
                        },
                        "kuid": "f12957a6677446328da08780bab8e805",
                        "style": 0,
                        "tintColor": "33333300",
                        "type": 1
                    }
                ],
                "tintColor": "33333300",
                "translucent": true
            }
        },
        "titleBar": false
    },
    "isvisible": true,
    "kuid": "469d331305a541b8b65c6d8bdf903828",
    "layouttype": 2,
    "name": "kony.ui.Form2",
    "needappmenu": true,
    "paddinginpixel": false,
    "platform": "iphone",
    "prevDevice": "GalaxyS5",
    "prevPlatform": "android",
    "retainscrollposition": false,
    "shellCSS": "iOS_iPhoneXS",
    "snapgridsize": 10,
    "snaptogrid": true,
    "spaan": {
        "needAppMenu": false
    },
    "spabb": {
        "needAppMenu": false
    },
    "spaip": {
        "needAppMenu": false
    },
    "spawinphone8": {
        "needAppMenu": false
    },
    "titleBarSkin": "sf9d12b1e1d546169560d8b1b80caf35",
    "titlebar": true,
    "type": 3,
    "verticalscrollindicator": false,
    "wType": "Form",
    "winphone8": {
        "needAppMenu": false
    }
}