{
    "@class": "com.kony.gen.viz.model.component.KVizButton",
    "DNDConfig": null,
    "__parentReadjusting__": false,
    "_height_": {
        "type": "string",
        "value": "50dp"
    },
    "_margin_": [
        6,
        6,
        6,
        6
    ],
    "_padding_": [
        0,
        0,
        0,
        14
    ],
    "_skin_": "s369ab04a83040bc808b21001c014f1a",
    "_text_": "K",
    "_width_": {
        "type": "string",
        "value": "100%"
    },
    "canUpdateUI": true,
    "centerx": {
        "type": "string",
        "value": "50%"
    },
    "centery": {
        "type": "string",
        "value": "50%"
    },
    "containerweight": 100,
    "contentalignment": 5,
    "disabledSkins": {},
    "displaytext": true,
    "focusskin": "sd291eaf83084ea781b9988b6f1fc66d",
    "id": "btnMore",
    "ide_onClick": "AS_Button_a4ad7fad82de4654aefd6fcefd33edce",
    "info": null,
    "isvisible": true,
    "kuid": "bb4e24fcacc24bef859ed7558e5d45ea",
    "name": "kony.ui.Button",
    "paddinginpixel": false,
    "parent": "FlxMore",
    "pf": "frmAddExternalAccountHome",
    "wType": "Button",
    "zindex": 1
}