{
    "@class": "com.kony.gen.viz.model.container.KVizScrollFlexForm",
    "DNDConfig": null,
    "_margin_": [
        0,
        0,
        0,
        0
    ],
    "_orientation_": 1,
    "_padding_": [
        0,
        0,
        0,
        0
    ],
    "_percent_": true,
    "_skin_": "s94b901d933b45f8b709dad2d73e88ba",
    "_title_": null,
    "addWidgetsdone": false,
    "allboxes": [],
    "android": {
        "ide_onDeviceBack": "AS_Form_ba917091d83c4e1dacaa94b4d38037f6",
        "needAppMenu": false,
        "psp": {
            "windowSoftInputMode": 2
        }
    },
    "canUpdateUI": true,
    "children": [
        "flxFilterTransactionHeader",
        "flxFilterTransaction"
    ],
    "containerweight": 100,
    "currentLocale": "en",
    "desktopweb": {
        "needAppMenu": false
    },
    "device": "iPhone6",
    "displayorientation": 1,
    "enabledforidletimeout": true,
    "id": "frmFilterSI",
    "ide_preShow": "AS_Form_j3cba81964c240f488bc696ef36f721d",
    "info": null,
    "initdone": false,
    "inputaccessoryviewtype": 3,
    "ipad": {
        "psp": {
            "inputAccessoryViewType": 4
        }
    },
    "iphone": {
        "needAppMenu": false,
        "psp": {
            "inputAccessoryViewType": 3,
            "titleBarAttributes": {
                "barStyle": 0,
                "hidesBackButton": true,
                "kuid": "e03a758423ef4d03917e6c94d8168df5",
                "leftBarButtonItems": [
                    {
                        "buttonClosureLeftSideView": "",
                        "kuid": "h2bfdd460e484d79b63143d1c13dff91",
                        "leftButtonText": "Back",
                        "leftTitle": "Back",
                        "prevFormTitle": false,
                        "titleBarLeftSideView": "button",
                        "titleClosureLeftSideView": "",
                        "type": 4
                    }
                ],
                "leftItemsSupplementBackButton": true,
                "prompt": "",
                "renderTitleText": true,
                "rightBarButtonItems": [
                    {
                        "enabled": true,
                        "info": {
                            "title": "Edit"
                        },
                        "kuid": "cef92001911c40e7884553e7b119d619",
                        "onClick": "",
                        "style": 0,
                        "type": 1
                    }
                ],
                "tintColor": "33333300",
                "translucent": true
            }
        },
        "titleBar": false
    },
    "isvisible": true,
    "kuid": "ic4b1b46f1f740f3aa18d23b3648b743",
    "layouttype": 2,
    "name": "kony.ui.Form2",
    "needappmenu": true,
    "paddinginpixel": false,
    "platform": "iphone",
    "prevDevice": "GalaxyS5",
    "prevPlatform": "android",
    "retainscrollposition": false,
    "shellCSS": "iOS_iPhone6",
    "snapgridsize": 10,
    "snaptogrid": true,
    "spaan": {
        "needAppMenu": false
    },
    "spabb": {
        "needAppMenu": false
    },
    "spaip": {
        "needAppMenu": false
    },
    "spawinphone8": {
        "needAppMenu": false
    },
    "titleBarSkin": "s01a3c761ed44dcab0d6537d1b55b621",
    "titlebar": false,
    "type": 3,
    "wType": "Form",
    "winphone8": {
        "needAppMenu": false
    }
}