{
  "type" : "svcdriven",
  "custom" : false,
  "junction" : false,
  "customizable" : false,
  "verbs" : {
    "get" : "getMapping"
  },
  "entityProperties" : {
    "BatchMode" : "buffer",
    "designTimeBackendMeta" : {
    },
    "backendMeta" : {
    }
  }
}