{
    "DNDConfig": null,
    "__markedForDelete__": true,
    "__parentReadjusting__": false,
    "_height_": {
        "type": "string",
        "value": "7dp"
    },
    "_left_": {
        "type": "string",
        "value": "38%"
    },
    "_margin_": [
        0,
        0,
        0,
        0
    ],
    "_orientation_": 6,
    "_padding_": [
        0,
        0,
        0,
        0
    ],
    "_percent_": true,
    "_skin_": "s4b78ebf633946359c2ad9b5616085ef",
    "_top_": {
        "type": "string",
        "value": "0dp"
    },
    "_width_": {
        "type": "string",
        "value": "7dp"
    },
    "allboxes": [],
    "autogrowmode": 0,
    "canUpdateUI": true,
    "children": [],
    "clipbounds": true,
    "containerweight": 100,
    "enablescrolling": true,
    "id": "flxProgressButton1KA",
    "info": null,
    "isvisible": true,
    "kuid": "c26c7eb906e64f3cb4c9dc4f48b2770c",
    "layouttype": 2,
    "maxwidth": {
        "type": "number",
        "value": "10"
    },
    "name": "kony.ui.FlexContainer",
    "parent": "flxProgressBarKA",
    "pf": "frmPostLoginAdvertisementKA",
    "snapgridsize": 10,
    "snaptogrid": true,
    "wType": "FlexContainer",
    "widgetalignment": 1,
    "zindex": 1
}