{
    "@class": "com.kony.gen.viz.model.component.KVizImage2",
    "DNDConfig": null,
    "__markedForDelete__": true,
    "__parentReadjusting__": false,
    "_base64_": null,
    "_height_": {
        "type": "string",
        "value": "100%"
    },
    "_left_": {
        "type": "number",
        "value": "0"
    },
    "_margin_": [
        0,
        0,
        0,
        0
    ],
    "_padding_": [
        0,
        0,
        0,
        0
    ],
    "_skin_": "s2f60c8f995e4f4c824a4bf91d818ce0",
    "_src_": "option1.png",
    "_top_": {
        "type": "number",
        "value": "0"
    },
    "_width_": {
        "type": "string",
        "value": "100%"
    },
    "canUpdateUI": true,
    "containerweight": 100,
    "context": {
        "channel": "mobile",
        "formID": "frmPostLoginAdvertisementKA",
        "platform": "iphone",
        "templateType": "forms",
        "topLevelBox": null
    },
    "id": "imgAd1KA",
    "ide_onDownloadComplete": "AS_Image_cb0a6957fec441168790508e32e173d1",
    "imagescalemode": 0,
    "imagewhiledownloading": "loader2.gif",
    "info": null,
    "invokedProperty": "imageWhileDownloading",
    "isvisible": true,
    "kuid": "ca4fd0c52a2c4575ad82ca8d3d227d88",
    "name": "kony.ui.Image2",
    "parent": "flxAd1KA",
    "pf": "frmPostLoginAdvertisementKA",
    "srcType": 1,
    "wType": "Image",
    "widgetalignment": 5,
    "zindex": 1
}