{
    "@class": "com.kony.gen.viz.model.component.KVizButton",
    "DNDConfig": null,
    "__parentReadjusting__": false,
    "_height_": {
        "type": "string",
        "value": "50dp"
    },
    "_margin_": [
        6,
        6,
        6,
        6
    ],
    "_padding_": [
        0,
        0,
        0,
        14
    ],
    "_skin_": "s369ab04a83040bc808b21001c014f1a",
    "_text_": "i",
    "_width_": {
        "type": "string",
        "value": "100%"
    },
    "canUpdateUI": true,
    "centerx": {
        "type": "string",
        "value": "50%"
    },
    "centery": {
        "type": "string",
        "value": "50%"
    },
    "containerweight": 100,
    "contentalignment": 5,
    "disabledSkins": {},
    "displaytext": true,
    "focusskin": "sd291eaf83084ea781b9988b6f1fc66d",
    "id": "btnPayment",
    "ide_onClick": "AS_Button_cec06ca4a5414687a01e9ae34bd152a9",
    "info": null,
    "iphone": {
        "psp": {
            "showProgressIndicator": false
        }
    },
    "isvisible": true,
    "kuid": "j8b86c37f40a4aada883d2ae7f9c9cfb",
    "name": "kony.ui.Button",
    "paddinginpixel": false,
    "parent": "FlxPayment",
    "pf": "frmMore",
    "showprogressindicator": false,
    "wType": "Button",
    "zindex": 1
}