{
  "type" : "svcdriven",
  "custom" : false,
  "junction" : false,
  "customizable" : false,
  "verbs" : {
    "getScheduledAccountTransactions" : "getScheduledAccountTransactionsMapping",
    "getAccountTransactionByType" : "getAccountTransactionByTypeMapping",
    "getExternalComm" : "getExternalCommMapping",
    "makeTrialDeposit" : "makeTrialDepositMapping",
    "getUsersScheduledBill" : "getUsersScheduledBillMapping",
    "getExternalAccountTransactions" : "getExternalAccountTransactionsMapping",
    "getFeeData" : "getFeeDataMapping",
    "getToExternalAccountTransactions" : "getToExternalAccountTransactionsMapping",
    "getRecentAccountTransactions" : "getRecentAccountTransactionsMapping",
    "partialupdate" : "partialupdateMapping",
    "getScheduledUserTransactions" : "getScheduledUserTransactionsMapping",
    "delete" : "deleteMapping",
    "CurrencyService" : "CurrencyServiceMapping",
    "IwatchAccTransactions" : "IwatchAccTransactionsMapping",
    "verifyTrialDeposit" : "verifyTrialDepositMapping",
    "getUserCompletedBillHistory" : "getUserCompletedBillHistoryMapping",
    "getDbCardTxnList" : "getDbCardTxnListMapping",
    "get" : "getMapping",
    "createBulkBillPay" : "createBulkBillPayMapping",
    "isSecondFactorAuthenticationRequired" : "isSecondFactorAuthenticationRequiredMapping",
    "getRecentUserTransactions" : "getRecentUserTransactionsMapping",
    "create" : "createMapping",
    "getPayeeBills" : "getPayeeBillsMapping"
  },
  "entityProperties" : {
    "BatchMode" : "buffer",
    "designTimeBackendMeta" : {
    },
    "backendMeta" : {
      "serviceVersion" : "1.0",
      "operationName" : "getTransactions",
      "serviceName" : "RetailBankingBEServices"
    }
  }
}