{
    "@class": "com.kony.gen.viz.model.container.KVizSegment2",
    "DNDConfig": null,
    "__parentReadjusting__": false,
    "_data_": [
        {
            "imgEnable": {
                "@class": "com.viz.ide.model.segment.ImageSegmentData",
                "src": "check_green.png"
            },
            "imgIcon": {
                "@class": "com.viz.ide.model.segment.ImageSegmentData",
                "src": "touch.png"
            },
            "lblLoginMethod": {
                "@class": "com.viz.ide.model.segment.SimpleTextSegmentData",
                "text": "TOUCH ID"
            },
            "tmpAuthMode": {
                "@class": "com.viz.ide.model.segment.SimpleTextSegmentData",
                "text": ""
            }
        },
        {
            "imgEnable": {
                "@class": "com.viz.ide.model.segment.ImageSegmentData",
                "src": "check_green.png"
            },
            "imgIcon": {
                "@class": "com.viz.ide.model.segment.ImageSegmentData",
                "src": "pin.png"
            },
            "lblLoginMethod": {
                "@class": "com.viz.ide.model.segment.SimpleTextSegmentData",
                "text": "PIN"
            },
            "tmpAuthMode": {
                "@class": "com.viz.ide.model.segment.SimpleTextSegmentData",
                "text": ""
            }
        },
        {
            "imgEnable": {
                "@class": "com.viz.ide.model.segment.ImageSegmentData",
                "src": "check_green.png"
            },
            "imgIcon": {
                "@class": "com.viz.ide.model.segment.ImageSegmentData",
                "src": "face.png"
            },
            "lblLoginMethod": {
                "@class": "com.viz.ide.model.segment.SimpleTextSegmentData",
                "i18nkey": "i18n.FACEID",
                "text": "FACE ID"
            },
            "tmpAuthMode": {
                "@class": "com.viz.ide.model.segment.SimpleTextSegmentData",
                "text": ""
            }
        },
        {
            "imgEnable": {
                "@class": "com.viz.ide.model.segment.ImageSegmentData",
                "src": "check_green.png"
            },
            "imgIcon": {
                "@class": "com.viz.ide.model.segment.ImageSegmentData",
                "src": "password.png"
            },
            "lblLoginMethod": {
                "@class": "com.viz.ide.model.segment.SimpleTextSegmentData",
                "text": "PASSWORD"
            },
            "tmpAuthMode": {
                "@class": "com.viz.ide.model.segment.SimpleTextSegmentData",
                "text": ""
            }
        }
    ],
    "_height_": {
        "type": "ref",
        "value": "preferred"
    },
    "_indicator_": "none",
    "_left_": {
        "type": "string",
        "value": "0dp"
    },
    "_margin_": [
        0,
        0,
        0,
        0
    ],
    "_orientation_": 2,
    "_padding_": [
        0,
        0,
        0,
        0
    ],
    "_top_": {
        "type": "string",
        "value": "5%"
    },
    "_width_": {
        "type": "string",
        "value": "100%"
    },
    "android": {
        "psp": {
            "dockSectionHeaders": false
        }
    },
    "autogrowmode": 1,
    "canUpdateUI": true,
    "containerweight": 100,
    "counter": "03",
    "disabledSkins": {
        "rowSkin": "sd2ca277651a46c0ba82f3226859f5a6"
    },
    "focusedindex": null,
    "focuseditem": null,
    "groupcells": false,
    "hasSections": false,
    "id": "segLoginMethods",
    "ide_onRowClick": "AS_Segment_e9611ac415734fb09d17b871d820e764",
    "info": null,
    "ipad": {
        "psp": {
            "indicator": "rowselect"
        }
    },
    "iphone": {
        "psp": {
            "bounces": false,
            "indicator": "none"
        }
    },
    "isvisible": true,
    "kuid": "h1ca47d26e8a486bbb6a8325fc7483fd",
    "masterdata": {},
    "name": "kony.ui.SegmentedUI2",
    "needpageindicator": true,
    "pageoffdotimage": "pageoffdot.png",
    "pageondotimage": "pageondot.png",
    "paginationconfig": {
        "position": "bottom"
    },
    "parent": "flxFooter",
    "pf": "frmLoginAuthSuccessKA",
    "retainselection": false,
    "rowTemplateId": "cf1e0c5ab26941e39890b104bb126f53",
    "rowcounter": 3,
    "rowfocusskin": "s5fa38be22fb4f22b7c642b08276ab82",
    "rowtemplate": "flxtmpMain",
    "screenlevelwidget": false,
    "seccounter": 0,
    "sectionheaderskin": "s67621b8a82d49f285da06b4f5a0c993",
    "selectedRows": null,
    "selectedState": false,
    "selectedindex": null,
    "selectedindices": null,
    "selecteditems": null,
    "selectedsectionindex": 0,
    "selectionbehavior": "default",
    "separatorrequired": false,
    "showscrollbars": false,
    "viewtype": "tableview",
    "wType": "Segment",
    "widgetalignment": 5,
    "widgetdatamap": {
        "flxtmpMain": "flxtmpMain",
        "imgEnable": "imgEnable",
        "imgIcon": "imgIcon",
        "lblLoginMethod": "lblLoginMethod"
    },
    "zindex": 1
}