{
    "@class": "com.kony.gen.viz.model.component.KVizTextBox2",
    "DNDConfig": null,
    "__parentReadjusting__": false,
    "_height_": {
        "type": "number",
        "value": "38"
    },
    "_left_": {
        "type": "string",
        "value": "0dp"
    },
    "_margin_": [
        0,
        0,
        0,
        0
    ],
    "_padding_": [
        0,
        0,
        0,
        0
    ],
    "_placeholder_": "Enter an optional account nickname",
    "_right_": {
        "type": "number",
        "value": "0"
    },
    "_skin_": "s91685645d0c4a43826fdd5c95fe611d",
    "_text_": "",
    "_top_": {
        "type": "string",
        "value": "0dp"
    },
    "android": {},
    "autocapitalize": "none",
    "autocomplete": false,
    "autocorrect": false,
    "autofilter": false,
    "canUpdateUI": true,
    "containerheight": "",
    "containerheightmode": 1,
    "containerweight": 100,
    "contentalignment": 4,
    "enabled": false,
    "focusskin": "s16addfe9da944a3add187c9cd34aa56",
    "id": "accountNicknameTextfield",
    "ide_onDone": "AS_TextField_d31569470d484932b93f5e87ff79247b",
    "info": null,
    "iphone": {
        "onEndEditing": "AS_TextField_9256393d34904fdda47df0ebfc8ea42d",
        "psp": {
            "showClearButton": false
        }
    },
    "isvisible": true,
    "keyboardtype": "A",
    "kuid": "d2e866b6ecab42f39112556bb5daf1f2",
    "mode": "A",
    "name": "kony.ui.TextBox2",
    "ondone": "AS_TextField_d31569470d484932b93f5e87ff79247b",
    "parent": "usernameContainer",
    "pf": "frmAccountInfoKA",
    "placeholderi18n": "i18n.overview.accountNicknameTextfield_placeholder",
    "placeholderskin": "s2533d36333546558bba8e47391a2f5f",
    "securetextentry": false,
    "textinputmode": "A",
    "viewtype": "default",
    "wType": "TextField"
}