{
    "DNDConfig": null,
    "__parentReadjusting__": false,
    "_height_": {
        "type": "string",
        "value": "100dp"
    },
    "_left_": {
        "type": "string",
        "value": "5%"
    },
    "_margin_": [
        0,
        0,
        0,
        0
    ],
    "_orientation_": 6,
    "_padding_": [
        0,
        0,
        0,
        0
    ],
    "_percent_": true,
    "_skin_": "s77117634aa14e58908cea4332c51ada",
    "_top_": {
        "type": "string",
        "value": "0dp"
    },
    "_width_": {
        "type": "string",
        "value": "100%"
    },
    "allboxes": [],
    "autogrowmode": 0,
    "canUpdateUI": true,
    "centerx": {
        "type": "string",
        "value": "50%"
    },
    "children": [
        "lblCallBank",
        "lblBankPhn",
        "Image0j0f41ac61f1444"
    ],
    "clipbounds": true,
    "containerweight": 100,
    "enablescrolling": true,
    "id": "callBankForEnquiry",
    "ide_onClick": "AS_FlexContainer_c01e71ea931e456295ecf652702251b6",
    "info": null,
    "isvisible": false,
    "kuid": "d92de6a93bbf47cea59b6bcf0aec7d57",
    "layouttype": 2,
    "name": "kony.ui.FlexContainer",
    "parent": "mainContent",
    "pf": "frmAccountInfoKA",
    "snapgridsize": 10,
    "snaptogrid": true,
    "wType": "FlexContainer",
    "widgetalignment": 1,
    "zindex": 1
}