{
    "@class": "com.kony.gen.viz.model.component.KVizLabel",
    "DNDConfig": null,
    "__parentReadjusting__": false,
    "_height_": {
        "type": "string",
        "value": "100%"
    },
    "_left_": {
        "type": "string",
        "value": "5dp"
    },
    "_margin_": [
        1,
        1,
        1,
        1
    ],
    "_padding_": [
        0,
        0,
        0,
        0
    ],
    "_skin_": "sc3f6592831d43b5964f136e413e976e",
    "_text_": "JOD",
    "_top_": {
        "type": "string",
        "value": "3dp"
    },
    "_width_": {
        "type": "ref",
        "value": "preferred"
    },
    "_wrapping_": 2,
    "canUpdateUI": true,
    "containerweight": 100,
    "contentalignment": 4,
    "enabled": false,
    "id": "lblCurrency",
    "info": null,
    "ipad": {
        "psp": {
            "wrapping": 2
        }
    },
    "iphone": {
        "psp": {
            "wrapping": 2
        }
    },
    "isvisible": false,
    "kuid": "e70c89d5c5e34d91ae32c434723f6bd4",
    "name": "kony.ui.Label",
    "parent": "flxAmountmain",
    "pf": "frmAccountInfoKA",
    "tooltip": "",
    "wType": "Label",
    "zindex": 1
}