{
    "DNDConfig": null,
    "__parentReadjusting__": false,
    "_bottom_": {
        "type": "string",
        "value": "0dp"
    },
    "_height_": {
        "type": "string",
        "value": "93%"
    },
    "_left_": {
        "type": "string",
        "value": "0dp"
    },
    "_margin_": [
        0,
        0,
        0,
        0
    ],
    "_padding_": [
        0,
        0,
        0,
        0
    ],
    "_skin_": "s21d493770b446f1bafdeba927e9d20d",
    "_top_": {
        "type": "string",
        "value": "0dp"
    },
    "_width_": {
        "type": "string",
        "value": "100%"
    },
    "allboxes": [],
    "allowhorizontalbounce": false,
    "allowverticalbounce": true,
    "bounces": false,
    "canUpdateUI": true,
    "children": [
        "CopypreferredAccountEnable0d7ab026f4a5845",
        "titleBarAccountInfo",
        "accountDetailsContainer",
        "flxaccountdetailsSavings",
        "preferredAccountEnable",
        "addExternalAccount",
        "contactSegmentList",
        "callBankForEnquiry",
        "CopycallBankForEnquiry0b9b1a0be4e0b49",
        "segmentBorderBottom",
        "flxaccountdetailsfordeposits",
        "flxTabsWrapper",
        "imgDiv",
        "imgDivSett",
        "flxAccountOptions",
        "flxSSCInformation"
    ],
    "clipbounds": true,
    "containerweight": 100,
    "decelerat": false,
    "dragg": false,
    "enabled": false,
    "enablescrolling": false,
    "horizontalscrollindicator": true,
    "id": "mainContent",
    "info": null,
    "isvisible": true,
    "kuid": "fe7fa66e4d8b4f89a083476b1d4cdec2",
    "layouttype": 2,
    "name": "kony.ui.FlexScrollContainer",
    "orientation": 6,
    "pagingenabled": false,
    "parent": "frmAccountInfoKA",
    "percent": true,
    "pf": "frmAccountInfoKA",
    "scrolldirection": 2,
    "snapgridsize": 10,
    "snaptogrid": true,
    "track": false,
    "verticalscrollindicator": true,
    "wType": "FlexScrollContainer",
    "widgetalignment": 1,
    "zindex": 1
}