{
    "@class": "com.kony.gen.viz.model.component.KVizButton",
    "DNDConfig": null,
    "__parentReadjusting__": false,
    "_height_": {
        "type": "ref",
        "value": "preferred"
    },
    "_margin_": [
        6,
        6,
        6,
        6
    ],
    "_padding_": [
        0,
        0,
        0,
        0
    ],
    "_skin_": "s94d80e187a44bd9bb9ce6db5e729010",
    "_text_": "Enable Location Services",
    "_top_": {
        "type": "string",
        "value": "20dp"
    },
    "_width_": {
        "type": "string",
        "value": "50%"
    },
    "canUpdateUI": true,
    "centerx": {
        "type": "string",
        "value": "50%"
    },
    "containerweight": 100,
    "contentalignment": 5,
    "disabledSkins": {},
    "displaytext": true,
    "focusskin": "s6e8459b84e349d98629a088bbfe1304",
    "id": "atmLink",
    "ide_onClick": "AS_Button_07065ee5644946d7a9a0e9e5c5f6befb",
    "info": null,
    "iphone": {
        "psp": {
            "showProgressIndicator": false
        }
    },
    "isvisible": true,
    "kuid": "139d8a62ce6545f98b7539c047d53f60",
    "name": "kony.ui.Button",
    "onclick": "AS_Button_23cc519761fd4422990f8dc12182c016",
    "parent": "noSearchResults",
    "pf": "frmDirectionsKA",
    "showprogressindicator": false,
    "texti18n": "i18n.locateus.atmLink",
    "wType": "Button",
    "zindex": 1
}