{
    "@class": "com.kony.gen.viz.model.component.KVizImage2",
    "DNDConfig": null,
    "__parentReadjusting__": false,
    "_base64_": null,
    "_height_": {
        "type": "string",
        "value": "42%"
    },
    "_margin_": [
        0,
        0,
        0,
        0
    ],
    "_padding_": [
        0,
        0,
        0,
        0
    ],
    "_skin_": "s319dbfc5808408bbf0cda0a09d985ce",
    "_src_": "phone_white_icon.png",
    "_top_": {
        "type": "string",
        "value": "10%"
    },
    "_width_": {
        "type": "string",
        "value": "42%"
    },
    "canUpdateUI": true,
    "centerx": {
        "type": "string",
        "value": "50%"
    },
    "containerweight": 100,
    "context": {
        "channel": "mobile",
        "formID": "frmMoreLandingKA",
        "ispercent": true,
        "platform": "android",
        "templateType": "forms",
        "topLevelBox": null
    },
    "enabled": false,
    "id": "contactIcon",
    "imagescalemode": 1,
    "info": null,
    "invokedProperty": "imageWhileDownloading",
    "ispercent": true,
    "isvisible": true,
    "kuid": "5e6904421b334107bc4c8aad95c3f528",
    "name": "kony.ui.Image2",
    "parent": "contactWrapper",
    "pf": "frmMoreLandingKA",
    "srcType": 1,
    "wType": "Image",
    "widgetalignment": 5
}