{
    "@class": "com.kony.gen.viz.model.component.KVizLabel",
    "DNDConfig": null,
    "__parentReadjusting__": false,
    "_height_": {
        "type": "ref",
        "value": "preferred"
    },
    "_left_": {
        "type": "string",
        "value": "1%"
    },
    "_margin_": [
        1,
        1,
        1,
        1
    ],
    "_padding_": [
        0,
        0,
        0,
        0
    ],
    "_skin_": "sb817cc03d5e45889008d3584ffe4d45",
    "_text_": "",
    "_top_": {
        "type": "string",
        "value": "55%"
    },
    "_width_": {
        "type": "ref",
        "value": "preferred"
    },
    "_wrapping_": 2,
    "android": {
        "textStyle": {
            "letterSpacing": 0,
            "strikeThrough": false
        }
    },
    "canUpdateUI": true,
    "containerweight": 100,
    "contentalignment": 7,
    "id": "lblDateOfBirth",
    "info": null,
    "ipad": {
        "psp": {
            "wrapping": 2
        }
    },
    "iphone": {
        "psp": {
            "wrapping": 2
        }
    },
    "isvisible": true,
    "kuid": "f3174034f1164c1cb6b09ec39e648931",
    "name": "kony.ui.Label",
    "parent": "flxDateOfBirthEntery",
    "pf": "frmJoMoPayRegistration",
    "tooltip": "",
    "wType": "Label",
    "zindex": 1
}