{
    "@class": "com.kony.gen.viz.model.component.KVizButton",
    "DNDConfig": null,
    "__parentReadjusting__": false,
    "_bottom_": {
        "type": "string",
        "value": "35dp"
    },
    "_height_": {
        "type": "string",
        "value": "42dp"
    },
    "_margin_": [
        6,
        6,
        6,
        6
    ],
    "_padding_": [
        0,
        0,
        0,
        0
    ],
    "_skin_": "sa771871a36947659c4127086336ff4a",
    "_text_": "Sample Ad Action",
    "_width_": {
        "type": "string",
        "value": "75%"
    },
    "canUpdateUI": true,
    "centerx": {
        "type": "string",
        "value": "50%"
    },
    "containerweight": 100,
    "contentalignment": 5,
    "displaytext": true,
    "focusskin": "sc7bb351f223484a994119d9439f8136",
    "id": "btnAdAction",
    "ide_onClick": "AS_Button_ceee1218143e47c8ba20dc8637f1b574",
    "info": null,
    "isvisible": true,
    "kuid": "eca9963c20744a3fb0de2293a7125ef3",
    "name": "kony.ui.Button",
    "parent": "flxAdAction",
    "pf": "frmEnlargeAdKA",
    "wType": "Button",
    "zindex": 1
}