{
    "@class": "com.kony.gen.viz.model.component.KVizImage2",
    "DNDConfig": null,
    "__markedForDelete__": true,
    "__parentReadjusting__": false,
    "_base64_": null,
    "_height_": {
        "type": "string",
        "value": "35dp"
    },
    "_margin_": [
        0,
        0,
        0,
        0
    ],
    "_padding_": [
        0,
        0,
        0,
        0
    ],
    "_right_": {
        "type": "string",
        "value": "12dp"
    },
    "_skin_": "sa625024fef740fea5133ed43bbfac5f",
    "_src_": "close_ad.png",
    "_top_": {
        "type": "string",
        "value": "12dp"
    },
    "_width_": {
        "type": "string",
        "value": "35dp"
    },
    "canUpdateUI": true,
    "containerweight": 100,
    "context": {
        "channel": "mobile",
        "formID": "frmEnlargeAdKA",
        "platform": "iphone",
        "templateType": "forms",
        "topLevelBox": null
    },
    "id": "imgCloseEnlargedAd",
    "ide_onTouchStart": "AS_Image_e16d087d9bee49499c7a7df64ea5a8a8",
    "imagescalemode": 1,
    "info": null,
    "invokedProperty": "src",
    "isvisible": true,
    "kuid": "b7b56193c5154ee68e2e31b022e993d6",
    "name": "kony.ui.Image2",
    "parent": "flxEnlargeAd",
    "pf": "frmEnlargeAdKA",
    "srcType": 1,
    "wType": "Image",
    "widgetalignment": 5,
    "zindex": 20
}