{
    "@class": "com.kony.gen.viz.model.container.KVizSegment2",
    "DNDConfig": null,
    "__parentReadjusting__": false,
    "_bounces_": false,
    "_data_": [
        [
            {
                "lbltmpTitle": {
                    "@class": "com.viz.ide.model.segment.SimpleTextSegmentData",
                    "text": "Favourite"
                }
            },
            [
                {
                    "BenificiaryFullName": {
                        "@class": "com.viz.ide.model.segment.SimpleTextSegmentData",
                        "text": ""
                    },
                    "BenificiaryName": {
                        "@class": "com.viz.ide.model.segment.SimpleTextSegmentData",
                        "text": ""
                    },
                    "accountNumber": {
                        "@class": "com.viz.ide.model.segment.SimpleTextSegmentData",
                        "text": ""
                    },
                    "btnDelete": {
                        "@class": "com.viz.ide.model.segment.SimpleTextSegmentData",
                        "text": ""
                    },
                    "btnEditBeneficiary": {
                        "@class": "com.viz.ide.model.segment.SimpleTextSegmentData",
                        "text": "Button"
                    },
                    "btnFav": {
                        "@class": "com.viz.ide.model.segment.SimpleTextSegmentData",
                        "text": ""
                    },
                    "lblInitial": {
                        "@class": "com.viz.ide.model.segment.SimpleTextSegmentData",
                        "text": ""
                    }
                }
            ]
        ],
        [
            {
                "lbltmpTitle": {
                    "@class": "com.viz.ide.model.segment.SimpleTextSegmentData",
                    "text": "All"
                }
            },
            [
                {
                    "BenificiaryFullName": {
                        "@class": "com.viz.ide.model.segment.SimpleTextSegmentData",
                        "text": ""
                    },
                    "BenificiaryName": {
                        "@class": "com.viz.ide.model.segment.SimpleTextSegmentData",
                        "text": ""
                    },
                    "accountNumber": {
                        "@class": "com.viz.ide.model.segment.SimpleTextSegmentData",
                        "text": ""
                    },
                    "btnDelete": {
                        "@class": "com.viz.ide.model.segment.SimpleTextSegmentData",
                        "text": ""
                    },
                    "btnEditBeneficiary": {
                        "@class": "com.viz.ide.model.segment.SimpleTextSegmentData",
                        "text": "Button"
                    },
                    "btnFav": {
                        "@class": "com.viz.ide.model.segment.SimpleTextSegmentData",
                        "text": ""
                    },
                    "lblInitial": {
                        "@class": "com.viz.ide.model.segment.SimpleTextSegmentData",
                        "text": ""
                    }
                }
            ]
        ]
    ],
    "_height_": {
        "type": "string",
        "value": "79%"
    },
    "_indicator_": "none",
    "_left_": {
        "type": "string",
        "value": "0dp"
    },
    "_margin_": [
        0,
        0,
        0,
        0
    ],
    "_orientation_": 2,
    "_padding_": [
        0,
        0,
        0,
        0
    ],
    "_top_": {
        "type": "string",
        "value": "21%"
    },
    "_width_": {
        "type": "string",
        "value": "100%"
    },
    "autogrowmode": 0,
    "canUpdateUI": true,
    "containerweight": 100,
    "counter": "10",
    "editstyle": "swipe",
    "focusedindex": null,
    "focuseditem": null,
    "groupcells": false,
    "hasSections": true,
    "id": "segAllBeneficiary",
    "info": null,
    "invokedProperty": "pageOnDotImage",
    "ipad": {
        "psp": {
            "indicator": "rowselect"
        }
    },
    "iphone": {
        "psp": {
            "bounces": false,
            "editStyle": "swipe",
            "indicator": "none",
            "showProgressIndicator": true
        }
    },
    "isvisible": true,
    "kuid": "dfbe260f38814146a077e5e287a68067",
    "masterdata": {},
    "name": "kony.ui.SegmentedUI2",
    "needpageindicator": true,
    "paddinginpixel": false,
    "pageoffdotimage": "pageoffdot.png",
    "pageondotimage": "pageondot.png",
    "paginationconfig": {
        "position": "bottom",
        "vdistance": 1
    },
    "parent": "frmShowAllBeneficiary",
    "pf": "frmShowAllBeneficiary",
    "retainselection": false,
    "rowTemplateId": "c795aaa82a6f432cbc2e70d251355a55",
    "rowcounter": 0,
    "rowfocusskin": "s5fa38be22fb4f22b7c642b08276ab82",
    "rowskin": "s8903f6623d243928a3e3fa499a4830a",
    "rowtemplate": "flxSeg",
    "screenlevelwidget": false,
    "seccounter": 1,
    "sectionHeaderTemplateId": "ae5cec6efae34a0ab9203ccf8427dc70",
    "sectionheaderskin": "s67621b8a82d49f285da06b4f5a0c993",
    "sectionheadertemplate": "flxTmpHeader",
    "selectedRows": null,
    "selectedState": false,
    "selectedindex": null,
    "selectedindices": null,
    "selecteditems": null,
    "selectedsectionindex": 0,
    "selectionbehavior": "default",
    "separatorrequired": false,
    "separatorthickness": 0,
    "showprogressindicator": true,
    "showscrollbars": true,
    "swipeContext": {
        "currentPage": 0,
        "imageWidth": 750,
        "widthRatio": 0
    },
    "viewtype": "tableview",
    "vizProps": {},
    "wType": "Segment",
    "widgetalignment": 5,
    "widgetdatamap": {
        "BenificiaryFullName": "BenificiaryFullName",
        "BenificiaryName": "BenificiaryName",
        "accountNumber": "accountNumber",
        "btnDelete": "btnDelete",
        "btnEditBeneficiary": "btnEditBeneficiary",
        "btnFav": "btnFav",
        "contactListDivider": "contactListDivider",
        "flxAnimateBenf": "flxAnimateBenf",
        "flxButtonHolder": "flxButtonHolder",
        "flxDetails": "flxDetails",
        "flxIcon1": "flxIcon1",
        "flxSeg": "flxSeg",
        "flxTmpHeader": "flxTmpHeader",
        "flxUnderline": "flxUnderline",
        "lblInitial": "lblInitial",
        "lbltmpTitle": "lbltmpTitle"
    },
    "zindex": 2
}