{
    "@class": "com.kony.gen.viz.model.container.KVizGroup",
    "DNDConfig": null,
    "_height_": {
        "type": "ref",
        "value": "preferred"
    },
    "_margin_": [
        0,
        0,
        0,
        0
    ],
    "_opacity_": 100,
    "_orientation_": 6,
    "_padding_": [
        3,
        0,
        3,
        0
    ],
    "_percent_": true,
    "_skin_": "sc4cbd6070a243bea2ea6f42e445c9b0",
    "_spacing_": 2,
    "_width_": "100%",
    "allboxes": [],
    "canUpdateUI": true,
    "children": [
        "grpMContent"
    ],
    "clipbounds": true,
    "containerId": true,
    "containerweight": 100,
    "enablescrolling": true,
    "id": "grpMIDMain",
    "info": null,
    "isTemplate": true,
    "isvisible": true,
    "kuid": "g00c9de6755343efa4346e52a1ffa58c",
    "layouttype": 3,
    "name": "kony.ui.Group",
    "paddinginpixel": true,
    "parent": "tempMenuItemDetails",
    "pf": "tempMenuItemDetails",
    "snapgridsize": 10,
    "snaptogrid": false,
    "wType": "Group",
    "widgetalignment": 1
}