{
    "DNDConfig": null,
    "__parentReadjusting__": false,
    "_height_": {
        "type": "string",
        "value": "75dp"
    },
    "_left_": {
        "type": "string",
        "value": "5%"
    },
    "_margin_": [
        0,
        0,
        0,
        0
    ],
    "_padding_": [
        0,
        0,
        0,
        0
    ],
    "_right_": {
        "type": "string",
        "value": "5%"
    },
    "_skin_": "s5449e85b7e0472ba7d4939096f3873d",
    "_top_": {
        "type": "string",
        "value": "35dp"
    },
    "_width_": {
        "type": "string",
        "value": "90%"
    },
    "allboxes": [],
    "autogrowmode": 0,
    "canUpdateUI": true,
    "children": [
        "phoneone",
        "CopylistDivider05fbced4bf29d42",
        "phonetwo",
        "CopylistDivider0fa5b2ba001c740"
    ],
    "clipbounds": true,
    "containerweight": 100,
    "enabled": false,
    "enablescrolling": true,
    "id": "CopyanswerFIeldWrapper0082ca72944f541",
    "info": null,
    "isvisible": true,
    "kuid": "387bca38de61414183874c071f636b87",
    "layouttype": 4,
    "name": "kony.ui.FlexContainer",
    "orientation": 6,
    "parent": "CopychallengeQuestionContainer0103ed4f67f2345",
    "percent": true,
    "pf": "frmEnterPersonalDetailsKA",
    "snapgridsize": 10,
    "snaptogrid": true,
    "wType": "FlexContainer",
    "widgetalignment": 1,
    "zindex": 1
}