{
  "operationConfig" : {
    "name" : "prGetEfwDebitAmt4102",
    "type" : "MappedToBackend",
    "cachable" : false,
    "smsEnabled" : false,
    "security" : "authorized_app_user",
    "responseEncoding" : "UTF-8",
    "httpMethod" : "GET",
    "decodeResponseBody" : false,
    "iMapping" : "<?xml version=\"1.0\" encoding=\"UTF-8\" standalone=\"yes\"?><mapper xmlns=\"http://www.kony.com/ns/mapper\">  <map inputpath=\"request_in\" outputpath=\"request_out\">    <set-param inputpath=\"amount\" outputpath=\"amount\"/>    <set-param inputpath=\"fees\" outputpath=\"fees\"/>    <set-param inputpath=\"usr\" outputpath=\"usr\"/>    <set-param inputpath=\"pass\" outputpath=\"pass\"/>    <set-param inputpath=\"p_account_br\" outputpath=\"p_account_br\"/>    <set-param inputpath=\"p_acc_or_cr\" outputpath=\"p_acc_or_cr\"/>    <set-param inputpath=\"p_paymt_type\" outputpath=\"p_paymt_type\"/>  </map></mapper>",
    "oMapping" : "<?xml version=\"1.0\" encoding=\"UTF-8\" standalone=\"yes\"?><mapper xmlns=\"http://www.kony.com/ns/mapper\">  <map inputpath=\"response_in\" outputpath=\"response_out\">    <set-param inputpath=\"p_debit_amt\" outputpath=\"p_debit_amt\"/>    <set-param inputpath=\"ErrorCode\" outputpath=\"ErrorCode\"/>    <set-param inputpath=\"referenceId\" outputpath=\"referenceId\"/>  </map></mapper>",
    "applyCommonMapping" : true,
    "backendMeta" : {
      "serviceVersion" : "1.0",
      "operationName" : "prGetEfwDebitAmt",
      "serviceName" : "BOJGetEfwDebitAmt"
    },
    "relationshipHierarchyMapping" : {
      "children" : [ ],
      "name" : "Payee",
      "selected" : true
    },
    "requestXmlMappingOverride" : true,
    "responseXmlMappingOverride" : true
  }
}