{
    "@class": "com.kony.gen.viz.model.component.KVizButton",
    "DNDConfig": null,
    "__parentReadjusting__": false,
    "_height_": {
        "type": "string",
        "value": "50%"
    },
    "_left_": {
        "type": "string",
        "value": "0%"
    },
    "_margin_": [
        6,
        6,
        6,
        6
    ],
    "_padding_": [
        0,
        0,
        0,
        0
    ],
    "_skin_": "s7383615e4f04fc8a44f10f5e544ac57",
    "_text_": "o",
    "_width_": {
        "type": "string",
        "value": "100%"
    },
    "canUpdateUI": true,
    "centery": {
        "type": "string",
        "value": "60%"
    },
    "containerweight": 100,
    "contentalignment": 6,
    "displaytext": true,
    "focusskin": "s7383615e4f04fc8a44f10f5e544ac57",
    "id": "btnDefaultAccountIcon",
    "ide_onClick": "AS_Button_afbce03e0a2240de9f3749791eab21c1",
    "info": null,
    "isvisible": true,
    "kuid": "ee94d656c1724835af446345894aec3e",
    "name": "kony.ui.Button",
    "parent": "flxDefaultAccount",
    "pf": "frmCardLinkedAccounts",
    "texti18n": "i18n.common.baclinfo",
    "wType": "Button",
    "zindex": 1
}