{
    "AS__46381f367eac4768ad8c0de7d16b2f9e": {
        "id": "AS__46381f367eac4768ad8c0de7d16b2f9e",
        "type": "ACTION_SEQUENCE",
        "actions": [{
            "id": "NAVIGATE_TO_FORM__buttonClosureRightSideView_1e201a87c7834252a41d0196d9022058",
            "type": "NAVIGATE_TO_FORM",
            "formId": "frmTransferPayLandingKA",
            "formKUID": "dab7a50c55b94a12b3d961ae5bd49247",
            "mappings": {},
            "mappingsOrder": [],
            "parentId": "",
            "callbackType": null,
            "enableMappingEditor": true
        }]
    }
}