{
    "AS_Button_05ee2421872a4a45bd21f3de04472887": {
        "id": "AS_Button_05ee2421872a4a45bd21f3de04472887",
        "type": "ACTION_SEQUENCE",
        "actions": [{
            "id": "NAVIGATE_TO_FORM__onClick_e30117ad9eee4d9c9e949d97fc3c6223",
            "type": "NAVIGATE_TO_FORM",
            "formId": "frmAccountDetailKA",
            "formKUID": "5ed703cad63c441882fc4a36f5ea0c28",
            "mappings": {},
            "mappingsOrder": [],
            "parentId": "",
            "callbackType": null,
            "enableMappingEditor": true
        }]
    }
}