{
    "AS_Button_d944202f406a489db6bd33f715697073": {
        "id": "AS_Button_d944202f406a489db6bd33f715697073",
        "type": "ACTION_SEQUENCE",
        "actions": [{
            "id": "NAVIGATE_TO_FORM__onClick_f996f4c03c974a31834ec7ffbe001025",
            "type": "NAVIGATE_TO_FORM",
            "formKUID": "db521e97422f4973ab4a6a7569d1cc93",
            "mappings": {},
            "mappingsOrder": [],
            "parentId": "",
            "callbackType": null,
            "enableMappingEditor": true
        }]
    }
}