{
    "AS_Button_e78945fdbf1840cea389a9f0052e369f": {
        "id": "AS_Button_e78945fdbf1840cea389a9f0052e369f",
        "type": "ACTION_SEQUENCE",
        "actions": [{
            "id": "NAVIGATE_TO_FORM__onClick_1a6e026e774c46cf99637f06994e607e",
            "type": "NAVIGATE_TO_FORM",
            "formId": "frmLocatorKA",
            "formKUID": "c471585baa904bb49278190a4437d425",
            "mappings": {},
            "mappingsOrder": [],
            "parentId": "",
            "callbackType": null,
            "enableMappingEditor": true
        }]
    }
}