{
    "AS_Button_e802ae67c088485e81279c96be200048": {
        "id": "AS_Button_e802ae67c088485e81279c96be200048",
        "type": "ACTION_SEQUENCE",
        "actions": [{
            "id": "NAVIGATE_TO_FORM___88f12b672a8146198218f416caf67b2c",
            "type": "NAVIGATE_TO_FORM",
            "formKUID": "db521e97422f4973ab4a6a7569d1cc93",
            "mappings": {},
            "mappingsOrder": [],
            "parentId": "",
            "callbackType": null,
            "enableMappingEditor": true
        }]
    }
}