{
    "AS_Button_12e95983c2b04e12bb9d0bf9d4011bd8": {
        "id": "AS_Button_12e95983c2b04e12bb9d0bf9d4011bd8",
        "type": "ACTION_SEQUENCE",
        "params": [{
            "datatype": "collection",
            "name": "eventobject"
        }],
        "actions": [{
            "id": "SHOW_ALERT__18f34cace5dd45ea9232c23ca0a8e04e",
            "type": "SHOW_ALERT",
            "alertType": "constants.ALERT_TYPE_CONFIRMATION",
            "alertTitle": "Delete Scheduled Transaction?",
            "yesLabel": "Yes",
            "noLabel": "Cancel",
            "alertMessage": "Are you sure you want to delete this scheduled transaction?",
            "messageType": "constant",
            "parentId": null,
            "callbackType": null,
            "alertTitlei18n": null,
            "yesLabeli18n": null,
            "noLabeli18n": null
        }, {
            "id": "NAVIGATE_TO_FORM___e0199a9480cf4affafe63978ea412953",
            "type": "NAVIGATE_TO_FORM",
            "formId": "frmTransferPayLandingKA",
            "formKUID": "dab7a50c55b94a12b3d961ae5bd49247",
            "mappings": {},
            "mappingsOrder": [],
            "parentId": "SHOW_ALERT__18f34cace5dd45ea9232c23ca0a8e04e",
            "callbackType": "True",
            "enableMappingEditor": true
        }]
    }
}