{
    "AS_Button_23c89896f9964d4394f354b08799e3fe": {
        "id": "AS_Button_23c89896f9964d4394f354b08799e3fe",
        "type": "ACTION_SEQUENCE",
        "actions": [{
            "id": "NAVIGATE_TO_FORM__onClick_87c4f67cb7ee4c64a1536108d33aff83",
            "type": "NAVIGATE_TO_FORM",
            "formId": "frmTransferPayLandingKA",
            "formKUID": "dab7a50c55b94a12b3d961ae5bd49247",
            "mappings": {},
            "mappingsOrder": [],
            "parentId": "",
            "callbackType": null,
            "enableMappingEditor": true
        }]
    }
}