{
    "AS_Button_cbb5ef49cb2e4af88c9a4e6760c2c143": {
        "id": "AS_Button_cbb5ef49cb2e4af88c9a4e6760c2c143",
        "type": "ACTION_SEQUENCE",
        "actions": [{
            "id": "NAVIGATE_TO_FORM__onClick_3c058bcb475341aa89f82787b1061352",
            "type": "NAVIGATE_TO_FORM",
            "formKUID": "46f36ea071694fd5850c61e28c2bf835",
            "mappings": {},
            "mappingsOrder": [],
            "parentId": "",
            "callbackType": null,
            "enableMappingEditor": true
        }]
    }
}