{
    "AS_Button_b2e1c6ef15654f2ab5e1987b60482468": {
        "id": "AS_Button_b2e1c6ef15654f2ab5e1987b60482468",
        "type": "ACTION_SEQUENCE",
        "actions": [{
            "id": "NAVIGATE_TO_FORM__onClick_af7785f7880d4966b5b8e85b45678dcb",
            "type": "NAVIGATE_TO_FORM",
            "formId": "frmUnauthFeatureEnablingKA",
            "formKUID": "6267e3b5eb614ea581b492d24e980f30",
            "mappings": {},
            "mappingsOrder": [],
            "parentId": "",
            "callbackType": null,
            "enableMappingEditor": true
        }]
    }
}