{
    "AS_Button_a98cb48a2902415a86a5128d7df8b73e": {
        "id": "AS_Button_a98cb48a2902415a86a5128d7df8b73e",
        "type": "ACTION_SEQUENCE",
        "actions": [{
            "id": "NAVIGATE_TO_FORM__onClick_fedf90165a734e9ba44586ea613b3e5c",
            "type": "NAVIGATE_TO_FORM",
            "formId": "frmLocatorKA",
            "formKUID": "c471585baa904bb49278190a4437d425",
            "mappings": {},
            "mappingsOrder": [],
            "parentId": "",
            "callbackType": null,
            "enableMappingEditor": true
        }]
    }
}