{
    "AS_Button_259572ff3a594d25bc0bf372b06c86a9": {
        "id": "AS_Button_259572ff3a594d25bc0bf372b06c86a9",
        "type": "ACTION_SEQUENCE",
        "actions": [{
            "id": "NAVIGATE_TO_FORM__onClick_cbfd94eda14a4831a287010684e04d51",
            "type": "NAVIGATE_TO_FORM",
            "formId": "frmRecentTransactionDetailsKA",
            "formKUID": "3e75bf63a2d4443486447188bb14c36b",
            "mappings": {},
            "mappingsOrder": [],
            "parentId": "",
            "callbackType": null,
            "enableMappingEditor": true
        }]
    }
}