{
    "AS_FlexScrollContainer_657e32ed57bd49649cc06fd352750c56": {
        "id": "AS_FlexScrollContainer_657e32ed57bd49649cc06fd352750c56",
        "type": "ACTION_SEQUENCE",
        "params": [{
            "datatype": "collection",
            "name": "eventobject"
        }, {
            "datatype": "string",
            "name": "x"
        }, {
            "datatype": "string",
            "name": "y"
        }],
        "actions": [{
            "id": "ADD_SNIPPET__d6d7fe80c2b747b8b88f823f57b376e8",
            "type": "ADD_SNIPPET",
            "codeSnippet": "apScrollDisableTouchEnd();",
            "parentId": null,
            "callbackType": null
        }]
    }
}