{
    "DNDConfig": null,
    "__parentReadjusting__": false,
    "_height_": {
        "type": "string",
        "value": "30dp"
    },
    "_left_": {
        "type": "string",
        "value": "87%"
    },
    "_margin_": [
        0,
        0,
        0,
        0
    ],
    "_orientation_": 6,
    "_padding_": [
        0,
        0,
        0,
        0
    ],
    "_percent_": true,
    "_skin_": "s388f0c575ef4d08ac3a5ed0a4b90085",
    "_top_": {
        "type": "string",
        "value": "1dp"
    },
    "_width_": {
        "type": "string",
        "value": "15%"
    },
    "allboxes": [],
    "autogrowmode": 0,
    "canUpdateUI": true,
    "children": [
        "imgEye"
    ],
    "clipbounds": true,
    "containerweight": 100,
    "enablescrolling": true,
    "id": "flxImgEyeWrapper",
    "ide_onTouchEnd": "AS_FlexContainer_fba54a2799bd4dd29921ba3ca12db86a",
    "ide_onTouchStart": "AS_FlexContainer_i11171fdd0be44dcb1d6a1edf6b76ffc",
    "info": null,
    "isvisible": true,
    "kuid": "f6a8143a5d534898a12325b2633a8c92",
    "layouttype": 2,
    "name": "kony.ui.FlexContainer",
    "parent": "flxEnterPassword",
    "pf": "frmCreateCredentials",
    "snapgridsize": 10,
    "snaptogrid": true,
    "wType": "FlexContainer",
    "widgetalignment": 1,
    "zindex": 1
}