{
    "@class": "com.kony.gen.viz.model.component.KVizTextBox2",
    "DNDConfig": null,
    "__parentReadjusting__": false,
    "_height_": {
        "type": "string",
        "value": "40dp"
    },
    "_left_": {
        "type": "string",
        "value": "0%"
    },
    "_margin_": [
        0,
        0,
        0,
        0
    ],
    "_padding_": [
        3,
        0,
        0,
        0
    ],
    "_placeholder_": "Value",
    "_skin_": "sb8bc4eeeab84ecc87373b3ff1a0bfb0",
    "_text_": "",
    "_top_": {
        "type": "string",
        "value": "0dp"
    },
    "_width_": {
        "type": "string",
        "value": "100%"
    },
    "autocapitalize": "none",
    "autocomplete": false,
    "autocorrect": false,
    "autofilter": false,
    "canUpdateUI": true,
    "containerheight": "",
    "containerheightmode": 1,
    "containerweight": 100,
    "contentalignment": 5,
    "focusskin": "sbe3b6583137485a9048da0950095a9e",
    "id": "txtEnteredValue",
    "ide_onDone": "AS_TextField_e8b2b12e89f249a28ccf4d1dd44b6623",
    "ide_onTextChange": "AS_TextField_gd1f306c71054d59963ff87b57c8ded0",
    "info": null,
    "iphone": {
        "psp": {
            "showClearButton": false,
            "showProgressIndicator": false
        }
    },
    "isvisible": true,
    "keyboardstyle": "digitpad",
    "keyboardtype": "A",
    "kuid": "e14d1336e9324cc6a51927092ec151de",
    "maxtextlength": 13,
    "mode": "N",
    "name": "kony.ui.TextBox2",
    "parent": "flxMobContainer",
    "pf": "frmFxRate",
    "placeholderi18n": "i18.FxRateValue",
    "placeholderskin": "sec4b6ca5ea1469a9a3c05b25922dd4f",
    "securetextentry": false,
    "textinputmode": "N",
    "viewtype": "default",
    "wType": "TextField",
    "zindex": 1
}