{
    "AS_TextField_b9bf198b771d4b69b05a66d8ce81ebb0": {
        "id": "AS_TextField_b9bf198b771d4b69b05a66d8ce81ebb0",
        "type": "ACTION_SEQUENCE",
        "name": "actionOnTextChangePhone",
        "params": [{
            "datatype": "collection",
            "name": "eventobject"
        }, {
            "datatype": "string",
            "name": "changedtext"
        }],
        "contextObj": {
            "type": "forms",
            "platform": "",
            "KUID": "df10c73727f6431c97b66d9fe3bb8549"
        },
        "language": "js",
        "actions": [{
            "id": "ADD_SNIPPET__c07bff80e3ba46f4a524198e1dcac70e",
            "type": "ADD_SNIPPET",
            "codeSnippet": "kony.print(\"Deleted\");",
            "parentId": null,
            "callbackType": null
        }]
    }
}