{
    "AS_Camera_cbe60817cf0e4ec3bdb7d814e2bc4397": {
        "id": "AS_Camera_cbe60817cf0e4ec3bdb7d814e2bc4397",
        "type": "ACTION_SEQUENCE",
        "name": "actionOncamretakeKA",
        "params": [{
            "datatype": "collection",
            "name": "eventobject"
        }],
        "contextObj": {
            "type": "forms",
            "platform": "",
            "KUID": "c93d766ce16743fc979b2a247c8db394"
        },
        "language": "js",
        "actions": [{
            "id": "ADD_SNIPPET__d3af64680ecc452aa5bcb497b2351daa",
            "type": "ADD_SNIPPET",
            "codeSnippet": "kony.print(\"Deleted\");",
            "parentId": null,
            "callbackType": null
        }]
    }
}