{
    "AS_Button_d91a59d36cc1493594766f19927e7e89": {
        "id": "AS_Button_d91a59d36cc1493594766f19927e7e89",
        "type": "ACTION_SEQUENCE",
        "name": "actionNUOTncBack",
        "params": [{
            "datatype": "collection",
            "name": "eventobject"
        }],
        "contextObj": {
            "type": "forms",
            "platform": "",
            "KUID": "bf784665cb864bbb9326ee7471603cda"
        },
        "language": "js",
        "actions": [{
            "id": "ADD_SNIPPET__bd2103971fb549f0a1a2c6faa543ae3f",
            "type": "ADD_SNIPPET",
            "codeSnippet": "var VC = applicationManager.getFrmNUOTandCKAViewController();\nVC.onClickBackInTnC();",
            "parentId": null,
            "callbackType": null
        }]
    }
}