{
    "AS_TextField_a6c12668a18d4c7f9a95dc8fc9da8f52": {
        "id": "AS_TextField_a6c12668a18d4c7f9a95dc8fc9da8f52",
        "type": "ACTION_SEQUENCE",
        "name": "actionOnTouchStart",
        "params": [{
            "datatype": "collection",
            "name": "eventobject"
        }, {
            "datatype": "string",
            "name": "x"
        }, {
            "datatype": "string",
            "name": "y"
        }],
        "contextObj": {
            "type": "forms",
            "platform": "",
            "KUID": "a7e7b33553484e9c83559a91d27212e3"
        },
        "language": "js",
        "actions": [{
            "id": "ADD_SNIPPET__a2cd8247d2c147f9a7804058597e092c",
            "type": "ADD_SNIPPET",
            "codeSnippet": "kony.print(\"deleted\");",
            "parentId": null,
            "callbackType": null
        }]
    }
}