{
    "AS_Segment_a418d2194ad4403097bf74510519c223": {
        "id": "AS_Segment_a418d2194ad4403097bf74510519c223",
        "type": "ACTION_SEQUENCE",
        "name": "actionOnGenderSelect",
        "params": [{
            "datatype": "collection",
            "name": "eventobject"
        }, {
            "datatype": "number",
            "name": "sectionNumber"
        }, {
            "datatype": "number",
            "name": "rowNumber"
        }],
        "contextObj": {
            "type": "forms",
            "platform": null,
            "KUID": "eb12f8ffbb2d4f6a8412288b6ea74d19"
        },
        "language": "js",
        "actions": [{
            "id": "ADD_SNIPPET__h9ed7e780ddf4d1a9c250a1ea1b14532",
            "type": "ADD_SNIPPET",
            "codeSnippet": "kony.print(\"Deleted\");",
            "parentId": null,
            "callbackType": null
        }]
    }
}