{
    "AS_Button_cd131e274b4b4060b305f992c113351e": {
        "id": "AS_Button_cd131e274b4b4060b305f992c113351e",
        "type": "ACTION_SEQUENCE",
        "name": "actionOnClickOfInfoKA",
        "params": [{
            "datatype": "collection",
            "name": "eventobject"
        }],
        "contextObj": {
            "name": "frmCheckingJoint",
            "type": "forms",
            "platform": "",
            "KUID": "b0246be9d9aa4f7a97eafdd44842ffb2"
        },
        "language": "js",
        "actions": [{
            "id": "ADD_SNIPPET__c4db0ec90e8a42829b4dbc2fcd9243e1",
            "type": "ADD_SNIPPET",
            "codeSnippet": "frmCheckingJoint.btnFeaturesKA.skin = \"sknbtnbgf9f9f9B1pxe2e2e2\";\nfrmCheckingJoint.btnChargesKA.skin = \"sknbtnbgf9f9f9B1pxe2e2e2\";\nfrmCheckingJoint.btnInfoKA.skin = \"skntabSelected\";\nfrmCheckingJoint.tabSelectedIndicator.setVisibility(false);\nfrmCheckingJoint.tabDeselectedIndicator1KA.setVisibility(false);\nfrmCheckingJoint.tabDeselectedIndicator2KA.setVisibility(true);\nfrmCheckingJoint.RichTextInfoMain.setVisibility(false);\nfrmCheckingJoint.RichTextInfo1.setVisibility(false);\nfrmCheckingJoint.RichTextInfo2.setVisibility(true);",
            "parentId": null,
            "callbackType": null
        }]
    }
}