{
    "AS_Image_d05fe54c0453424c9a4958a6f31f04c5": {
        "id": "AS_Image_d05fe54c0453424c9a4958a6f31f04c5",
        "type": "ACTION_SEQUENCE",
        "name": "ActiontoCloseIncomeProof",
        "params": [{
            "datatype": "collection",
            "name": "eventobject"
        }, {
            "datatype": "string",
            "name": "x"
        }, {
            "datatype": "string",
            "name": "y"
        }],
        "contextObj": {
            "type": "forms",
            "platform": "",
            "KUID": "d242d2d8afb149ed92b8c43908766e71"
        },
        "language": "js",
        "actions": [{
            "id": "ADD_SNIPPET__a285eccc7bfb43789e2d1e3b8fc198af",
            "type": "ADD_SNIPPET",
            "codeSnippet": "kony.print(\"Deleted\");",
            "parentId": null,
            "callbackType": null
        }]
    }
}