{
    "AS_Form_b212f51656dd4f2c8ad3d33d3b93b179": {
        "id": "AS_Form_b212f51656dd4f2c8ad3d33d3b93b179",
        "type": "ACTION_SEQUENCE",
        "name": "afwanDestroycontactForm",
        "params": [{
            "datatype": "collection",
            "name": "eventobject"
        }],
        "contextObj": {
            "name": "frmJoMoPay",
            "type": "forms",
            "platform": "",
            "KUID": "d41a38dfc97d4e0a8f3b1db96d6a1ca0"
        },
        "language": "js",
        "actions": [{
            "id": "ADD_SNIPPET__a1509d194e8c44d9af23ffc7b428bfc0",
            "type": "ADD_SNIPPET",
            "codeSnippet": "// frmJomopayContacts.destroy();\nkony.print(\"Afwan Removed PostShow\");",
            "parentId": null,
            "callbackType": null
        }]
    }
}