{
    "AS_TextField_g0f69379be7649278bc79502e6601aa6": {
        "id": "AS_TextField_g0f69379be7649278bc79502e6601aa6",
        "type": "ACTION_SEQUENCE",
        "name": "AS_animateRegisterConfrmPasswordLabelDownIphone",
        "params": [{
            "datatype": "collection",
            "name": "eventobject"
        }, {
            "datatype": "string",
            "name": "changedtext"
        }],
        "contextObj": {
            "name": "frmEnrolluserLandingKA",
            "type": "forms",
            "platform": "",
            "KUID": "de724966138b4e7c9bfdd35033a0bdb3"
        },
        "language": "js",
        "actions": [{
            "id": "ADD_SNIPPET__f3a755379b504d719d233f9efd9d6320",
            "type": "ADD_SNIPPET",
            "codeSnippet": "if(kony.retailBanking.util.validation.isValidPassword(frmEnrolluserLandingKA.tbxPasswordKA.text) && validateConfirmPassword(frmEnrolluserLandingKA.tbxPasswordKA.text, frmEnrolluserLandingKA.tbxConfrmPwdKA.text)){\n  frmEnrolluserLandingKA.flxUnderlineConfirmPassword.skin = \"sknFlxGreenLine\";\n  confrmPasswordFlag = true;\n}\nelse{\n  frmEnrolluserLandingKA.flxUnderlineConfirmPassword.skin = \"sknFlxOrangeLine\";\n  confrmPasswordFlag = false;\n}\n\nanimateLabel(\"DOWN\", \"lblConfirmPassword\", frmEnrolluserLandingKA.tbxConfrmPwdKA.text);",
            "parentId": null,
            "callbackType": null
        }]
    }
}