{
    "AS_Button_b69d69548b7a43558038b31ed3598c63": {
        "id": "AS_Button_b69d69548b7a43558038b31ed3598c63",
        "type": "ACTION_SEQUENCE",
        "params": [{
            "datatype": "collection",
            "name": "eventobject"
        }],
        "language": "js",
        "actions": [{
            "id": "ADD_SNIPPET_ide_onClick_i71bbe2391b04cc6b27acde952a56c30",
            "type": "ADD_SNIPPET",
            "codeSnippet": "setAuthModeHeader(frmFaceIDCapture);\nShowLoadingScreen();\nintializeFacialAuth();\nFaceAuth_initialize();\n",
            "callbackType": null
        }]
    }
}