{
    "AS_Button_97b859d8aae24efca2f1ca05f46a04f2": {
        "id": "AS_Button_97b859d8aae24efca2f1ca05f46a04f2",
        "type": "ACTION_SEQUENCE",
        "params": [{
            "datatype": "collection",
            "name": "eventobject"
        }],
        "language": "js",
        "actions": [{
            "id": "ADD_SNIPPET_ide_onClick_0e35a4f8a39841aa9b18301dd5af3664",
            "type": "ADD_SNIPPET",
            "codeSnippet": "recentTabSelectedAccounts();",
            "callbackType": null
        }]
    }
}