{
    "AS_Button_f5b6234237a54a8cb4baf6dc03df59bf": {
        "id": "AS_Button_f5b6234237a54a8cb4baf6dc03df59bf",
        "type": "ACTION_SEQUENCE",
        "params": [{
            "datatype": "collection",
            "name": "eventobject"
        }],
        "language": "js",
        "actions": [{
            "id": "ADD_SNIPPET_ide_onClick_e291f166cb2e4a24b1464089f89e864b",
            "type": "ADD_SNIPPET",
            "codeSnippet": "frmEPS.btnMobile.skin = sknOrangeBGRNDBOJ;\nfrmEPS.btntext.skin = slButtonBlueFocus;\nif(frmEPS.btnMobile.skin == sknOrangeBGRNDBOJ){\n  frmEPS.lblAliasName.text = \"Mobile number\";\n  animateLabel(\"UP\", \"lblAliasName\",frmEPS.lblAliasName.text);\n    \n}",
            "callbackType": null
        }]
    }
}