{
    "AS_Button_aad08bd2bb4d4082a29c863c6a3ac592": {
        "id": "AS_Button_aad08bd2bb4d4082a29c863c6a3ac592",
        "type": "ACTION_SEQUENCE",
        "params": [{
            "datatype": "collection",
            "name": "eventobject"
        }],
        "language": "js",
        "actions": [{
            "id": "SHOW_ALERT_ide_onClick_bfd8761b23d048898169e38735dad260",
            "type": "SHOW_ALERT",
            "alertType": "constants.ALERT_TYPE_CONFIRMATION",
            "alertTitle": "Confirm Sign Out",
            "yesLabel": "Sign Out",
            "noLabel": "Cancel",
            "alertMessage": "Are you sure you want to sign out?",
            "messageType": "constant",
            "alertTitlei18n": "i18n.common.confirmSignOut",
            "yesLabeli18n": "i18n.common.signOut",
            "noLabeli18n": "i18n.common.cancel",
            "alertMessagei18n": "i18n.common.signOutAlert",
            "iconPosition": "constants.ALERT_ICON_POSITION_LEFT"
        }, {
            "id": "ADD_SNIPPET_ide_onClick_f9bcbf46cef949809f115c6719968120",
            "type": "ADD_SNIPPET",
            "codeSnippet": "//closeAndroidNav();\n//deviceRegFrom = \"logout\";\nkony.sdk.mvvm.LogoutAction();\n",
            "parentId": "SHOW_ALERT_ide_onClick_bfd8761b23d048898169e38735dad260",
            "callbackType": "True"
        }]
    }
}