{
    "AS_Button_2d6ad6ab37d6469cbcf51eac04405f94": {
        "id": "AS_Button_2d6ad6ab37d6469cbcf51eac04405f94",
        "type": "ACTION_SEQUENCE",
        "params": [{
            "datatype": "collection",
            "name": "eventobject"
        }],
        "contextObj": {
            "name": "frmDeviceDeRegistrationKA",
            "type": "forms",
            "platform": null,
            "KUID": "499b4d3c1a2c45e4a20d2c17e0303848"
        },
        "language": "js",
        "actions": [{
            "id": "ADD_SNIPPET__cbc66966c06446229a06efcb99b36675",
            "type": "ADD_SNIPPET",
            "codeSnippet": "kony.print(\"Reove\");",
            "parentId": null,
            "callbackType": null
        }]
    }
}