{
    "AS_Button_84edf0779e2e447499661e93edae15e0": {
        "id": "AS_Button_84edf0779e2e447499661e93edae15e0",
        "type": "ACTION_SEQUENCE",
        "params": [{
            "datatype": "collection",
            "name": "eventobject"
        }],
        "contextObj": {
            "type": "forms",
            "platform": "",
            "KUID": "ac09c32a534449b3b0961f8e48e26015"
        },
        "language": "js",
        "actions": [{
            "id": "ADD_SNIPPET__14292eb7359c4737834364b9687e5a2c",
            "type": "ADD_SNIPPET",
            "codeSnippet": "clearFilterAction();\n",
            "parentId": null,
            "callbackType": null
        }]
    }
}