{
    "AS_Button_e0e28eca07b24c208c20dee2fd9a9fb6": {
        "id": "AS_Button_e0e28eca07b24c208c20dee2fd9a9fb6",
        "type": "ACTION_SEQUENCE",
        "params": [{
            "datatype": "collection",
            "name": "eventobject"
        }],
        "language": "js",
        "actions": [{
            "id": "NAVIGATE_TO_FORM___ebb7792cea0b4e45816dcbc2b1f5e12f",
            "type": "NAVIGATE_TO_FORM",
            "formId": "frmLoginKA",
            "formKUID": "7b1aa8fceb6b4070833e9eab879b0e5e",
            "mappings": {},
            "mappingsOrder": [],
            "parentId": "",
            "callbackType": null,
            "enableMappingEditor": true,
            "package": "",
            "navigationObj": "{\n    \"_meta_\": {\n        \"eventName\": \"onClick\",\n        \"widgetId\": \"btnReLoginKA\"\n    }\n}",
            "isCustomInput": false
        }]
    }
}