{
    "AS_Button_c322c2802fc34c988af7498ffb6d3c56": {
        "id": "AS_Button_c322c2802fc34c988af7498ffb6d3c56",
        "type": "ACTION_SEQUENCE",
        "name": "AS_Button_popUpDismiss",
        "params": [{
            "datatype": "collection",
            "name": "eventobject"
        }],
        "contextObj": {
            "name": "popupStopCard",
            "type": "popups",
            "platform": "",
            "KUID": "jcf5b63bf56e4bb187f679c598c3caf4"
        },
        "language": "js",
        "actions": [{
            "id": "ADD_SNIPPET_ide_onClick_e5031d47411a4691993bb1d1b4693eda",
            "type": "ADD_SNIPPET",
            "codeSnippet": "closeStopCardPopup();"
        }]
    }
}