{
    "AS_Button_hbc8271327314ae79fd24d7c0de7dce4": {
        "id": "AS_Button_hbc8271327314ae79fd24d7c0de7dce4",
        "type": "ACTION_SEQUENCE",
        "params": [{
            "datatype": "collection",
            "name": "eventobject"
        }],
        "language": "js",
        "actions": [{
            "id": "ADD_SNIPPET_ide_onClick_g71d7a8bc2804f5eb37e349b5b0b0f30",
            "type": "ADD_SNIPPET",
            "codeSnippet": "cardManagementOperations(\"changePin\");",
            "callbackType": null
        }]
    }
}