{
    "AS_Button_h238bd9f02cc4c37a21bc257725f7564": {
        "id": "AS_Button_h238bd9f02cc4c37a21bc257725f7564",
        "type": "ACTION_SEQUENCE",
        "params": [{
            "datatype": "collection",
            "name": "eventobject"
        }],
        "contextObj": {
            "name": "frmEPS",
            "type": "forms",
            "platform": "",
            "KUID": "c49bbb3175be499d86d933cee301b3c4"
        },
        "language": "js",
        "actions": [{
            "id": "ADD_SNIPPET__cf7b6f7a72c04b28b41272c1f2e03323",
            "type": "ADD_SNIPPET",
            "codeSnippet": "gblToOTPFrom = \"CLIQ\";\nShowLoadingScreen();\ncallRequestOTP(); \n//TransferIPS();",
            "parentId": null,
            "callbackType": null
        }]
    }
}