{
    "AS_Button_fd2966304a744c0ca902aab590d41ee3": {
        "id": "AS_Button_fd2966304a744c0ca902aab590d41ee3",
        "type": "ACTION_SEQUENCE",
        "params": [{
            "datatype": "collection",
            "name": "eventobject"
        }],
        "language": "js",
        "actions": [{
            "id": "ADD_SNIPPET_ide_onClick_ea3bb0b0f6054a35b1f2797a71dc8755",
            "type": "ADD_SNIPPET",
            "codeSnippet": "gblEntryFormForSettings = \"Cards\";\nsubMenuFlag = true;\nfrmSettingsKA.show();",
            "callbackType": null
        }]
    }
}