{
    "AS_Button_d78bb0909edb480999b7eafb2f538616": {
        "id": "AS_Button_d78bb0909edb480999b7eafb2f538616",
        "type": "ACTION_SEQUENCE",
        "params": [{
            "datatype": "collection",
            "name": "eventobject"
        }],
        "language": "js",
        "actions": [{
            "id": "ADD_SNIPPET_ide_onClick_ee573c004ea34d82a655ff2cc4885c84",
            "type": "ADD_SNIPPET",
            "codeSnippet": "customVerb_CARDSDETAILS();",
            "callbackType": null
        }]
    }
}