{
    "AS_Button_3262c2fbe9814ca185c9c755b2560f19": {
        "id": "AS_Button_3262c2fbe9814ca185c9c755b2560f19",
        "type": "ACTION_SEQUENCE",
        "params": [{
            "datatype": "collection",
            "name": "eventobject"
        }],
        "contextObj": {
            "type": "forms",
            "platform": "",
            "KUID": "ac09c32a534449b3b0961f8e48e26015"
        },
        "language": "js",
        "actions": [{
            "id": "ADD_SNIPPET__271bedc0296c4f3ab84574258ccde89b",
            "type": "ADD_SNIPPET",
            "codeSnippet": "getFilteredSubAccounts(kony.retailBanking.globalData.globals.Deposit);\ntransactionSearchHeaderAnimate(\"66.6%\");",
            "parentId": null,
            "callbackType": null
        }]
    }
}