{
    "AS_Button_a83c5dae30aa4e1faf4c9683fd86ab7a": {
        "id": "AS_Button_a83c5dae30aa4e1faf4c9683fd86ab7a",
        "type": "ACTION_SEQUENCE",
        "params": [{
            "datatype": "collection",
            "name": "eventobject"
        }],
        "language": "js",
        "actions": [{
            "id": "ADD_SNIPPET__a088045369cc40ad9199ab7dace1b0ea",
            "type": "ADD_SNIPPET",
            "codeSnippet": "cancelNewAccountOpening();",
            "parentId": null,
            "callbackType": null
        }]
    }
}