{
    "AS_Button_4ca77366ccb9400f85f98d2519793970": {
        "id": "AS_Button_4ca77366ccb9400f85f98d2519793970",
        "type": "ACTION_SEQUENCE",
        "params": [{
            "datatype": "collection",
            "name": "eventobject"
        }],
        "contextObj": {
            "type": "forms",
            "platform": "",
            "KUID": "d632c1724f9840698e446fcf7c83b2ca"
        },
        "language": "js",
        "actions": [{
            "id": "ADD_SNIPPET__c29c37b5efff466da1159eb3ec7f2d1d",
            "type": "ADD_SNIPPET",
            "codeSnippet": "    var INSTANCE = kony.sdk.mvvm.KonyApplicationContext.getAppInstance();\n    var frmName = kony.application.getCurrentForm().id;\n    var listController = INSTANCE.getFormController(frmName);\n    listController.performAction(\"saveData\");",
            "parentId": null,
            "callbackType": null
        }]
    }
}