{
    "AS_Button_c391ab82e3eb4e84b9175ffe2db931bf": {
        "id": "AS_Button_c391ab82e3eb4e84b9175ffe2db931bf",
        "type": "ACTION_SEQUENCE",
        "name": "AS_Button_Jomopay_Type",
        "params": [{
            "datatype": "collection",
            "name": "eventobject"
        }],
        "language": "js",
        "actions": [{
            "id": "ADD_SNIPPET_ide_onClick_he0f38028c1a4d6dba33772e8a6e6c23",
            "type": "ADD_SNIPPET",
            "codeSnippet": "var flag= \"addBen\";\nkony.boj.jomopaytype(flag);",
            "callbackType": null,
            "disabled": false
        }]
    }
}