{
    "AS_Button_fe1cef3bb60e4e828f55ce2ef74f385f": {
        "id": "AS_Button_fe1cef3bb60e4e828f55ce2ef74f385f",
        "type": "ACTION_SEQUENCE",
        "params": [{
            "datatype": "collection",
            "name": "eventobject"
        }],
        "contextObj": {
            "name": "frmAccountDetailKA",
            "type": "forms",
            "platform": "",
            "KUID": "5ed703cad63c441882fc4a36f5ea0c28"
        },
        "language": "js",
        "actions": [{
            "id": "ADD_SNIPPET__f0a49b83681440f1b9ca33fde3a4effe",
            "type": "ADD_SNIPPET",
            "codeSnippet": "kony.print(\":asdas\");",
            "parentId": null,
            "callbackType": null
        }]
    }
}