{
    "AS_Button_i43634ce13844482a1803fd1700c473f": {
        "id": "AS_Button_i43634ce13844482a1803fd1700c473f",
        "type": "ACTION_SEQUENCE",
        "params": [{
            "datatype": "collection",
            "name": "eventobject"
        }],
        "language": "js",
        "actions": [{
            "id": "ADD_SNIPPET_ide_onClick_b62c866f0cd34eef83ba47fa65ce4300",
            "type": "ADD_SNIPPET",
            "codeSnippet": "// if(kony.sdk.isNetworkAvailable())\n//   {\n// navigate_StandingInstructions(\"JoMoPay\");\n//   }\n// else\n//   { \n// alert(\"\"+kony.i18n.getLocalizedString(\"i18n.errorMsg.deviceConnectionError\")); \n//   }\ngblTModule = \"jomoDashBoard\";\n//getAllAccounts(); //hassan 12/03/2018\\\nglbJmpFlow = \"dash\";\ngetAllAccounts();\n//call_serv_getjomoppayregdata();\n\n// addData();\n// getJomoPayTransactionsList();",
            "callbackType": null
        }]
    }
}