{
    "AS_Button_ddcca42030314a629c177e5411b6e4d4": {
        "id": "AS_Button_ddcca42030314a629c177e5411b6e4d4",
        "type": "ACTION_SEQUENCE",
        "params": [{
            "datatype": "collection",
            "name": "eventobject"
        }],
        "language": "js",
        "actions": [{
            "id": "ADD_SNIPPET_ide_onClick_e6724f88e5a845499b06a5c8d533bd4a",
            "type": "ADD_SNIPPET",
            "codeSnippet": "onChangingradioBtnNewBillKA(frmNewBillKA.btnBillsPayCards,frmNewBillKA.lblBillsPayCards.text);",
            "callbackType": null
        }]
    }
}