{
    "AS_Button_hda4d033441c4124b369a15de08223fa": {
        "id": "AS_Button_hda4d033441c4124b369a15de08223fa",
        "type": "ACTION_SEQUENCE",
        "params": [{
            "datatype": "collection",
            "name": "eventobject"
        }],
        "contextObj": {
            "name": "frmAccountDetailKA",
            "type": "forms",
            "platform": "",
            "KUID": "5ed703cad63c441882fc4a36f5ea0c28"
        },
        "language": "js",
        "actions": [{
            "id": "ADD_SNIPPET__c8e6ce1c6afa4e7f858f591da855a146",
            "type": "ADD_SNIPPET",
            "codeSnippet": "kony.print(\"dasdas\");",
            "parentId": null,
            "callbackType": null
        }]
    }
}