{
    "AS_Button_b4a1c7b9c82744658680ac24ee49c50d": {
        "id": "AS_Button_b4a1c7b9c82744658680ac24ee49c50d",
        "type": "ACTION_SEQUENCE",
        "params": [{
            "datatype": "collection",
            "name": "eventobject"
        }],
        "contextObj": {
            "name": "frmAccountDetailKA",
            "type": "forms",
            "platform": "",
            "KUID": "5ed703cad63c441882fc4a36f5ea0c28"
        },
        "language": "js",
        "actions": [{
            "id": "ADD_SNIPPET__ce7f23ffb4e046f882e73a98f68f785c",
            "type": "ADD_SNIPPET",
            "codeSnippet": "kony.print(\"this is \");",
            "parentId": null,
            "callbackType": null
        }]
    }
}