{
    "AS_Button_ebf3cb12da7a4a8097df4a7dc3980c9f": {
        "id": "AS_Button_ebf3cb12da7a4a8097df4a7dc3980c9f",
        "type": "ACTION_SEQUENCE",
        "params": [{
            "datatype": "collection",
            "name": "eventobject"
        }],
        "contextObj": {
            "type": "forms",
            "platform": "",
            "KUID": "3e2f28d9359040b1a573d116bedb83fc"
        },
        "language": "js",
        "actions": [{
            "id": "ADD_SNIPPET_ide_onClick_a9ad2dccbf93466bac6da57b5c283908",
            "type": "ADD_SNIPPET",
            "codeSnippet": "//saveNewTransfer(\"frmConfirmTransferKA\");\n\nvar INSTANCE = kony.sdk.mvvm.KonyApplicationContext.getAppInstance();\nvar listController = INSTANCE.getFormController(\"frmConfirmPayBill\");\nlistController.performAction(\"saveData\");",
            "callbackType": null
        }]
    }
}