{
    "AS_Button_0a372a5288274f27915b29ddc4640512": {
        "id": "AS_Button_0a372a5288274f27915b29ddc4640512",
        "type": "ACTION_SEQUENCE",
        "params": [{
            "datatype": "collection",
            "name": "eventobject"
        }],
        "contextObj": {
            "name": "frmRecentDepositKA",
            "type": "forms",
            "platform": null,
            "KUID": "12938df68b634bdb91432896ef721294"
        },
        "language": "js",
        "actions": [{
            "id": "NAVIGATE_TO_FORM__ide_onClick_dcd35bf7db634df7974b29d3dfb5b3e4",
            "type": "NAVIGATE_TO_FORM",
            "formId": "frmDepositPayLandingKA",
            "formKUID": "dd44156e890e4ee28360f50ee6c67184",
            "mappings": {},
            "mappingsOrder": [],
            "parentId": "",
            "callbackType": null,
            "enableMappingEditor": true,
            "package": "",
            "navigationObj": "{\n    \"_meta_\": {\n        \"eventName\": \"\",\n        \"widgetId\": \"\"\n    }\n}",
            "isCustomInput": false
        }]
    }
}