{
    "AS_Button_ff54b83f5de64bbbb1df4c97f0dc7bd7": {
        "id": "AS_Button_ff54b83f5de64bbbb1df4c97f0dc7bd7",
        "type": "ACTION_SEQUENCE",
        "params": [{
            "datatype": "collection",
            "name": "eventobject"
        }],
        "language": "js",
        "actions": [{
            "id": "ADD_SNIPPET_ide_onClick_c4f415b9865d4862a0b187420e4cea87",
            "type": "ADD_SNIPPET",
            "codeSnippet": "alertChangeUsername();",
            "callbackType": null
        }]
    }
}