{
    "AS_Button_e3b07c93f6e849d2b0fcfb32f2192df5": {
        "id": "AS_Button_e3b07c93f6e849d2b0fcfb32f2192df5",
        "type": "ACTION_SEQUENCE",
        "params": [{
            "datatype": "collection",
            "name": "eventobject"
        }],
        "language": "js",
        "actions": [{
            "id": "ADD_SNIPPET_ide_onClick_f6c9323169a549659f6c94cd7256bd30",
            "type": "ADD_SNIPPET",
            "codeSnippet": "onClickCardsMenu();"
        }]
    }
}