{
    "AS_Button_d8d9cafbbc444d47af671a8d5632ef9c": {
        "id": "AS_Button_d8d9cafbbc444d47af671a8d5632ef9c",
        "type": "ACTION_SEQUENCE",
        "params": [{
            "datatype": "collection",
            "name": "eventobject"
        }],
        "language": "js",
        "actions": [{
            "id": "ADD_SNIPPET__6c595876caac40789b4abaea8af3a5d7",
            "type": "ADD_SNIPPET",
            "codeSnippet": "    var INSTANCE = kony.sdk.mvvm.KonyApplicationContext.getAppInstance();\n    var frmName = kony.application.getCurrentForm().id;\n    var listController = INSTANCE.getFormController(frmName);\n    listController.performAction(\"saveData\");",
            "parentId": null,
            "callbackType": null
        }]
    }
}