{
    "AS_Button_d9b7d4127a7f4571a3ea38cccdf130b1": {
        "id": "AS_Button_d9b7d4127a7f4571a3ea38cccdf130b1",
        "type": "ACTION_SEQUENCE",
        "params": [{
            "datatype": "collection",
            "name": "eventobject"
        }],
        "language": "js",
        "actions": [{
            "id": "ADD_SNIPPET_ide_onClick_a8a8ca8f05e743658fa4ab04620474f8",
            "type": "ADD_SNIPPET",
            "codeSnippet": "kony.print(\"Deleted\");",
            "callbackType": null
        }]
    }
}