{
    "AS_Button_e53d684599ab4d5e8587a6f4b96fe894": {
        "id": "AS_Button_e53d684599ab4d5e8587a6f4b96fe894",
        "type": "ACTION_SEQUENCE",
        "params": [{
            "datatype": "collection",
            "name": "eventobject"
        }],
        "language": "js",
        "actions": [{
            "id": "ADD_SNIPPET_ide_onClick_a04735613b304cdb9ddb8ee1b920b1f4",
            "type": "ADD_SNIPPET",
            "codeSnippet": "frmPaymentDashboard.show();",
            "callbackType": null
        }]
    }
}