{
    "AS_Button_78bed686e92749438c003ca03526e6aa": {
        "id": "AS_Button_78bed686e92749438c003ca03526e6aa",
        "type": "ACTION_SEQUENCE",
        "params": [{
            "datatype": "collection",
            "name": "eventobject"
        }],
        "contextObj": {
            "name": "frmDeviceRegisterationIncorrectPinActicvationKA",
            "type": "forms",
            "platform": null,
            "KUID": "528c2066077141738a6187ecddb68366"
        },
        "language": "js",
        "actions": [{
            "id": "ADD_SNIPPET__702ad40713204d839e9488fafef44eef",
            "type": "ADD_SNIPPET",
            "codeSnippet": "kony.print(\"Deleted\");",
            "parentId": null,
            "callbackType": null
        }]
    }
}