{
    "AS_Button_ade7037bf2274c5594f04be29fe431fd": {
        "id": "AS_Button_ade7037bf2274c5594f04be29fe431fd",
        "type": "ACTION_SEQUENCE",
        "params": [{
            "datatype": "collection",
            "name": "eventobject"
        }],
        "language": "js",
        "actions": [{
            "id": "ADD_SNIPPET_ide_onClick_f64d2d78762c48b48bdf9e12a32665ea",
            "type": "ADD_SNIPPET",
            "codeSnippet": "onClickCardsMenu();"
        }]
    }
}