{
    "AS_Button_bb30844208e5400ebee11459de7b7cf6": {
        "id": "AS_Button_bb30844208e5400ebee11459de7b7cf6",
        "type": "ACTION_SEQUENCE",
        "params": [{
            "datatype": "collection",
            "name": "eventobject"
        }],
        "language": "js",
        "actions": [{
            "id": "ADD_SNIPPET_ide_onClick_f7f0e485bc064aaab5d15a07bc80c4d0",
            "type": "ADD_SNIPPET",
            "codeSnippet": "cardManagementOperations(\"replace\");",
            "callbackType": null
        }]
    }
}