{
    "AS_Button_4ea3ca69db8a4c62bf114895466ca626": {
        "id": "AS_Button_4ea3ca69db8a4c62bf114895466ca626",
        "type": "ACTION_SEQUENCE",
        "params": [{
            "datatype": "collection",
            "name": "eventobject"
        }],
        "language": "js",
        "actions": [{
            "id": "ADD_SNIPPET_ide_onClick_612da943bc114da18515a38794977329",
            "type": "ADD_SNIPPET",
            "codeSnippet": "//saveNewTransfer(\"frmConfirmTransferKA\");\nShowLoadingScreen();\nvar INSTANCE = kony.sdk.mvvm.KonyApplicationContext.getAppInstance();\nvar listController = INSTANCE.getFormController(\"frmCheckReorderConfirmationKA\");\nlistController.performAction(\"saveData\");",
            "callbackType": null
        }]
    }
}