{
    "AS_Button_d03dc30dcb5e40a38044fa9d09505449": {
        "id": "AS_Button_d03dc30dcb5e40a38044fa9d09505449",
        "type": "ACTION_SEQUENCE",
        "params": [{
            "datatype": "collection",
            "name": "eventobject"
        }],
        "language": "js",
        "actions": [{
            "id": "ADD_SNIPPET_ide_onClick_hecf53f55cd043be874c34c134015b39",
            "type": "ADD_SNIPPET",
            "codeSnippet": "recentTabSelectedAccounts();",
            "callbackType": null
        }]
    }
}