{
    "AS_Button_4ba6425892d948cba5c58fc82897de61": {
        "id": "AS_Button_4ba6425892d948cba5c58fc82897de61",
        "type": "ACTION_SEQUENCE",
        "params": [{
            "datatype": "collection",
            "name": "eventobject"
        }],
        "language": "js",
        "actions": [{
            "id": "ADD_SNIPPET__db358b6531ee4c35b11781b8b24a2236",
            "type": "ADD_SNIPPET",
            "codeSnippet": "showFormOrderList();",
            "parentId": null,
            "callbackType": null
        }]
    }
}