{
    "AS_Button_a9aadca5475e4a9b975f33d7341e5a33": {
        "id": "AS_Button_a9aadca5475e4a9b975f33d7341e5a33",
        "type": "ACTION_SEQUENCE",
        "params": [{
            "datatype": "collection",
            "name": "eventobject"
        }],
        "language": "js",
        "actions": [{
            "id": "ADD_SNIPPET_ide_onClick_e957791996784cce9dc44d66b2e94a66",
            "type": "ADD_SNIPPET",
            "codeSnippet": "frmJoMoPay.flxPopupOuter.setVisibility(true);",
            "callbackType": null
        }]
    }
}