{
    "AS_Button_f2ec847e3fc44b5fbb34c2e1b68daf28": {
        "id": "AS_Button_f2ec847e3fc44b5fbb34c2e1b68daf28",
        "type": "ACTION_SEQUENCE",
        "params": [{
            "datatype": "collection",
            "name": "eventobject"
        }],
        "contextObj": {
            "name": "frmDirectionsKA",
            "type": "forms",
            "platform": null,
            "KUID": "2a844aaae75b49948039c6e28c65dfcc"
        },
        "language": "js",
        "actions": [{
            "id": "INVOKE_FUNCTION__ide_onClick_9c8adecfd6ae4b4b98b618adf1274b5b",
            "type": "INVOKE_FUNCTION",
            "sequenceKUID": "onBranchSelected",
            "display": "onBranchSelected",
            "inputparams": [],
            "callbackType": null,
            "source": "module"
        }]
    }
}