{
    "AS_Button_hd30c8b058e84e48b65dfae882ee3f4e": {
        "id": "AS_Button_hd30c8b058e84e48b65dfae882ee3f4e",
        "type": "ACTION_SEQUENCE",
        "name": "AS_Button_SaveQucikBalSettingsOption",
        "params": [{
            "datatype": "collection",
            "name": "eventobject"
        }],
        "language": "js",
        "actions": [{
            "id": "ADD_SNIPPET_ide_onClick_c58190782a5c4084b0d070e89ed62263",
            "type": "ADD_SNIPPET",
            "codeSnippet": "//frmSettingsKA.show();\ncallSetQucikAccessList();",
            "callbackType": null
        }]
    }
}