{
    "AS_Button_df07e2eab4ce47c380ff09521e2da648": {
        "id": "AS_Button_df07e2eab4ce47c380ff09521e2da648",
        "type": "ACTION_SEQUENCE",
        "params": [{
            "datatype": "collection",
            "name": "eventobject"
        }],
        "contextObj": {
            "name": "frmNewBillKA",
            "type": "forms",
            "platform": "",
            "KUID": "94b57de480514c9f98e1f6979b71a37b"
        },
        "language": "js",
        "actions": [{
            "id": "ADD_SNIPPET_ide_onClick_a2d6580a6c5b46eeb6851c8113d4495d",
            "type": "ADD_SNIPPET",
            "codeSnippet": "var navObject;\nvar INSTANCE = kony.sdk.mvvm.KonyApplicationContext.getAppInstance();\n\t\tvar formController = INSTANCE.getFormController(\"frmBillPayeeDetailsKA\");\n\t\tif(!navObject || !(navObject instanceof kony.sdk.mvvm.NavigationObject)) {\n        \tnavObject = new kony.sdk.mvvm.NavigationObject();\n        }\n        kony.sdk.mvvm.KonyApplicationContext.showLoadingScreen(kony.retailBanking.globalData.globals.LOADING_SCREEN_MESSAGE);\n        kony.retailBanking.globalData.globals.formStack.push(\"frmBillPayeeDetailsKA\");\n\t\tformController.loadDataAndShowForm(navObject);",
            "callbackType": null
        }]
    }
}