{
    "AS_Button_80591854a6a34a8c9da491a5d63af321": {
        "id": "AS_Button_80591854a6a34a8c9da491a5d63af321",
        "type": "ACTION_SEQUENCE",
        "params": [{
            "datatype": "collection",
            "name": "eventobject"
        }],
        "language": "js",
        "actions": [{
            "id": "ADD_SNIPPET__86b92dde22854b18a38d9f8a86c1aa17",
            "type": "ADD_SNIPPET",
            "codeSnippet": "onWithdrawalSelected();",
            "parentId": null,
            "callbackType": null
        }]
    }
}