{
    "AS_Button_c49536d298a7498aba765b64afe5c9b1": {
        "id": "AS_Button_c49536d298a7498aba765b64afe5c9b1",
        "type": "ACTION_SEQUENCE",
        "params": [{
            "datatype": "collection",
            "name": "eventobject"
        }],
        "language": "js",
        "actions": [{
            "id": "ADD_SNIPPET_ide_onClick_db235aad5a3144109eaf0c76d3f708cc",
            "type": "ADD_SNIPPET",
            "codeSnippet": "if(gblFromModule == \"ChangePassword\"){\n  if(frmEnrolluserLandingKA.flxUnderlinePassword.skin == \"sknFlxGreenLine\" && frmEnrolluserLandingKA.flxUnderlineConfirmPassword.skin == \"sknFlxGreenLine\"){\n    kony.boj.populateSuccessScreen(\"success.png\", geti18nkey(\"i18n.common.pwdcha\"),\n                                   geti18nkey(\"i18n.common.gtLS\"), \"Login\");\n  }\n}\nelse{\n  if(frmEnrolluserLandingKA.flxUnderlineUsername.skin == \"sknFlxGreenLine\" ){\n    callSave();\n  }\n}",
            "callbackType": null
        }]
    }
}