{
    "AS_Button_edbc1adefe694db69d2155efa3041eee": {
        "id": "AS_Button_edbc1adefe694db69d2155efa3041eee",
        "type": "ACTION_SEQUENCE",
        "params": [{
            "datatype": "collection",
            "name": "eventobject"
        }],
        "contextObj": {
            "name": "frmAddNewPrePayeeKA",
            "type": "forms",
            "platform": null,
            "KUID": "a843292d9c674ff7ba10a9b594b7e7e5"
        },
        "language": "js",
        "actions": [{
            "id": "ADD_SNIPPET_ide_onClick_a6b90488198b40aabad81c8770bfd681",
            "type": "ADD_SNIPPET",
            "codeSnippet": "customAlertPopup(geti18Value(\"i18n.common.AreYouSure\"), \n                 geti18Value(\"i18n.Bene.backFromBeneError\"),\n                kony.boj.onClickYesBackAddPrePaidBene, popupCommonAlertDimiss, \n                geti18Value(\"i18n.common.YES\"),\n                geti18Value(\"i18n.common.NO\"));",
            "callbackType": null
        }]
    }
}