{
    "AS_Button_c8632779fb04485b9f63f37753b3adf4": {
        "id": "AS_Button_c8632779fb04485b9f63f37753b3adf4",
        "type": "ACTION_SEQUENCE",
        "params": [{
            "datatype": "collection",
            "name": "eventobject"
        }],
        "contextObj": {
            "name": "frmChatBots",
            "type": "forms",
            "platform": "",
            "KUID": "a5c82996d9864c6482f65cfffe81fda4"
        },
        "language": "js",
        "actions": [{
            "id": "ADD_SNIPPET__fac818adf9e34a828b3602adc7e1d52e",
            "type": "ADD_SNIPPET",
            "codeSnippet": "(new kony.chatbotPresentation()).onExitChatBot();",
            "parentId": null,
            "callbackType": null
        }]
    }
}