{
    "AS_Button_a15ecba938de481ea581bc26f6112dba": {
        "id": "AS_Button_a15ecba938de481ea581bc26f6112dba",
        "type": "ACTION_SEQUENCE",
        "params": [{
            "datatype": "collection",
            "name": "eventobject"
        }],
        "language": "js",
        "actions": [{
            "id": "ADD_SNIPPET_ide_onClick_b498abc7aca14814b2f849d84b670ee6",
            "type": "ADD_SNIPPET",
            "codeSnippet": "if(kony.application.getCurrentForm().id === \"frmJoMoPay\"){\n\tanimateLabel(\"UP\",\"lblBeneficiaryStaticText\",frmJoMoPay.txtPhoneNo.text);\n}else if(kony.application.getCurrentForm().id === \"frmJOMOPayAddBiller\"){\n\tanimate_NEWCARDSOPTIOS(\"UP\", \"lblBeneficiaryMobileTitle\", frmJOMOPayAddBiller.txtBeneficiaryMobile.text);\n}\ngetDataOfContats();",
            "callbackType": null
        }]
    }
}