{
    "AS_Button_g26b720583874a94a7e618f09e7a7a93": {
        "id": "AS_Button_g26b720583874a94a7e618f09e7a7a93",
        "type": "ACTION_SEQUENCE",
        "params": [{
            "datatype": "collection",
            "name": "eventobject"
        }],
        "contextObj": {
            "name": "frmPinEntryStep2",
            "type": "forms",
            "platform": null,
            "KUID": "e015f1b273d34ea480f2c966bc9044d2"
        },
        "language": "js",
        "actions": [{
            "id": "ADD_SNIPPET_ide_onClick_ac843ca43366424e9d1d59f09c9f8de1",
            "type": "ADD_SNIPPET",
            "codeSnippet": "check(0);",
            "callbackType": null
        }]
    }
}