{
    "AS_Button_ba82d897073b464cbb2dffbebedc93e4": {
        "id": "AS_Button_ba82d897073b464cbb2dffbebedc93e4",
        "type": "ACTION_SEQUENCE",
        "params": [{
            "datatype": "collection",
            "name": "eventobject"
        }],
        "language": "js",
        "actions": [{
            "id": "ADD_SNIPPET_ide_onClick_aa53c9f36884468999beddc48e497c3c",
            "type": "ADD_SNIPPET",
            "codeSnippet": " var INSTANCE = kony.sdk.mvvm.KonyApplicationContext.getAppInstance();\n var controller = INSTANCE.getFormController(\"frmAccountDetailKA\");\n controller.getFormModel().showView();",
            "callbackType": null
        }]
    }
}