{
    "AS_Button_ia4770afb259439fbf5d72b37233e2c4": {
        "id": "AS_Button_ia4770afb259439fbf5d72b37233e2c4",
        "type": "ACTION_SEQUENCE",
        "params": [{
            "datatype": "collection",
            "name": "eventobject"
        }],
        "contextObj": {
            "name": "frmReleaseNotesKA",
            "type": "forms",
            "platform": "",
            "KUID": "cd9f0006f05a4c99a07e762ad6cd7438"
        },
        "language": "js",
        "actions": [{
            "id": "ADD_SNIPPET__b36ab8c5713e4a3fb479d760f3038522",
            "type": "ADD_SNIPPET",
            "codeSnippet": "releaseNotesnextBackBtnonClick();",
            "parentId": null,
            "callbackType": null
        }]
    }
}