{
    "AS_Button_b9a20c4dac6a4a39877ae9af42d1fb0e": {
        "id": "AS_Button_b9a20c4dac6a4a39877ae9af42d1fb0e",
        "type": "ACTION_SEQUENCE",
        "name": "AS_Button_stopCardAction",
        "params": [{
            "datatype": "collection",
            "name": "eventobject"
        }],
        "language": "js",
        "actions": [{
            "id": "ADD_SNIPPET_ide_onClick_ia8bb2a0885d4b2f99626616b55d8b93",
            "type": "ADD_SNIPPET",
            "codeSnippet": "popupStopCard.dismiss();",
            "callbackType": null
        }]
    }
}