{
    "AS_Button_c9f90594cd454a809ced2d93d42c24d2": {
        "id": "AS_Button_c9f90594cd454a809ced2d93d42c24d2",
        "type": "ACTION_SEQUENCE",
        "params": [{
            "datatype": "collection",
            "name": "eventobject"
        }],
        "language": "js",
        "actions": [{
            "id": "ADD_SNIPPET_ide_onClick_a206c2046f714477b60f4ade28ac6735",
            "type": "ADD_SNIPPET",
            "codeSnippet": "var obj = new kony.retailbanking.AdvancedAtmFilter();\nobj.onClickOfApply();",
            "callbackType": null
        }]
    }
}