{
    "AS_FlexContainer_cb76f3597ca64c1a896b8063355d00e1": {
        "id": "AS_FlexContainer_cb76f3597ca64c1a896b8063355d00e1",
        "type": "ACTION_SEQUENCE",
        "name": "AS_backFromFilterSI",
        "params": [{
            "datatype": "collection",
            "name": "eventobject"
        }],
        "contextObj": {
            "name": "frmFilterSI",
            "type": "forms",
            "platform": null,
            "KUID": "ic4b1b46f1f740f3aa18d23b3648b743"
        },
        "language": "js",
        "actions": [{
            "id": "ADD_SNIPPET__i8d0ea901b234c3d935a05cb4e9ed3d8",
            "type": "ADD_SNIPPET",
            "codeSnippet": "frmStandingInstructions.show();",
            "parentId": null,
            "callbackType": null
        }]
    }
}