{
    "AS_Button_h834e409c4344faa9e7ef5052d41c4d8": {
        "id": "AS_Button_h834e409c4344faa9e7ef5052d41c4d8",
        "type": "ACTION_SEQUENCE",
        "params": [{
            "datatype": "collection",
            "name": "eventobject"
        }],
        "contextObj": {
            "name": "frmPinEntryStep2",
            "type": "forms",
            "platform": null,
            "KUID": "e015f1b273d34ea480f2c966bc9044d2"
        },
        "language": "js",
        "actions": [{
            "id": "ADD_SNIPPET_ide_onClick_ja083347e72e4450b2312188dd96de1c",
            "type": "ADD_SNIPPET",
            "codeSnippet": "DeleteClick();",
            "callbackType": null
        }]
    }
}