{
    "AS_Calendar_7b8cee15e7164639b480f2f20d6599d3": {
        "id": "AS_Calendar_7b8cee15e7164639b480f2f20d6599d3",
        "type": "ACTION_SEQUENCE",
        "params": [{
            "datatype": "collection",
            "name": "eventobject"
        }, {
            "datatype": "boolean",
            "name": "isValidDateSelected"
        }],
        "contextObj": {
            "type": "forms",
            "platform": "",
            "KUID": "ac09c32a534449b3b0961f8e48e26015"
        },
        "language": "js",
        "actions": [{
            "id": "ADD_SNIPPET__ccb19a8bd1d942e68ac6cd0ef9b99e6c",
            "type": "ADD_SNIPPET",
            "codeSnippet": "getPickerDateSelection();",
            "parentId": null,
            "callbackType": null
        }]
    }
}