{
    "AS_Video_f9d8e3f5a48644139d95d9e420528693": {
        "id": "AS_Video_f9d8e3f5a48644139d95d9e420528693",
        "type": "ACTION_SEQUENCE",
        "name": "AS_completionAn",
        "params": [{
            "datatype": "collection",
            "name": "eventobject"
        }],
        "contextObj": {
            "name": "frmSplash",
            "type": "forms",
            "platform": "",
            "KUID": "db67a9fe92674e5e9f19aa5b50fa0e6f"
        },
        "language": "js",
        "actions": [{
            "id": "ADD_SNIPPET__c2e8f09a24354c7eaf0784c6916f7825",
            "type": "ADD_SNIPPET",
            "codeSnippet": "var langFlag = kony.store.getItem(\"langFlagSettingObj\");\n  if(langFlag){\n    var langSelected = kony.store.getItem(\"langPrefObj\");\n    if(langSelected === \"en\"){\n      onClickEnglish();\n    }\n    else{\n      onClickArabic();\n    }\n    frmLoginKA.show();\n  }\n  else{\n    frmLanguageChange.show();\n  }\n",
            "parentId": null,
            "callbackType": null
        }]
    }
}