{
    "AS_FlexContainer_e7ca6d55b20948f1b01838312e8f1ff4": {
        "id": "AS_FlexContainer_e7ca6d55b20948f1b01838312e8f1ff4",
        "type": "ACTION_SEQUENCE",
        "params": [{
            "datatype": "collection",
            "name": "eventobject"
        }],
        "contextObj": {
            "name": "frmJoMoPayConfirmation",
            "type": "forms",
            "platform": "",
            "KUID": "d9e9a2bc27fc446d95ef70dfedcdf330"
        },
        "language": "js",
        "actions": [{
            "id": "ADD_SNIPPET__cf50bc754ad04647a84648aea64e7570",
            "type": "ADD_SNIPPET",
            "codeSnippet": "frmJoMoPay.show();",
            "parentId": null,
            "callbackType": null
        }]
    }
}