{
    "AS_FlexContainer_b6fad236d7db4ab892f17f99526cf691": {
        "id": "AS_FlexContainer_b6fad236d7db4ab892f17f99526cf691",
        "type": "ACTION_SEQUENCE",
        "params": [{
            "datatype": "collection",
            "name": "eventobject"
        }],
        "language": "js",
        "actions": [{
            "id": "NAVIGATE_TO_FORM__ide_onClick_f883d7772b14427a844ae0a5ee697d8f",
            "type": "NAVIGATE_TO_FORM",
            "formId": "frmMoreLandingKA",
            "formKUID": "f90cf53e47ae407c83e2e30720fff3da",
            "mappings": {},
            "mappingsOrder": [],
            "parentId": "",
            "callbackType": null,
            "enableMappingEditor": true,
            "disabled": true,
            "package": "",
            "navigationObj": "{\n    \"_meta_\": {\n        \"eventName\": \"onClick\",\n        \"widgetId\": \"CopyFlxMore0adf9f77e6bee47\"\n    }\n}",
            "isCustomInput": false
        }, {
            "id": "ADD_SNIPPET_ide_onClick_f7b35a009ff74e05b5488ed86859efb5",
            "type": "ADD_SNIPPET",
            "codeSnippet": "frmJoMoPayRegistration.show();",
            "callbackType": null
        }]
    }
}