{
    "AS_FlexContainer_f0b20799ce3749ada7c93dc1d6e51c50": {
        "id": "AS_FlexContainer_f0b20799ce3749ada7c93dc1d6e51c50",
        "type": "ACTION_SEQUENCE",
        "params": [{
            "datatype": "collection",
            "name": "eventobject"
        }],
        "language": "js",
        "actions": [{
            "id": "ADD_SNIPPET_ide_onClick_ab34760ff9314d828eb952375756c5f2",
            "type": "ADD_SNIPPET",
            "codeSnippet": "kony.print(\"Removed\");",
            "callbackType": null
        }]
    }
}