{
    "AS_FlexContainer_ec48bfba94c64fc6bb16f30c6919079a": {
        "id": "AS_FlexContainer_ec48bfba94c64fc6bb16f30c6919079a",
        "type": "ACTION_SEQUENCE",
        "params": [{
            "datatype": "collection",
            "name": "eventobject"
        }],
        "contextObj": {
            "name": "frmAddNewPrePayeeKA",
            "type": "forms",
            "platform": null,
            "KUID": "a843292d9c674ff7ba10a9b594b7e7e5"
        },
        "language": "js",
        "actions": [{
            "id": "ADD_SNIPPET_ide_onClick_bdece3f895d44d66840bebcbea4e16fb",
            "type": "ADD_SNIPPET",
            "codeSnippet": "frmAddNewPrePayeeKA.flxConfirmPopUp.isVisible = false;\nfrmAddNewPrePayeeKA.flxFormMain.isVisible = true;",
            "callbackType": null
        }]
    }
}