{
    "AS_Form_i1337e43920841539f5574488c8b73cc": {
        "id": "AS_Form_i1337e43920841539f5574488c8b73cc",
        "type": "ACTION_SEQUENCE",
        "params": [{
            "datatype": "collection",
            "name": "eventobject"
        }],
        "contextObj": {
            "name": "frmSplash",
            "type": "forms",
            "platform": "",
            "KUID": "db67a9fe92674e5e9f19aa5b50fa0e6f"
        },
        "language": "js",
        "actions": [{
            "id": "ADD_SNIPPET__fcb34fca211a451fb5568c5e7813c023",
            "type": "ADD_SNIPPET",
            "codeSnippet": "var langFlag = kony.store.getItem(\"langFlagSettingObj\");\nif(langFlag){\n  var langSelected = kony.store.getItem(\"langPrefObj\");\n  //alert(\"langSelected::\"+langSelected);\n  if(langSelected === \"en\"){\n    onClickEnglish();\n  }\n  else{\n    onClickArabic();\n  }\n  frmLoginKA.show();\n}\nelse{\n  frmLanguageChange.show();\n}",
            "parentId": null,
            "callbackType": null
        }]
    }
}