{
    "AS_Form_hcc65249f6694e5d8cee438e41075bb3": {
        "id": "AS_Form_hcc65249f6694e5d8cee438e41075bb3",
        "type": "ACTION_SEQUENCE",
        "params": [{
            "datatype": "collection",
            "name": "eventobject"
        }],
        "contextObj": {
            "name": "frmInformationKA",
            "type": "forms",
            "platform": null,
            "KUID": "f18169832ba24ba09c8780278abfc207"
        },
        "language": "js",
        "actions": [{
            "id": "ADD_SNIPPET_ide_preShow_b1cd95379cfb44778d6b975db1a9a9a6",
            "type": "ADD_SNIPPET",
            "codeSnippet": "//getAllQuestions();",
            "callbackType": null
        }]
    }
}