{
    "AS_FlexContainer_c55ace37fb2244ea9d4e1dfa203295ef": {
        "id": "AS_FlexContainer_c55ace37fb2244ea9d4e1dfa203295ef",
        "type": "ACTION_SEQUENCE",
        "params": [{
            "datatype": "collection",
            "name": "eventobject"
        }],
        "language": "js",
        "actions": [{
            "id": "ADD_SNIPPET_ide_onClick_iba803a417be4628b1109cb4edf287e5",
            "type": "ADD_SNIPPET",
            "codeSnippet": "frmUserSettingsSiri.show();",
            "callbackType": null
        }]
    }
}