{
    "AS_FlexContainer_gc27fc186a9341cc8fff454eedbc81ff": {
        "id": "AS_FlexContainer_gc27fc186a9341cc8fff454eedbc81ff",
        "type": "ACTION_SEQUENCE",
        "params": [{
            "datatype": "collection",
            "name": "eventobject"
        }],
        "language": "js",
        "actions": [{
            "id": "ADD_SNIPPET_ide_onClick_c553b8c896524e02a083b70c0332a774",
            "type": "ADD_SNIPPET",
            "codeSnippet": "kony.print(\"Do nothing\");",
            "callbackType": null
        }]
    }
}