{
    "AS_FlexContainer_d3e60e5b0014440d8e41bc209e6dbb88": {
        "id": "AS_FlexContainer_d3e60e5b0014440d8e41bc209e6dbb88",
        "type": "ACTION_SEQUENCE",
        "params": [{
            "datatype": "collection",
            "name": "eventobject"
        }],
        "language": "js",
        "actions": [{
            "id": "ADD_SNIPPET_ide_onClick_b44c02cab5bc4962ab3cffa684fe11cd",
            "type": "ADD_SNIPPET",
            "codeSnippet": "kony.print(\"diffFlowFlag :: \"+ diffFlowFlag);\nif(diffFlowFlag == \"LOGINFLOW\"){\nfrmAuthorizationAlternatives.show();\n}else{\nfrmSettingsKA.show();\n}",
            "callbackType": null
        }]
    }
}