{
    "AS_FlexContainer_ca1ba2d5b699469491548abef66645bc": {
        "id": "AS_FlexContainer_ca1ba2d5b699469491548abef66645bc",
        "type": "ACTION_SEQUENCE",
        "params": [{
            "datatype": "collection",
            "name": "eventobject"
        }],
        "contextObj": {
            "type": "forms",
            "platform": "",
            "KUID": "e1a74e2010674478ae32526db3e182de"
        },
        "language": "js",
        "actions": [{
            "id": "ADD_SNIPPET__f8507775b62c464099b57f9fb4efa9fb",
            "type": "ADD_SNIPPET",
            "codeSnippet": "if(frmSelectProductKA.imgCollapsed3.src==\"collapsed.png\")\n  {\n    frmSelectProductKA.imgCollapsed3.src=\"expanded.png\";\n    frmSelectProductKA.segCreditCard.isVisible=true;\n  }\nelse\n  {\n    frmSelectProductKA.imgCollapsed3.src=\"collapsed.png\";\n    frmSelectProductKA.segCreditCard.isVisible=false;\n  }",
            "parentId": null,
            "callbackType": null
        }]
    }
}