{
    "AS_Form_e5e3ff6ad3c3497186c8c9823010ca95": {
        "id": "AS_Form_e5e3ff6ad3c3497186c8c9823010ca95",
        "type": "ACTION_SEQUENCE",
        "params": [{
            "datatype": "collection",
            "name": "eventobject"
        }],
        "contextObj": {
            "type": "forms",
            "platform": "",
            "KUID": "b8fdfc611bf8474789006789a4019467"
        },
        "language": "js",
        "actions": [{
            "id": "ADD_SNIPPET__bb5d942ca6e44ecba7274c9d4cbb84a8",
            "type": "ADD_SNIPPET",
            "codeSnippet": "moreLandingPreShow();",
            "parentId": null,
            "callbackType": null
        }]
    }
}