{
    "AS_Form_j7820e0aa76443d08e41530a7eb09e9f": {
        "id": "AS_Form_j7820e0aa76443d08e41530a7eb09e9f",
        "type": "ACTION_SEQUENCE",
        "params": [{
            "datatype": "collection",
            "name": "eventobject"
        }],
        "contextObj": {
            "name": "frmBotSplash",
            "type": "forms",
            "platform": "",
            "KUID": "b709c916ca0149c09c824924cf74e081"
        },
        "language": "js",
        "actions": [{
            "id": "ADD_SNIPPET__e662e44105434a7d99da5c0f5cbaf511",
            "type": "ADD_SNIPPET",
            "codeSnippet": "kony.print(\"Device Back\");",
            "parentId": null,
            "callbackType": null
        }]
    }
}