{
    "AS_Form_b485970771e443fb961069c7f555e880": {
        "id": "AS_Form_b485970771e443fb961069c7f555e880",
        "type": "ACTION_SEQUENCE",
        "params": [{
            "datatype": "collection",
            "name": "eventobject"
        }],
        "contextObj": {
            "type": "forms",
            "platform": "",
            "KUID": "he1d62b4711f4c5abdcb97f4fa0c8653"
        },
        "language": "js",
        "actions": [{
            "id": "ADD_SNIPPET__a805449cde9e493997c5bc5edb442795",
            "type": "ADD_SNIPPET",
            "codeSnippet": "var vc = new kony.rb.frmContactListphnViewController();\nvc.contactsListPreshow();",
            "parentId": null,
            "callbackType": null
        }]
    }
}