{
    "AS_FlexContainer_f3e1a93c11734c51af8ab41a6d8ef57d": {
        "id": "AS_FlexContainer_f3e1a93c11734c51af8ab41a6d8ef57d",
        "type": "ACTION_SEQUENCE",
        "params": [{
            "datatype": "collection",
            "name": "eventobject"
        }, {
            "datatype": "string",
            "name": "x"
        }, {
            "datatype": "string",
            "name": "y"
        }],
        "contextObj": {
            "name": "frmCardsAddNickname",
            "type": "forms",
            "platform": null,
            "KUID": "d382c627ba0b45cfb446cc6dd8d8759e"
        },
        "language": "js",
        "actions": [{
            "id": "ADD_SNIPPET_ide_onTouchStart_i424d50406cc43598a6879c31bcc66cf",
            "type": "ADD_SNIPPET",
            "codeSnippet": "kony.print(\"Do nothing\");",
            "callbackType": null
        }]
    }
}