{
    "AS_FlexContainer_c69a0702931f44f4928936f903a24de0": {
        "id": "AS_FlexContainer_c69a0702931f44f4928936f903a24de0",
        "type": "ACTION_SEQUENCE",
        "params": [{
            "datatype": "collection",
            "name": "eventobject"
        }],
        "contextObj": {
            "name": "frmLocationDetailsKA",
            "type": "forms",
            "platform": "",
            "KUID": "e7de264a6af64c4987f127a82acb7800"
        },
        "language": "js",
        "actions": [{
            "id": "ADD_SNIPPET__ba120e7582c741ae989d24f8147dcf1c",
            "type": "ADD_SNIPPET",
            "codeSnippet": "frmLocatorKA.show();",
            "parentId": null,
            "callbackType": null
        }]
    }
}