{
    "AS_Form_hd17e154e6c14ed38742899a15ea9a11": {
        "id": "AS_Form_hd17e154e6c14ed38742899a15ea9a11",
        "type": "ACTION_SEQUENCE",
        "params": [{
            "datatype": "collection",
            "name": "eventobject"
        }],
        "contextObj": {
            "name": "frmLanguageChange",
            "type": "forms",
            "platform": "",
            "KUID": "gf87c4f80b864112b53423e6a7ad3af8"
        },
        "language": "js",
        "actions": [{
            "id": "ADD_SNIPPET__c42f353c0d724a878326b00029bfebbb",
            "type": "ADD_SNIPPET",
            "codeSnippet": "//",
            "parentId": null,
            "callbackType": null
        }]
    }
}