{
    "AS_Form_9f12684c384847c0abef6cec76fe0ee6": {
        "id": "AS_Form_9f12684c384847c0abef6cec76fe0ee6",
        "type": "ACTION_SEQUENCE",
        "params": [{
            "datatype": "collection",
            "name": "eventobject"
        }],
        "contextObj": {
            "name": "frmCheckReOrderSuccessKA",
            "type": "forms",
            "platform": null,
            "KUID": "22b28d7635d7466aa4ef41724e78c767"
        },
        "language": "js",
        "actions": [{
            "id": "ADD_SNIPPET_ide_onDeviceBack_a0fbdced357947b79ceba490e540da19",
            "type": "ADD_SNIPPET",
            "codeSnippet": "kony.print(\"Device Back\");",
            "callbackType": null
        }]
    }
}