{
    "AS_FlexContainer_951caf7b7a2a41dbb274ebadc7dcb867": {
        "id": "AS_FlexContainer_951caf7b7a2a41dbb274ebadc7dcb867",
        "type": "ACTION_SEQUENCE",
        "params": [{
            "datatype": "collection",
            "name": "eventobject"
        }],
        "contextObj": {
            "name": "tabBarTransfer",
            "type": "templates",
            "platform": "",
            "KUID": "4d0f72044b934b539f6f3d0409a878b0"
        },
        "language": "js",
        "actions": [{
            "id": "ADD_SNIPPET__3e4eb8f75eda44a988a68e7f7550a471",
            "type": "ADD_SNIPPET",
            "codeSnippet": "gblfrmName = \"\";\ngotoDeposits();",
            "parentId": null,
            "callbackType": null
        }]
    }
}