{
    "AS_FlexContainer_f9537ff4dd42401f9abed86eeb444637": {
        "id": "AS_FlexContainer_f9537ff4dd42401f9abed86eeb444637",
        "type": "ACTION_SEQUENCE",
        "params": [{
            "datatype": "collection",
            "name": "eventobject"
        }],
        "language": "js",
        "actions": [{
            "id": "ADD_SNIPPET_ide_onClick_a4b7b20da41c4f4fa53058e970a471f4",
            "type": "ADD_SNIPPET",
            "codeSnippet": "customAlertPopup(geti18Value(\"i18n.cards.Confirmation\"), \n                 geti18Value(\"i18n.transfers.eraseAllAlert\"),\n                 userResponseESP, onClickNoBackESP, \n                 geti18Value(\"i18n.common.YES\"),\n                 geti18Value(\"i18n.common.NO\"));\n\nfunction userResponseESP(){\n//   removeDatafrmTransfersformEPS();\n  ResetFormIPSData();\n  popupCommonAlertDimiss();\n  frmPaymentDashboard.show();\n  \n}\nfunction onClickNoBackESP(){\n  popupCommonAlertDimiss();\n}",
            "callbackType": null
        }]
    }
}