{
    "AS_FlexContainer_h4fb5b9666e44307bd7a4d25a7a3eb69": {
        "id": "AS_FlexContainer_h4fb5b9666e44307bd7a4d25a7a3eb69",
        "type": "ACTION_SEQUENCE",
        "params": [{
            "datatype": "collection",
            "name": "eventobject"
        }],
        "contextObj": {
            "name": "frmUserSettingsPinLoginKA",
            "type": "forms",
            "platform": null,
            "KUID": "d6efcea46d734da8bf7a8f21578e100d"
        },
        "language": "js",
        "actions": [{
            "id": "ADD_SNIPPET_ide_onClick_if7462c3048c48209928087b341a1834",
            "type": "ADD_SNIPPET",
            "codeSnippet": "kony.print(\"Do nothing\");",
            "callbackType": null
        }]
    }
}