{
    "AS_FlexContainer_b32c6059d6014401bd57f020787d3968": {
        "id": "AS_FlexContainer_b32c6059d6014401bd57f020787d3968",
        "type": "ACTION_SEQUENCE",
        "name": "AS_FlextoYearReqStmnttShowList",
        "params": [{
            "datatype": "collection",
            "name": "eventobject"
        }],
        "language": "js",
        "actions": [{
            "id": "ADD_SNIPPET_ide_onClick_aca0d70b5db44fb29fa5790008e08670",
            "type": "ADD_SNIPPET",
            "codeSnippet": "if(frmRequestStatementAccounts.lblYearFromValue.text != geti18Value(\"i18n.filtertransaction.year\")){\ngblsubacclist=\"toYear\";\nfrmAccountType.show();\n}else{\n   frmRequestStatementAccounts.lblLineFY.skin = \"sknFlxOrangeLine\";\n}",
            "callbackType": null
        }]
    }
}