{
    "AS_Form_j3cba81964c240f488bc696ef36f721d": {
        "id": "AS_Form_j3cba81964c240f488bc696ef36f721d",
        "type": "ACTION_SEQUENCE",
        "name": "AS_FilterSIPreShow",
        "params": [{
            "datatype": "collection",
            "name": "eventobject"
        }],
        "contextObj": {
            "name": "frmFilterSI",
            "type": "forms",
            "platform": null,
            "KUID": "ic4b1b46f1f740f3aa18d23b3648b743"
        },
        "language": "js",
        "actions": [{
            "id": "ADD_SNIPPET_ide_preShow_c0dc185ddfe74ce6967b2dd4a01b6a39",
            "type": "ADD_SNIPPET",
            "codeSnippet": "frmFilterSI.txtAmountRangeFrom.text = \"\";\nfrmFilterSI.txtAmountRangeTo.text = \"\";\nfrmFilterSI.flxAmountMinLine.skin = \"sknFlxGreyLine\";\nfrmFilterSI.flxAmountMaxLine.skin = \"sknFlxGreyLine\";",
            "callbackType": null,
            "disabled": false
        }]
    }
}