{
    "AS_FlexScrollContainer_haac3f1cb0514b73a22dc2a0352aac62": {
        "id": "AS_FlexScrollContainer_haac3f1cb0514b73a22dc2a0352aac62",
        "type": "ACTION_SEQUENCE",
        "params": [{
            "datatype": "collection",
            "name": "eventobject"
        }],
        "language": "js",
        "actions": [{
            "id": "ADD_SNIPPET_ide_onScrollEnd_h62aeb6c52274faf992d9a22bcd1adf8",
            "type": "ADD_SNIPPET",
            "codeSnippet": "innerDoneScrolling();",
            "callbackType": null
        }]
    }
}