{
    "AS_FlexContainer_ffa21b4811764a1db90fbc53fc3012fa": {
        "id": "AS_FlexContainer_ffa21b4811764a1db90fbc53fc3012fa",
        "type": "ACTION_SEQUENCE",
        "params": [{
            "datatype": "collection",
            "name": "eventobject"
        }],
        "language": "js",
        "actions": [{
            "id": "ADD_SNIPPET_ide_onClick_e9626e1d620f4a699e478b66c363b9da",
            "type": "ADD_SNIPPET",
            "codeSnippet": "kony.boj.callService(\"GetEfwBillerCategory\");",
            "callbackType": null
        }]
    }
}