{
    "AS_FlexContainer_b61193b754714114b3a95c7b7effb557": {
        "id": "AS_FlexContainer_b61193b754714114b3a95c7b7effb557",
        "type": "ACTION_SEQUENCE",
        "params": [{
            "datatype": "collection",
            "name": "eventobject"
        }],
        "language": "js",
        "actions": [{
            "id": "INVOKE_FUNCTION__ide_onClick_de70431a652f4b04a518028f9928574c",
            "type": "INVOKE_FUNCTION",
            "sequenceKUID": "accountInfoSorting",
            "display": "accountInfoSorting",
            "inputparams": [{
                "name": "widget",
                "value": "frmAccountDetailKA.imgSortAmountDesc"
            }, {
                "name": "sortby",
                "value": "\"Amount\""
            }, {
                "name": "type",
                "value": "\"descending\""
            }],
            "callbackType": null,
            "disabled": null,
            "source": "module"
        }]
    }
}