{
    "AS_FlexContainer_dc39a67e81024e4daf25ad9a95043fb3": {
        "id": "AS_FlexContainer_dc39a67e81024e4daf25ad9a95043fb3",
        "type": "ACTION_SEQUENCE",
        "name": "AS_FlexContainer_OnClickNextEPSScreen",
        "params": [{
            "datatype": "collection",
            "name": "eventobject"
        }],
        "language": "js",
        "actions": [{
            "id": "ADD_SNIPPET_ide_onClick_c2f85ecaf083406599c6ad3701c51e1b",
            "type": "ADD_SNIPPET",
            "codeSnippet": "if(frmEPS.lblNext.skin === \"sknLblNextEnabled\"){\n  if(validate_SufficientBalance()){\n    kony.sdk.mvvm.KonyApplicationContext.showLoadingScreen(\"\");\n    SetupConfirmationScreen();\n  //   GetAliasInfo();\n    frmEPS.flxMain.setVisibility(false);\n    frmEPS.flxConfirmEPS.setVisibility(true);\n    kony.sdk.mvvm.KonyApplicationContext.dismissLoadingScreen();\n  }else{\n  \tcustomAlertPopup(geti18Value(\"i18n.maps.Info\"), geti18Value(\"i18n.error.InsufficientFundInAccount\"), popupCommonAlertDimiss, \"\");\n  }\n}else{\n  customAlertPopup(geti18Value(\"i18n.maps.Info\"), geti18Value(\"i18n.jomopay.fillDetails\"), popupCommonAlertDimiss, \"\");\n}",
            "callbackType": null
        }]
    }
}