{
    "AS_FlexContainer_a184579df15240ddbeaf7066f713277c": {
        "id": "AS_FlexContainer_a184579df15240ddbeaf7066f713277c",
        "type": "ACTION_SEQUENCE",
        "name": "AS_FlexContainer_OnClickBaneNameIPS",
        "params": [{
            "datatype": "collection",
            "name": "eventobject"
        }],
        "language": "js",
        "actions": [{
            "id": "ADD_SNIPPET_ide_onClick_b0c0b8c8b270401b92154da569db11ce",
            "type": "ADD_SNIPPET",
            "codeSnippet": "gblWorkflowType = \"IPS\";\n// returnBankBranchs(\"BankDetail\", \"lblBankName\");\nkony.boj.showSelectedDetailsFromBene(\"BankDetail\", \"lblBankName\");\nvalidateLblNext();\n// gblWorkflowType = \"\";",
            "callbackType": null
        }]
    }
}