{
    "AS_Form_a94e31da69ba4554891a05623ee21254": {
        "id": "AS_Form_a94e31da69ba4554891a05623ee21254",
        "type": "ACTION_SEQUENCE",
        "params": [{
            "datatype": "collection",
            "name": "eventobject"
        }],
        "contextObj": {
            "name": "frmSuccessFormQRCodeKA",
            "type": "forms",
            "platform": null,
            "KUID": "d6f3d048692b49788935ba02ba184557"
        },
        "language": "js",
        "actions": [{
            "id": "ADD_SNIPPET__f26c95ac50574133bbcc6b918c3a077e",
            "type": "ADD_SNIPPET",
            "codeSnippet": "var vc=new kony.rb.frmSuccessFormQRCodeKAViewController();\nvc.successIconAnimation();\nvc.frmSuccessFormQRCodeKApostshow();",
            "parentId": null,
            "callbackType": null
        }]
    }
}