{
    "AS_Button_ebc03f2fa5394330934b79496d929133": {
        "id": "AS_Button_ebc03f2fa5394330934b79496d929133",
        "type": "ACTION_SEQUENCE",
        "name": "AS_frmNewBillDetailsonClickRadioCards",
        "params": [{
            "datatype": "collection",
            "name": "eventobject"
        }],
        "language": "js",
        "actions": [{
            "id": "ADD_SNIPPET_ide_onClick_b26802fc86d148c3be6a639fad0a304a",
            "type": "ADD_SNIPPET",
            "codeSnippet": "onChangingradioBtn(frmNewBillDetails.btnBillsPayCards,frmNewBillDetails.lblBillsPayCards.text);\nnextFromNewDetailsScreen();",
            "callbackType": null
        }]
    }
}