{
    "AS_FlexContainer_f13b746cb56a4a9d91b92b9fdd6dd1e6": {
        "id": "AS_FlexContainer_f13b746cb56a4a9d91b92b9fdd6dd1e6",
        "type": "ACTION_SEQUENCE",
        "params": [{
            "datatype": "collection",
            "name": "eventobject"
        }],
        "contextObj": {
            "type": "forms",
            "platform": "",
            "KUID": "e1a74e2010674478ae32526db3e182de"
        },
        "language": "js",
        "actions": [{
            "id": "ADD_SNIPPET__h50906433d1a414b9a41971a1c28fa15",
            "type": "ADD_SNIPPET",
            "codeSnippet": "if(frmSelectProductKA.imgCollapsed5.src==\"collapsed.png\")\n  {\n    frmSelectProductKA.imgCollapsed5.src=\"expanded.png\";\n    frmSelectProductKA.segMortageAccount.isVisible=true;\n  }\nelse\n  {\n    frmSelectProductKA.imgCollapsed5.src=\"collapsed.png\";\n    frmSelectProductKA.segMortageAccount.isVisible=false;\n  }",
            "parentId": null,
            "callbackType": null
        }]
    }
}