{
    "AS_FlexContainer_bac9f3d8891a45358c02292c1479493c": {
        "id": "AS_FlexContainer_bac9f3d8891a45358c02292c1479493c",
        "type": "ACTION_SEQUENCE",
        "params": [{
            "datatype": "collection",
            "name": "eventobject"
        }],
        "contextObj": {
            "type": "forms",
            "platform": "",
            "KUID": "a7e7b33553484e9c83559a91d27212e3"
        },
        "language": "js",
        "actions": [{
            "id": "ADD_SNIPPET__h1f8846f974f4037aea41dc86b88e03b",
            "type": "ADD_SNIPPET",
            "codeSnippet": "kony.print(\"deleted\");",
            "parentId": null,
            "callbackType": null
        }]
    }
}