{
    "AS_FlexContainer_cae25eee82c344a3ac5e2c4cb4627302": {
        "id": "AS_FlexContainer_cae25eee82c344a3ac5e2c4cb4627302",
        "type": "ACTION_SEQUENCE",
        "params": [{
            "datatype": "collection",
            "name": "eventobject"
        }],
        "language": "js",
        "actions": [{
            "id": "ADD_SNIPPET_ide_onClick_a361b828ebdc4f50841b40d794581ec7",
            "type": "ADD_SNIPPET",
            "codeSnippet": "frmEPS.flxMain.setVisibility(true);\nfrmEPS.flxConfirmEPS.setVisibility(false);",
            "callbackType": null
        }]
    }
}