{
    "AS_FlexContainer_id83115d408343a696438ca7bf481617": {
        "id": "AS_FlexContainer_id83115d408343a696438ca7bf481617",
        "type": "ACTION_SEQUENCE",
        "params": [{
            "datatype": "collection",
            "name": "eventobject"
        }],
        "contextObj": {
            "name": "frmCardsAddNickname",
            "type": "forms",
            "platform": null,
            "KUID": "d382c627ba0b45cfb446cc6dd8d8759e"
        },
        "language": "js",
        "actions": [{
            "id": "ADD_SNIPPET_ide_onClick_e5717f36a29548e491b4130280c82ecf",
            "type": "ADD_SNIPPET",
            "codeSnippet": "frmEditAccountSettings.flxAccountTransferSwitchOff.isVisible = true;\nfrmEditAccountSettings.flxAccountTransferSwitchOn.isVisible = false;",
            "callbackType": null
        }]
    }
}