{
    "AS_FlexContainer_74db070877754fa09abfd4d35d725fd0": {
        "id": "AS_FlexContainer_74db070877754fa09abfd4d35d725fd0",
        "type": "ACTION_SEQUENCE",
        "params": [{
            "datatype": "collection",
            "name": "eventobject"
        }],
        "contextObj": {
            "type": "forms",
            "platform": "",
            "KUID": "ac09c32a534449b3b0961f8e48e26015"
        },
        "language": "js",
        "actions": [{
            "id": "ADD_SNIPPET__5cc5a988b74740bebd5e482015519326",
            "type": "ADD_SNIPPET",
            "codeSnippet": "dateRangeOnClick(4);",
            "parentId": null,
            "callbackType": null
        }]
    }
}