{
    "AS_FlexContainer_d7efbb940b094c7da970be41f1d10215": {
        "id": "AS_FlexContainer_d7efbb940b094c7da970be41f1d10215",
        "type": "ACTION_SEQUENCE",
        "name": "AS_FlexContainer_CardlessTransactionOnClickAccounts",
        "params": [{
            "datatype": "collection",
            "name": "eventobject"
        }],
        "language": "js",
        "actions": [{
            "id": "ADD_SNIPPET_ide_onClick_g40b0c4309eb46ae92e27da6356b3d00",
            "type": "ADD_SNIPPET",
            "codeSnippet": "frmAccountDetailsScreen.lblHead.text = \"Accounts\";\ngblTModule = \"CardLessTransaction\";\ngotoAccountDetailsScreen(1);",
            "callbackType": null
        }]
    }
}