{
    "AS_FlexContainer_a4e66211c3394398820df01ef28c63d4": {
        "id": "AS_FlexContainer_a4e66211c3394398820df01ef28c63d4",
        "type": "ACTION_SEQUENCE",
        "params": [{
            "datatype": "collection",
            "name": "eventobject"
        }],
        "language": "js",
        "actions": [{
            "id": "INVOKE_FUNCTION__ide_onClick_f5d2ce12983741f7b7b02ff69bd8d993",
            "type": "INVOKE_FUNCTION",
            "sequenceKUID": "accountInfoSorting",
            "display": "accountInfoSorting",
            "inputparams": [{
                "name": "widget"
            }, {
                "name": "sortby"
            }, {
                "name": "type"
            }],
            "callbackType": null,
            "disabled": null,
            "source": "module"
        }]
    }
}