{
    "AS_FlexContainer_b18dbc6033774b01813af22a414b465b": {
        "id": "AS_FlexContainer_b18dbc6033774b01813af22a414b465b",
        "type": "ACTION_SEQUENCE",
        "name": "AS_gblsubacclistAccFromDateStatement",
        "params": [{
            "datatype": "collection",
            "name": "eventobject"
        }],
        "language": "js",
        "actions": [{
            "id": "ADD_SNIPPET_ide_onClick_h461c5da8b75469889284f338c4b8e31",
            "type": "ADD_SNIPPET",
            "codeSnippet": "gblsubacclist=\"AccFromDateStatement\";\nfrmAccountType.show();",
            "callbackType": null
        }]
    }
}