{
    "AS_Image_eedbf7e4ba5f463a99084d187ece80f2": {
        "id": "AS_Image_eedbf7e4ba5f463a99084d187ece80f2",
        "type": "ACTION_SEQUENCE",
        "params": [{
            "datatype": "collection",
            "name": "eventobject"
        }, {
            "datatype": "string",
            "name": "imagesrc"
        }, {
            "datatype": "boolean",
            "name": "issuccess"
        }],
        "contextObj": {
            "name": "frmAccountsLandingKA",
            "type": "forms",
            "platform": "",
            "KUID": "d62a2a0906c64d2281addc95893a6544"
        },
        "language": "js",
        "actions": [{
            "id": "ADD_SNIPPET__ia42c9aa890949ddae9019967b44e270",
            "type": "ADD_SNIPPET",
            "codeSnippet": "accountsLandingVC.onDownloadComplete(issuccess);",
            "parentId": null,
            "callbackType": null
        }]
    }
}