{
    "AS_Label_j628ac8ecbbc45c2a442846952c2547a": {
        "id": "AS_Label_j628ac8ecbbc45c2a442846952c2547a",
        "type": "ACTION_SEQUENCE",
        "params": [{
            "datatype": "collection",
            "name": "eventobject"
        }, {
            "datatype": "string",
            "name": "x"
        }, {
            "datatype": "string",
            "name": "y"
        }],
        "language": "js",
        "actions": [{
            "id": "NAMED_ACTION___ide_onTouchEnd_ef31f023b2ad42f8a2995a357c4d5c85",
            "type": "NAMED_ACTION",
            "sequenceKUID": "AS_Button_bcc85b20219b45e8be7e1a01dbe48752",
            "display": "TouchLoginClick",
            "inputparams": [{
                "datatype": "collection",
                "name": "eventobject"
            }],
            "callbackType": null,
            "disabled": null,
            "isMasterInstanceAction": null
        }]
    }
}