{
    "AS_Label_f52791aebcb949f590e0805cd9bb0a52": {
        "id": "AS_Label_f52791aebcb949f590e0805cd9bb0a52",
        "type": "ACTION_SEQUENCE",
        "params": [{
            "datatype": "collection",
            "name": "eventobject"
        }, {
            "datatype": "string",
            "name": "x"
        }, {
            "datatype": "string",
            "name": "y"
        }],
        "language": "js",
        "actions": [{
            "id": "ADD_SNIPPET_ide_onTouchStart_c6d93d25f9624819a1809f5a4e3dcff9",
            "type": "ADD_SNIPPET",
            "codeSnippet": "callSetQucikAccessList();\n//accountDashboardDataCall();",
            "callbackType": null
        }]
    }
}