{
    "AS_ListBox_31a438e73bd346b79a3e2ffd54793a7c": {
        "id": "AS_ListBox_31a438e73bd346b79a3e2ffd54793a7c",
        "type": "ACTION_SEQUENCE",
        "params": [{
            "datatype": "collection",
            "name": "eventobject"
        }],
        "language": "js",
        "actions": [{
            "id": "ADD_SNIPPET_ide_onSelection_828ea9b1c9f848a2a8295e22bf8215c6",
            "type": "ADD_SNIPPET",
            "codeSnippet": "validateNewMessage();",
            "callbackType": null
        }]
    }
}