{
    "AS_Label_h4266fb6dc3d444dab4c3d29efbd4dde": {
        "id": "AS_Label_h4266fb6dc3d444dab4c3d29efbd4dde",
        "type": "ACTION_SEQUENCE",
        "params": [{
            "datatype": "collection",
            "name": "eventobject"
        }, {
            "datatype": "string",
            "name": "x"
        }, {
            "datatype": "string",
            "name": "y"
        }],
        "contextObj": {
            "name": "frmAccountDetailKA",
            "type": "forms",
            "platform": "",
            "KUID": "5ed703cad63c441882fc4a36f5ea0c28"
        },
        "language": "js",
        "actions": [{
            "id": "ADD_SNIPPET__d6c6f628f225475595658c2c494f5fff",
            "type": "ADD_SNIPPET",
            "codeSnippet": "frmAccountDetailKA.accountDetailsScrollContainer.setVisibility(false);\nfrmAccountDetailKA.flxDealsScreen.setVisibility(false);\nfrmAccountDetailKA.flxLoansScreen.setVisibility(true);\nfrmAccountDetailKA.flxLoansScreen.left=\"0%\";",
            "parentId": null,
            "callbackType": null
        }]
    }
}