{
    "AS_Label_j85bff53082b4bd5b77b68db6e7fc7e0": {
        "id": "AS_Label_j85bff53082b4bd5b77b68db6e7fc7e0",
        "type": "ACTION_SEQUENCE",
        "params": [{
            "datatype": "collection",
            "name": "eventobject"
        }, {
            "datatype": "string",
            "name": "x"
        }, {
            "datatype": "string",
            "name": "y"
        }],
        "language": "js",
        "actions": [{
            "id": "ADD_SNIPPET_ide_onTouchEnd_d77b192c86bf4057a2906a313401f8a2",
            "type": "ADD_SNIPPET",
            "codeSnippet": "backspace(\"tbxUsernameKA\");\nfrmEnrolluserLandingKA.lblClose.setVisibility(false);\nfrmEnrolluserLandingKA.lblNext.skin = \"sknLblNextDisabled\";\nisNextEnabled();",
            "callbackType": null
        }]
    }
}