{
    "AS_ListBox_928451c2fa1140c68e71fe23731ff48d": {
        "id": "AS_ListBox_928451c2fa1140c68e71fe23731ff48d",
        "type": "ACTION_SEQUENCE",
        "params": [{
            "datatype": "collection",
            "name": "eventobject"
        }],
        "contextObj": {
            "type": "forms",
            "platform": "",
            "KUID": "595170e0ad324e3699d120dae6f9e312"
        },
        "language": "js",
        "actions": [{
            "id": "ADD_SNIPPET__219569a943194aec8ec8d0e6a061006c",
            "type": "ADD_SNIPPET",
            "codeSnippet": "kony.print(\"Deleted\");",
            "parentId": null,
            "callbackType": null
        }]
    }
}