{
    "AS_Label_afeefa94cac342979c854345abc52ace": {
        "id": "AS_Label_afeefa94cac342979c854345abc52ace",
        "type": "ACTION_SEQUENCE",
        "name": "AS_Label_onclickAccountNumberReqStmntt",
        "params": [{
            "datatype": "collection",
            "name": "eventobject"
        }, {
            "datatype": "string",
            "name": "x"
        }, {
            "datatype": "string",
            "name": "y"
        }],
        "contextObj": {
            "name": "frmRequestStatementAccounts",
            "type": "forms",
            "platform": "",
            "KUID": "gfecebeb3e284d22b50f99352c826586"
        },
        "language": "js",
        "actions": [{
            "id": "ADD_SNIPPET__ecee209c6b714b66b626691bd33a72b6",
            "type": "ADD_SNIPPET",
            "codeSnippet": "if(gblRequestStatementCrediCards){\n  frmCreditCardNumber.show();\n}else{\ngblsubacclist=\"AccNumberStatement\";\n//frmAccountType.show();\n// var fromAccounts = kony.retailBanking.globalData.accountsDashboardData.accountsData;\ngblTModule=\"AccNumberStatement\";\ngetAllAccounts();\n}",
            "parentId": null,
            "disabled": false
        }]
    }
}