{
    "AS_Label_f60afc5c97b84b23ab5b01c7b5f0c849": {
        "id": "AS_Label_f60afc5c97b84b23ab5b01c7b5f0c849",
        "type": "ACTION_SEQUENCE",
        "name": "AS_Label_CardStatementDownloadPdf",
        "params": [{
            "datatype": "collection",
            "name": "eventobject"
        }, {
            "datatype": "string",
            "name": "x"
        }, {
            "datatype": "string",
            "name": "y"
        }],
        "language": "js",
        "actions": [{
            "id": "ADD_SNIPPET_ide_onTouchEnd_a91195c7b2c74e508d3496226ec63367",
            "type": "ADD_SNIPPET",
            "codeSnippet": "// navigate_StandingInstructions(\"Card Statement\");\nnavigatetoDownloadPDFXSLT();\n//serv_cardStatement({\"Year\":(new Date().getFullYear()).toFixed(),\"Month\":(new Date().getMonth()+1)<10?\"0\"+(new Date().getMonth()+1):new Date().getMonth()+1});",
            "callbackType": null
        }]
    }
}