{
    "AS_Label_ga6b9385ff1340d98a18f45163872d8d": {
        "id": "AS_Label_ga6b9385ff1340d98a18f45163872d8d",
        "type": "ACTION_SEQUENCE",
        "params": [{
            "datatype": "collection",
            "name": "eventobject"
        }, {
            "datatype": "string",
            "name": "x"
        }, {
            "datatype": "string",
            "name": "y"
        }],
        "contextObj": {
            "name": "frmEstatementLandingKA",
            "type": "forms",
            "platform": "",
            "KUID": "d1dcb94f4a054dda97d66cbdc216d96a"
        },
        "language": "js",
        "actions": [{
            "id": "ADD_SNIPPET__ba564edf65af47cf8d8ae63be4a71015",
            "type": "ADD_SNIPPET",
            "codeSnippet": "var currentForm = kony.application.getCurrentForm();\ncurrentForm.txtEmail1.text=\"\";\ncurrentForm.borderBottom1.skin=\"skntextFieldDivider\";\nanimateLabel(\"DOWN\",\"lblEmail1\",currentForm.txtEmail1.text);\ncurrentForm.lblInvalidEmail1.isVisible = false;\nfrmEstatementLandingKA.lblNext.skin = \"sknLblNextDisabled\";",
            "parentId": null,
            "callbackType": null
        }]
    }
}