{
    "AS_Label_fd9eda376e0b4905b82fb5a11cccdb7d": {
        "id": "AS_Label_fd9eda376e0b4905b82fb5a11cccdb7d",
        "type": "ACTION_SEQUENCE",
        "params": [{
            "datatype": "collection",
            "name": "eventobject"
        }, {
            "datatype": "string",
            "name": "x"
        }, {
            "datatype": "string",
            "name": "y"
        }],
        "contextObj": {
            "name": "frmAccountDetailKA",
            "type": "forms",
            "platform": "",
            "KUID": "5ed703cad63c441882fc4a36f5ea0c28"
        },
        "language": "js",
        "actions": [{
            "id": "NAVIGATE_TO_FORM___ec599b4169924bc182767846a4767e36",
            "type": "NAVIGATE_TO_FORM",
            "formId": "frmFilterTransaction",
            "formKUID": "ff5ea79e22414b03ba4cca716d18a58c",
            "mappings": {},
            "mappingsOrder": [],
            "parentId": "",
            "callbackType": null,
            "enableMappingEditor": true,
            "package": "",
            "navigationObj": "{\n    \"_meta_\": {\n        \"eventName\": \"onTouchEnd\",\n        \"widgetId\": \"CopylblLoansFilterIcon0bdce4598dc274d\"\n    }\n}",
            "isCustomInput": false
        }]
    }
}