{
    "AS_Label_d47d329208f742928cf608a4dd3fa563": {
        "id": "AS_Label_d47d329208f742928cf608a4dd3fa563",
        "type": "ACTION_SEQUENCE",
        "params": [{
            "datatype": "collection",
            "name": "eventobject"
        }, {
            "datatype": "string",
            "name": "x"
        }, {
            "datatype": "string",
            "name": "y"
        }],
        "contextObj": {
            "name": "frmAccountDetailKA",
            "type": "forms",
            "platform": "",
            "KUID": "5ed703cad63c441882fc4a36f5ea0c28"
        },
        "language": "js",
        "actions": [{
            "id": "ADD_SNIPPET__e15548e90d8d468ebddaeddc21459805",
            "type": "ADD_SNIPPET",
            "codeSnippet": "frmAccountDetailKA.accountDetailsScrollContainer.setVisibility(false);\nfrmAccountDetailKA.flxDealsScreen.setVisibility(false);\nfrmAccountDetailKA.flxLoansScreen.setVisibility(true);\nfrmAccountDetailKA.flxLoansScreen.left=\"0%\";",
            "parentId": null,
            "callbackType": null
        }]
    }
}