{
    "AS_FlexContainer_d64ab074007848f6abcf6adebb95166f": {
        "id": "AS_FlexContainer_d64ab074007848f6abcf6adebb95166f",
        "type": "ACTION_SEQUENCE",
        "name": "AS_nextFromOTP",
        "params": [{
            "datatype": "collection",
            "name": "eventobject"
        }],
        "contextObj": {
            "name": "frmNewUserOnboardVerificationKA",
            "type": "forms",
            "platform": "",
            "KUID": "ie7b921fac134bd8a8afb16afc085409"
        },
        "language": "js",
        "actions": [{
            "id": "ADD_SNIPPET__b5ab4dcf47f84232aaa80684301baaf8",
            "type": "ADD_SNIPPET",
            "codeSnippet": "gotoOTPVerification();",
            "parentId": null,
            "callbackType": null
        }]
    }
}