{
    "AS_TextField_i4905b1ca56047e4ba00bda6aee542a5": {
        "id": "AS_TextField_i4905b1ca56047e4ba00bda6aee542a5",
        "type": "ACTION_SEQUENCE",
        "name": "AS_onEndEditingEmailAndroid",
        "params": [{
            "datatype": "collection",
            "name": "eventobject"
        }, {
            "datatype": "string",
            "name": "changedtext"
        }],
        "contextObj": {
            "name": "frmAddExternalAccountKA",
            "type": "forms",
            "platform": "",
            "KUID": "4943cca5d62d4f0ca6f2e9ab47274db5"
        },
        "language": "js",
        "actions": [{
            "id": "ADD_SNIPPET_ide_onEndEditing_d15494cd781b4d6db679020d8e923443",
            "type": "ADD_SNIPPET",
            "codeSnippet": "if(frmAddExternalAccountKA.tbxEmail.text !== \"\"){\n  frmAddExternalAccountKA.flxUnderlineEmail.skin = \"sknFlxGreenLine\";\n}else{\n  frmAddExternalAccountKA.flxUnderlineEmail.skin = \"sknFlxOrangeLine\";\n}\n\nanimateLabel(\"DOWN\", \"lblEmail\", frmAddExternalAccountKA.tbxEmail.text);",
            "callbackType": null
        }]
    }
}