{
    "AS_FlexContainer_c88036a4223a46309db68b0dc7f9aa65": {
        "id": "AS_FlexContainer_c88036a4223a46309db68b0dc7f9aa65",
        "type": "ACTION_SEQUENCE",
        "name": "AS_onclickCardsRequestNewPintoScreen",
        "params": [{
            "datatype": "collection",
            "name": "eventobject"
        }],
        "language": "js",
        "actions": [{
            "id": "ADD_SNIPPET_ide_onClick_b295a51eb67946fe951e9c95a8c1a925",
            "type": "ADD_SNIPPET",
            "codeSnippet": "PreCallFrmRequestPinCard();",
            "callbackType": null
        }]
    }
}