{
    "AS_TextField_beae2cc3877a4d759b1db2321a58158e": {
        "id": "AS_TextField_beae2cc3877a4d759b1db2321a58158e",
        "type": "ACTION_SEQUENCE",
        "name": "AS_onTextChangeAddressBankAddBene",
        "params": [{
            "datatype": "collection",
            "name": "eventobject"
        }, {
            "datatype": "string",
            "name": "changedtext"
        }],
        "language": "js",
        "actions": [{
            "id": "ADD_SNIPPET_ide_onTextChange_h822d07e394148839d16520e6dd3bf96",
            "type": "ADD_SNIPPET",
            "codeSnippet": "// if(frmAddExternalAccountKA.tbxAddress2.text !== \"\"){\n//   frmAddExternalAccountKA.flxUnderlineAddress2.skin = \"sknFlxGreenLine\";\n// }else{\n//   frmAddExternalAccountKA.flxUnderlineAddress2.skin = \"sknFlxOrangeLine\";\n// }\nkony.boj.addBeneNextStatus();",
            "callbackType": null
        }]
    }
}