{
    "AS_FlexContainer_eecc5906245b42c2b21f664d28da79bd": {
        "id": "AS_FlexContainer_eecc5906245b42c2b21f664d28da79bd",
        "type": "ACTION_SEQUENCE",
        "name": "AS_onBackfrmBills",
        "params": [{
            "datatype": "collection",
            "name": "eventobject"
        }],
        "contextObj": {
            "name": "frmBills",
            "type": "forms",
            "platform": "",
            "KUID": "ade6df6ecf3c4acba302ea54bc0a2e56"
        },
        "language": "js",
        "actions": [{
            "id": "ADD_SNIPPET__fa2e9bb33dc34bfc8f7b8b4469336de7",
            "type": "ADD_SNIPPET",
            "codeSnippet": "back_NEWBILLSfrmBills();",
            "parentId": null,
            "callbackType": null
        }]
    }
}