{
    "AS_TextField_a5dde8834df14522b55742df90265889": {
        "id": "AS_TextField_a5dde8834df14522b55742df90265889",
        "type": "ACTION_SEQUENCE",
        "name": "AS_onEndEditingBankDetailsAddBeneAndroid",
        "params": [{
            "datatype": "collection",
            "name": "eventobject"
        }, {
            "datatype": "string",
            "name": "changedtext"
        }],
        "language": "js",
        "actions": [{
            "id": "ADD_SNIPPET_ide_onEndEditing_c72ec3a87a5e4e1fa37d22e5e33590a9",
            "type": "ADD_SNIPPET",
            "codeSnippet": "if(frmAddExternalAccountKA.tbxBeneBankDetails.text !== \"\"){\n  frmAddExternalAccountKA.flxUnderlineBankDetails.skin = \"sknFlxGreenLine\";\n}else{\n  frmAddExternalAccountKA.flxUnderlineBankDetails.skin = \"sknFlxOrangeLine\";\n}\n\nanimateLabel(\"DOWN\", \"lblBeneBankDetails\", frmAddExternalAccountKA.tbxBeneBankDetails.text);",
            "callbackType": null
        }]
    }
}