{
    "AS_FlexContainer_b2f17dbd038f4ffa96b2bd102d581fbe": {
        "id": "AS_FlexContainer_b2f17dbd038f4ffa96b2bd102d581fbe",
        "type": "ACTION_SEQUENCE",
        "name": "AS_onSelectCityAddBene",
        "params": [{
            "datatype": "collection",
            "name": "eventobject"
        }],
        "contextObj": {
            "name": "frmAddExternalAccountKA",
            "type": "forms",
            "platform": "",
            "KUID": "4943cca5d62d4f0ca6f2e9ab47274db5"
        },
        "language": "js",
        "actions": [{
            "id": "ADD_SNIPPET__d04c69a8e0714d53be4b7716ad1c4163",
            "type": "ADD_SNIPPET",
            "codeSnippet": "if(kony.boj.addBeneVar.selectedType === \"INT\" && frmAddExternalAccountKA.lblCountryNameKA.text === \"Country\")\n  return;\nif (kony.boj.addBeneVar.selectedType === \"DOM\" || frmAddExternalAccountKA.tbxCountry.text === \"\" || frmAddExternalAccountKA.tbxCountry.text === \"BR\" || frmAddExternalAccountKA.tbxCountry.text === \"CA\") \n  kony.boj.showSelectedDetailsFromBene(\"City\", \"lblCityName\", \"JOR\");\nelse \n  kony.boj.showSelectedDetailsFromBene(\"City\", \"lblCityName\", frmAddExternalAccountKA.tbxCountry.text);",
            "parentId": null,
            "callbackType": null
        }]
    }
}