{
    "AS_TextField_e8b2b12e89f249a28ccf4d1dd44b6623": {
        "id": "AS_TextField_e8b2b12e89f249a28ccf4d1dd44b6623",
        "type": "ACTION_SEQUENCE",
        "name": "AS_ontextDoneOfCalculateFX",
        "params": [{
            "datatype": "collection",
            "name": "eventobject"
        }, {
            "datatype": "string",
            "name": "changedtext"
        }],
        "contextObj": {
            "name": "frmFxRate",
            "type": "forms",
            "platform": "",
            "KUID": "hecd02a154084a89904bda155d565470"
        },
        "language": "js",
        "actions": [{
            "id": "ADD_SNIPPET__febc9c8da42f41088ea198a51c9f9218",
            "type": "ADD_SNIPPET",
            "codeSnippet": "loadDatatoSegCalculateFX(frmFxRate.lblLeftValue.text);",
            "parentId": null,
            "callbackType": null
        }]
    }
}