{
    "AS_Label_b0ec57afef88412b8352a761dd0300fc": {
        "id": "AS_Label_b0ec57afef88412b8352a761dd0300fc",
        "type": "ACTION_SEQUENCE",
        "name": "AS_OntouchEndAccountOptionstoshowSettingsIcon",
        "params": [{
            "datatype": "collection",
            "name": "eventobject"
        }, {
            "datatype": "string",
            "name": "x"
        }, {
            "datatype": "string",
            "name": "y"
        }],
        "contextObj": {
            "name": "frmAccountInfoKA",
            "type": "forms",
            "platform": "",
            "KUID": "b2f984d11c5244e6ae5f81fe393d837e"
        },
        "language": "js",
        "actions": [{
            "id": "ADD_SNIPPET__gbebfda3507548bb93385207799420a6",
            "type": "ADD_SNIPPET",
            "codeSnippet": "frmAccountInfoKA.lblListInfoInfo.skin = \"lblListOff\"; \nfrmAccountInfoKA.imgDiv.setVisibility(false);\nfrmAccountInfoKA.flxTabsWrapper.setVisibility(true);// hassan 28/01/20201\n\nfrmAccountInfoKA.lblAccountOptions.skin = \"lblFontSettIconsFont2oN\";\nfrmAccountInfoKA.imgDivSett.setVisibility(true);\nfrmAccountInfoKA.flxLoanPostPone.setVisibility(false);\n/*if(frmAccountInfoKA.lblLoanAccountInfo.text === kony.i18n.getLocalizedString(\"i18n.accounts.loans\")){\n  frmAccountInfoKA.flxRequestStatement.setVisibility(false);\n  frmAccountInfoKA.flxOrderCheckBook.setVisibility(false);\n  frmAccountInfoKA.flxLoanPostPone.setVisibility(true);\n  \n}else{*/\n  frmAccountInfoKA.flxRequestStatement.setVisibility(true);\n  frmAccountInfoKA.flxOrderCheckBook.setVisibility(false);\n  if(kony.retailBanking.globalData.accountsDashboardData.accountsData[parseInt(customerAccountDetails.currentIndex)].accountType === \"C\" &&\n     kony.retailBanking.globalData.accountsDashboardData.accountsData[parseInt(customerAccountDetails.currentIndex)].producttype !== \"303\" && kony.retailBanking.globalData.accountsDashboardData.accountsData[parseInt(customerAccountDetails.currentIndex)].producttype !== \"441\"){\n      frmAccountInfoKA.flxOrderCheckBook.setVisibility(true);\n  }\n//}\nfrmAccountInfoKA.flxAccountOptions.setVisibility(true);\nfrmAccountInfoKA.flxLoanInfo.setVisibility(false);\nfrmAccountInfoKA.flxDeposits.setVisibility(false);\nfrmAccountInfoKA.flxaccountdetailsfordeposits.setVisibility(false);\nfrmAccountInfoKA.forceLayout();",
            "parentId": null,
            "callbackType": null
        }]
    }
}