{
    "AS_FlexContainer_hb5798bd631f44b786cf4d4ee849dd0d": {
        "id": "AS_FlexContainer_hb5798bd631f44b786cf4d4ee849dd0d",
        "type": "ACTION_SEQUENCE",
        "name": "AS_onBackSelectDetails",
        "params": [{
            "datatype": "collection",
            "name": "eventobject"
        }],
        "contextObj": {
            "name": "frmSelectDetailsBene",
            "type": "forms",
            "platform": null,
            "KUID": "dc083a9578ae4c11820ce4dbba701670"
        },
        "language": "js",
        "actions": [{
            "id": "ADD_SNIPPET__h0f1fb9887e34788aa246beaa731397f",
            "type": "ADD_SNIPPET",
            "codeSnippet": "frmAddExternalAccountKA.show();\nkony.boj.addBeneNextStatus();",
            "parentId": null,
            "callbackType": null
        }]
    }
}