{
    "AS_TextField_b002edea3ca745f2a9cf443d08ff23d4": {
        "id": "AS_TextField_b002edea3ca745f2a9cf443d08ff23d4",
        "type": "ACTION_SEQUENCE",
        "name": "AS_onEndRecI",
        "params": [{
            "datatype": "collection",
            "name": "eventobject"
        }, {
            "datatype": "string",
            "name": "changedtext"
        }],
        "contextObj": {
            "name": "frmNewTransferKA",
            "type": "forms",
            "platform": "",
            "KUID": "2ac343500306428da0ceef91a3b44d18"
        },
        "language": "js",
        "actions": [{
            "id": "ADD_SNIPPET__i3e69b99456e4e699464dc651e08b1bb",
            "type": "ADD_SNIPPET",
            "codeSnippet": "animateLabel(\"DOWN\",\"lblNumRecurr\", frmNewTransferKA.txtNumRecurrences.text);\nonTextChangeRecurrence();",
            "parentId": null,
            "callbackType": null
        }]
    }
}