{
    "AS_TextField_d8e411ce7a7c4bfaa9743912bc753167": {
        "id": "AS_TextField_d8e411ce7a7c4bfaa9743912bc753167",
        "type": "ACTION_SEQUENCE",
        "name": "AS_onEndEditingAddress1Android",
        "params": [{
            "datatype": "collection",
            "name": "eventobject"
        }, {
            "datatype": "string",
            "name": "changedtext"
        }],
        "contextObj": {
            "name": "frmAddExternalAccountKA",
            "type": "forms",
            "platform": "",
            "KUID": "4943cca5d62d4f0ca6f2e9ab47274db5"
        },
        "language": "js",
        "actions": [{
            "id": "ADD_SNIPPET_ide_onEndEditing_e05c46f37847403d95d930736f3ea287",
            "type": "ADD_SNIPPET",
            "codeSnippet": "if(frmAddExternalAccountKA.tbxAddress1.text !== \"\"){\n  frmAddExternalAccountKA.flxUnderlineAddress1.skin = \"sknFlxGreenLine\";\n}else{\n  frmAddExternalAccountKA.flxUnderlineAddress1.skin = \"sknFlxOrangeLine\";\n}\n\nanimateLabel(\"DOWN\", \"lblAddress1\", frmAddExternalAccountKA.tbxAddress1.text);",
            "callbackType": null
        }]
    }
}