{
    "AS_TextField_ed59c473c6c4401ebedace3d7f85476a": {
        "id": "AS_TextField_ed59c473c6c4401ebedace3d7f85476a",
        "type": "ACTION_SEQUENCE",
        "name": "AS_onEndEditingBeneDetailsiOS",
        "params": [{
            "datatype": "collection",
            "name": "eventobject"
        }, {
            "datatype": "string",
            "name": "changedtext"
        }],
        "language": "js",
        "actions": [{
            "id": "ADD_SNIPPET_ide_onEndEditing_i5044ec6c4a54b66862c758a8b6bffec",
            "type": "ADD_SNIPPET",
            "codeSnippet": "if(frmAddExternalAccountKA.tbxBeneRelation.text !== \"\"){\n  frmAddExternalAccountKA.flxUnderlineBeneRelation.skin = \"sknFlxGreenLine\";\n}else{\n  frmAddExternalAccountKA.flxUnderlineBeneRelation.skin = \"sknFlxOrangeLine\";\n}\n\nanimateLabel(\"DOWN\", \"lblBeneRelation\", frmAddExternalAccountKA.tbxBeneRelation.text);",
            "callbackType": null
        }]
    }
}