{
    "AS_Button_g892bdf5bf114a00a7cec0734167074e": {
        "id": "AS_Button_g892bdf5bf114a00a7cec0734167074e",
        "type": "ACTION_SEQUENCE",
        "name": "AS_onBOJClickAddBene",
        "params": [{
            "datatype": "collection",
            "name": "eventobject"
        }],
        "contextObj": {
            "name": "frmAddExternalAccountKA",
            "type": "forms",
            "platform": "",
            "KUID": "4943cca5d62d4f0ca6f2e9ab47274db5"
        },
        "language": "js",
        "actions": [{
            "id": "ADD_SNIPPET__d7089154343a4b3cb6575a46e4764dcb",
            "type": "ADD_SNIPPET",
            "codeSnippet": "kony.boj.displayParameter(\"BOJ\");",
            "parentId": null,
            "callbackType": null
        }]
    }
}