{
    "AS_TextField_gea029f6fa9e4f8aadaa9b66f7adffe6": {
        "id": "AS_TextField_gea029f6fa9e4f8aadaa9b66f7adffe6",
        "type": "ACTION_SEQUENCE",
        "name": "AS_onTextChangeBankNameIntAddBene",
        "params": [{
            "datatype": "collection",
            "name": "eventobject"
        }, {
            "datatype": "string",
            "name": "changedtext"
        }],
        "contextObj": {
            "name": "frmAddExternalAccountKA",
            "type": "forms",
            "platform": "",
            "KUID": "4943cca5d62d4f0ca6f2e9ab47274db5"
        },
        "language": "js",
        "actions": [{
            "id": "ADD_SNIPPET__b171f9e858484548bd866d2c85ae36fc",
            "type": "ADD_SNIPPET",
            "codeSnippet": "kony.boj.addBeneNextStatus();",
            "parentId": null,
            "callbackType": null
        }]
    }
}