{
    "AS_TextField_bc7e115dbfd148f3b3fcba6bbed61631": {
        "id": "AS_TextField_bc7e115dbfd148f3b3fcba6bbed61631",
        "type": "ACTION_SEQUENCE",
        "name": "AS_onEndRecA",
        "params": [{
            "datatype": "collection",
            "name": "eventobject"
        }, {
            "datatype": "string",
            "name": "changedtext"
        }],
        "contextObj": {
            "name": "frmNewTransferKA",
            "type": "forms",
            "platform": "",
            "KUID": "2ac343500306428da0ceef91a3b44d18"
        },
        "language": "js",
        "actions": [{
            "id": "ADD_SNIPPET__i052d5dbd4d34c56866c2ae852fc91c7",
            "type": "ADD_SNIPPET",
            "codeSnippet": "animateLabel(\"DOWN\",\"lblNumRecurr\", frmNewTransferKA.txtNumRecurrences.text);\nonTextChangeRecurrence();",
            "parentId": null,
            "callbackType": null
        }]
    }
}