{
    "AS_Button_h12c7d60d8a54de5a53e2fa0abb40fa7": {
        "id": "AS_Button_h12c7d60d8a54de5a53e2fa0abb40fa7",
        "type": "ACTION_SEQUENCE",
        "name": "AS_onClickBOJShowBene",
        "params": [{
            "datatype": "collection",
            "name": "eventobject"
        }],
        "contextObj": {
            "name": "frmShowAllBeneficiary",
            "type": "forms",
            "platform": "",
            "KUID": "da135140bfd946caa325afeee19e7e04"
        },
        "language": "js",
        "actions": [{
            "id": "ADD_SNIPPET__h97d4fca347e4a75a191287c391b2f29",
            "type": "ADD_SNIPPET",
            "codeSnippet": "kony.boj.addBeneVar.selectedType = \"BOJ\";\nkony.boj.setBeneData(\"IFB\");\nfrmShowAllBeneficiary.btnAll.skin = \"slButtonWhiteTabDisabled\";\nfrmShowAllBeneficiary.btnBOJ.skin = \"slButtonWhiteTab\";\nfrmShowAllBeneficiary.btnDomestic.skin = \"slButtonWhiteTabDisabled\";\nfrmShowAllBeneficiary.btnInternational.skin = \"slButtonWhiteTabDisabled\";",
            "parentId": null,
            "callbackType": null
        }]
    }
}