{
    "AS_TextField_hb712bd9b37b4f528fcd04b9eda2f627": {
        "id": "AS_TextField_hb712bd9b37b4f528fcd04b9eda2f627",
        "type": "ACTION_SEQUENCE",
        "name": "AS_onEndEditingBillerNumberAddBillerAndroid",
        "params": [{
            "datatype": "collection",
            "name": "eventobject"
        }, {
            "datatype": "string",
            "name": "changedtext"
        }],
        "contextObj": {
            "name": "frmAddNewPayeeKA",
            "type": "forms",
            "platform": "",
            "KUID": "22b994296d374ff48427012b2b05feb7"
        },
        "language": "js",
        "actions": [{
            "id": "ADD_SNIPPET__fe2e2095712d4c228b2ee6a624729728",
            "type": "ADD_SNIPPET",
            "codeSnippet": "animateLabel(\"DOWN\", \"lblBillerNumber\",frmAddNewPayeeKA.tbxBillerNumber.text);",
            "parentId": null,
            "callbackType": null
        }]
    }
}