{
    "AS_RadioButtonGroup_d1c7211917384d56b761b94b289b4fdb": {
        "id": "AS_RadioButtonGroup_d1c7211917384d56b761b94b289b4fdb",
        "type": "ACTION_SEQUENCE",
        "params": [{
            "datatype": "collection",
            "name": "eventobject"
        }],
        "language": "js",
        "actions": [{
            "id": "ADD_SNIPPET_ide_onSelection_c4852fc2492d4eaf980f3c261fe3a6d2",
            "type": "ADD_SNIPPET",
            "codeSnippet": "onChangingradioBtnfrmBills();",
            "callbackType": null
        }]
    }
}