{
    "AS_Segment_g3e89eb820b442f7958ebc8fd2522139": {
        "id": "AS_Segment_g3e89eb820b442f7958ebc8fd2522139",
        "type": "ACTION_SEQUENCE",
        "params": [{
            "datatype": "collection",
            "name": "eventobject"
        }, {
            "datatype": "number",
            "name": "sectionNumber"
        }, {
            "datatype": "number",
            "name": "rowNumber"
        }],
        "language": "js",
        "actions": [{
            "id": "ADD_SNIPPET_ide_onRowClick_f6b1084085734128a3677750e6f344ca",
            "type": "ADD_SNIPPET",
            "codeSnippet": "//Need Bank Name For External Account\n//frmNewTransferKA.lblToAccountBankNameKA.text= \"\";\n//onclicksegment(\"to\");\n//selectAccountCard(frmNewTransferKA, \"to\", 1);\nsetExtrenalToAccountTransfer(\"frmNewTransferKA\");\nsetContainerState(frmNewTransferKA,\"to\",\"ANIMATION_COLLAPSE\", defaultCardHeight);\n",
            "callbackType": null
        }]
    }
}