{
    "AS_Segment_ce2dc1da2ae949dba1e7e07b6cd57b10": {
        "id": "AS_Segment_ce2dc1da2ae949dba1e7e07b6cd57b10",
        "type": "ACTION_SEQUENCE",
        "params": [{
            "datatype": "collection",
            "name": "eventobject"
        }, {
            "datatype": "number",
            "name": "sectionNumber"
        }, {
            "datatype": "number",
            "name": "rowNumber"
        }],
        "contextObj": {
            "type": "forms",
            "platform": "",
            "KUID": "c61ad12e0ab14a518f43b91ce1670e1d"
        },
        "language": "js",
        "actions": [{
            "id": "ADD_SNIPPET__e8a0b63c083e40459b363a3cd43b352d",
            "type": "ADD_SNIPPET",
            "codeSnippet": "gotoCashCollectorPage();",
            "parentId": null,
            "callbackType": null
        }]
    }
}