{
    "AS_Segment_f9dd3cdce26c46a0aeb79b19641dd1f2": {
        "id": "AS_Segment_f9dd3cdce26c46a0aeb79b19641dd1f2",
        "type": "ACTION_SEQUENCE",
        "params": [{
            "datatype": "collection",
            "name": "eventobject"
        }, {
            "datatype": "number",
            "name": "sectionNumber"
        }, {
            "datatype": "number",
            "name": "rowNumber"
        }],
        "language": "js",
        "actions": [{
            "id": "ADD_SNIPPET_ide_onRowClick_b8ccc32de0bd45a2813bd1a4e67f8c26",
            "type": "ADD_SNIPPET",
            "codeSnippet": "accountInfoEditPopup();",
            "callbackType": null
        }]
    }
}