{
    "AS_Segment_e25bf2ea473647438c74ed11bbf79962": {
        "id": "AS_Segment_e25bf2ea473647438c74ed11bbf79962",
        "type": "ACTION_SEQUENCE",
        "params": [{
            "datatype": "collection",
            "name": "eventobject"
        }, {
            "datatype": "number",
            "name": "sectionNumber"
        }, {
            "datatype": "number",
            "name": "rowNumber"
        }],
        "language": "js",
        "actions": [{
            "id": "ADD_SNIPPET_ide_onRowClick_fe824bcb99474fa58d9452d31d694ab3",
            "type": "ADD_SNIPPET",
            "codeSnippet": "accountLandingPopup();",
            "callbackType": null
        }]
    }
}