{
    "AS_Switch_d22fc48e644c4d20b2d068661169962b": {
        "id": "AS_Switch_d22fc48e644c4d20b2d068661169962b",
        "type": "ACTION_SEQUENCE",
        "params": [{
            "datatype": "collection",
            "name": "eventobject"
        }],
        "language": "js",
        "actions": [{
            "id": "ADD_SNIPPET_ide_onSlide_fd8a34190b7146d9b57d66c520067abb",
            "type": "ADD_SNIPPET",
            "codeSnippet": "if(frmAuthorizationAlternatives.flxQuickBalance.height === \"8%\"){\n  frmAuthorizationAlternatives.flxQuickBalance.height = \"40%\";\n  addDatatoSegQuickBalance(1);\n}\nelse{\n  frmAuthorizationAlternatives.flxQuickBalance.height = \"8%\";\n  addDatatoSegQuickBalance(0);\n} \n",
            "callbackType": null
        }]
    }
}