{
    "AS_Switch_ff9e48cee82b459884b3e683f223b0fc": {
        "id": "AS_Switch_ff9e48cee82b459884b3e683f223b0fc",
        "type": "ACTION_SEQUENCE",
        "params": [{
            "datatype": "collection",
            "name": "eventobject"
        }],
        "language": "js",
        "actions": [{
            "id": "ADD_SNIPPET_ide_onSlide_bfec11579a0f49aab6347ff99163b2a7",
            "type": "ADD_SNIPPET",
            "codeSnippet": "/*if(frmSecurityAlertsKA.BankingIdChangeAlertSwitch.selectedIndex===1)\n    {\n      frmSecurityAlertsKA.lblBankingIdChange.text = \"false\";\n       var INSTANCE = kony.sdk.mvvm.KonyApplicationContext.getAppInstance();\n\t\t  var controller = INSTANCE.getFormController(\"frmSecurityAlertsKA\");\n\t\t  var navigationObject = new kony.sdk.mvvm.NavigationObject();\n    \t  navigationObject.setDataModel(null, kony.sdk.mvvm.OperationType.FILTER_BY_PRIMARY_KEY, \"form\");\n\t\t  navigationObject.setRequestOptions(\"form\",{\"headers\":{\"session_token\":kony.retailBanking.globalData.session_token}});\n\t\t  controller.performAction(\"saveData\",[navigationObject]);\n      }else\n      {\n        frmSecurityAlertsKA.lblBankingIdChange.text = \"true\";\n         var INSTANCE = kony.sdk.mvvm.KonyApplicationContext.getAppInstance();\n\t\t  var controller = INSTANCE.getFormController(\"frmSecurityAlertsKA\");\n\t\t  var navigationObject = new kony.sdk.mvvm.NavigationObject();\n    \t  navigationObject.setDataModel(null, kony.sdk.mvvm.OperationType.FILTER_BY_PRIMARY_KEY, \"form\");\n\t\t  navigationObject.setRequestOptions(\"form\",{\"headers\":{\"session_token\":kony.retailBanking.globalData.session_token}});\n\t\t  controller.performAction(\"saveData\",[navigationObject]);\n\t }\n     */\nupdateSecurityAletStatus(\"bankingIdChange\");",
            "callbackType": null
        }]
    }
}