{
    "AS_Segment_bf63ae0736d5495a8572d59e7bb49193": {
        "id": "AS_Segment_bf63ae0736d5495a8572d59e7bb49193",
        "type": "ACTION_SEQUENCE",
        "name": "AS_Segment_MoveToAccountNickNameSettings",
        "params": [{
            "datatype": "collection",
            "name": "eventobject"
        }, {
            "datatype": "number",
            "name": "sectionNumber"
        }, {
            "datatype": "number",
            "name": "rowNumber"
        }],
        "contextObj": {
            "name": "frmMyAccountSettingsKA",
            "type": "forms",
            "platform": null,
            "KUID": "h22bc7d202134098869f46b57b12c5f3"
        },
        "language": "js",
        "actions": [{
            "id": "ADD_SNIPPET__j6aa01e8db6e4abc8ab6ba31c33acc28",
            "type": "ADD_SNIPPET",
            "codeSnippet": "// frmEditAccountSettings.show();",
            "parentId": null,
            "callbackType": null,
            "disabled": true
        }, {
            "id": "INVOKE_FUNCTION___bcdf2f574fd04dc4b445f8c81d6f5a64",
            "type": "INVOKE_FUNCTION",
            "sequenceKUID": "setDatatoEditNickNameScreen",
            "display": "setDatatoEditNickNameScreen",
            "inputparams": [{
                "name": "data",
                "value": " eventobject"
            }, {
                "name": "section",
                "value": " sectionNumber"
            }, {
                "name": "row",
                "value": " rowNumber"
            }],
            "parentId": null,
            "callbackType": null,
            "disabled": null,
            "source": "module"
        }]
    }
}