{
    "AS_TextField_c410129e7344461598bc0aaf4e9cddc8": {
        "id": "AS_TextField_c410129e7344461598bc0aaf4e9cddc8",
        "type": "ACTION_SEQUENCE",
        "name": "AS_TextField_onBeginEdittingIPhoneCardlessAmount",
        "params": [{
            "datatype": "collection",
            "name": "eventobject"
        }, {
            "datatype": "string",
            "name": "changedtext"
        }],
        "contextObj": {
            "name": "frmCardlessTransaction",
            "type": "forms",
            "platform": "",
            "KUID": "b7e7974060664c0093c575d8bba1e829"
        },
        "language": "js",
        "actions": [{
            "id": "ADD_SNIPPET__d7949893acb542a09b9a473c4e464c9b",
            "type": "ADD_SNIPPET",
            "codeSnippet": "frmCardlessTransaction.flxBorderAmount.skin=\"skntextFieldDivider\";\nfrmCardlessTransaction.flxBorderAmount.text=\"\";",
            "parentId": null,
            "callbackType": null
        }]
    }
}