{
    "AS_TextField_ef194ff3f4cb418e84b9a39633d05e10": {
        "id": "AS_TextField_ef194ff3f4cb418e84b9a39633d05e10",
        "type": "ACTION_SEQUENCE",
        "params": [{
            "datatype": "collection",
            "name": "eventobject"
        }, {
            "datatype": "string",
            "name": "changedtext"
        }],
        "language": "js",
        "actions": [{
            "id": "ADD_SNIPPET_ide_onDone_a9b5e2776b474f4f8f58f9e6af60d8f6",
            "type": "ADD_SNIPPET",
            "codeSnippet": "frmCardlessTransaction.flxBorderAmount.skin=\"skntextFieldDividerGreen\";\nfrmCardlessTransaction.lblHiddenAmount.text=frmCardlessTransaction.txtFieldAmount.text;\nfrmCardlessTransaction.txtFieldAmount.maxTextLength = 20;\nfrmCardlessTransaction.txtFieldAmount.text = formatAmountwithcomma(frmCardlessTransaction.lblHiddenAmount.text,getDecimalNumForCurr(frmCardlessTransaction.lblCurrencyCode.text));",
            "callbackType": null
        }]
    }
}