{
    "AS_TextField_b801087c581b40cea58a07516e2b7337": {
        "id": "AS_TextField_b801087c581b40cea58a07516e2b7337",
        "type": "ACTION_SEQUENCE",
        "name": "AS_TextField_onTouchEndAddressAlias",
        "params": [{
            "datatype": "collection",
            "name": "eventobject"
        }, {
            "datatype": "string",
            "name": "x"
        }, {
            "datatype": "string",
            "name": "y"
        }],
        "contextObj": {
            "name": "frmEPS",
            "type": "forms",
            "platform": "",
            "KUID": "c49bbb3175be499d86d933cee301b3c4"
        },
        "language": "js",
        "actions": [{
            "id": "ADD_SNIPPET__bf0b8def4f094db6b484f79e481ac0a8",
            "type": "ADD_SNIPPET",
            "codeSnippet": "animateLabel(\"UP\",\"lblAddress\",frmEPS.txtAddressAlias.text);",
            "parentId": null,
            "callbackType": null
        }]
    }
}