{
    "AS_TextField_523011ee7beb45208e4e9d4465b3572a": {
        "id": "AS_TextField_523011ee7beb45208e4e9d4465b3572a",
        "type": "ACTION_SEQUENCE",
        "params": [{
            "datatype": "collection",
            "name": "eventobject"
        }, {
            "datatype": "string",
            "name": "changedtext"
        }],
        "contextObj": {
            "type": "forms",
            "platform": "",
            "KUID": "1df7248b622b405fb1a73c4deef77bd8"
        },
        "language": "js",
        "actions": [{
            "id": "ADD_SNIPPET__f6eea3af32944f29ae1a737095c4f9e8",
            "type": "ADD_SNIPPET",
            "codeSnippet": "CanEnableSelPayeeBtn();",
            "parentId": null,
            "callbackType": null
        }]
    }
}