{
    "AS_TextField_i02861539fa04e83b2bdc9f414b8ad43": {
        "id": "AS_TextField_i02861539fa04e83b2bdc9f414b8ad43",
        "type": "ACTION_SEQUENCE",
        "params": [{
            "datatype": "collection",
            "name": "eventobject"
        }, {
            "datatype": "string",
            "name": "changedtext"
        }],
        "language": "js",
        "actions": [{
            "id": "ADD_SNIPPET_ide_onEndEditing_afb3610d0c56474b9a44d7b275f30b6b",
            "type": "ADD_SNIPPET",
            "codeSnippet": "animateLabel(\"DOWN\",\"lblBillerNumber\", frmAddNewPrePayeeKA.tbxBillerNumber.text);\nnextFromNewBillScreen();",
            "callbackType": null
        }]
    }
}