{
    "AS_TextField_f61943c22b95490ea720cd1ea316d168": {
        "id": "AS_TextField_f61943c22b95490ea720cd1ea316d168",
        "type": "ACTION_SEQUENCE",
        "params": [{
            "datatype": "collection",
            "name": "eventobject"
        }, {
            "datatype": "string",
            "name": "changedtext"
        }],
        "contextObj": {
            "name": "frmEstatementLandingKA",
            "type": "forms",
            "platform": null,
            "KUID": "d1dcb94f4a054dda97d66cbdc216d96a"
        },
        "language": "js",
        "actions": [{
            "id": "ADD_SNIPPET_ide_onEndEditing_f502e17a798241af841208d5afea4430",
            "type": "ADD_SNIPPET",
            "codeSnippet": "try{\n  if(frmLoginKA.tbxusernameTextField.text!==null&&frmLoginKA.tbxusernameTextField.text!==\"\")\n  {\n    frmLoginKA.borderBottom.skin=\"skntextFieldDividerGreen\";\n  }\n  else\n  {\n    frmLoginKA.borderBottom.skin=\"skntextFieldDivider\";\n  }\n  animateLabel(\"DOWN\",\"lblUserName\",frmLoginKA.tbxusernameTextField.text);\n  animateLabel(\"UP\",\"lblPassword\",frmLoginKA.passwordTextField.text);\n}catch(err){\n  kony.print( \"err in pwd::\"+err);\n}",
            "callbackType": null
        }]
    }
}