{
    "AS_TextField_ea0758365bb94596a0b38a050e136539": {
        "id": "AS_TextField_ea0758365bb94596a0b38a050e136539",
        "type": "ACTION_SEQUENCE",
        "params": [{
            "datatype": "collection",
            "name": "eventobject"
        }, {
            "datatype": "string",
            "name": "changedtext"
        }],
        "language": "js",
        "actions": [{
            "id": "ADD_SNIPPET_ide_onBeginEditing_j76791b3396e4d1eae6816ed584be7ac",
            "type": "ADD_SNIPPET",
            "codeSnippet": "frmJoMoPay.flxBorderAmount.skin=\"skntextFieldDividerBlue\";",
            "callbackType": null
        }]
    }
}