{
    "AS_TextField_fd91cd4910f54e308b0741f8073565b6": {
        "id": "AS_TextField_fd91cd4910f54e308b0741f8073565b6",
        "type": "ACTION_SEQUENCE",
        "params": [{
            "datatype": "collection",
            "name": "eventobject"
        }, {
            "datatype": "string",
            "name": "changedtext"
        }],
        "contextObj": {
            "name": "frmEstatementLandingKA",
            "type": "forms",
            "platform": "",
            "KUID": "d1dcb94f4a054dda97d66cbdc216d96a"
        },
        "language": "js",
        "actions": [{
            "id": "ADD_SNIPPET__e2f7a687dc6e434fbc4eb456414a9916",
            "type": "ADD_SNIPPET",
            "codeSnippet": "try{\n  if(frmEstatementLandingKA.txtEmail2.text!==null && frmEstatementLandingKA.txtEmail2.text!==\"\")\n  {\n    frmEstatementLandingKA.borderBottom2.skin=\"skntextFieldDividerGreen\";\n  }\n  else\n  {\n    frmEstatementLandingKA.borderBottom2.skin=\"skntextFieldDivider\";\n  }\n  animateLabel(\"DOWN\",\"lblEmail2\",frmEstatementLandingKA.txtEmail2.text);\n  animateLabel(\"DOWN\",\"lblEmail1\",frmEstatementLandingKA.txtEmail1.text);\n}catch(err){\n  kony.print( \"err in pwd::\"+err);\n}",
            "parentId": null,
            "callbackType": null
        }]
    }
}