{
    "AS_TextField_e1b255bc52b145d29ba689c6762d1f28": {
        "id": "AS_TextField_e1b255bc52b145d29ba689c6762d1f28",
        "type": "ACTION_SEQUENCE",
        "name": "AS_TextField_onBeginEditingAmountCardless",
        "params": [{
            "datatype": "collection",
            "name": "eventobject"
        }, {
            "datatype": "string",
            "name": "changedtext"
        }],
        "language": "js",
        "actions": [{
            "id": "ADD_SNIPPET_ide_onBeginEditing_ac800c6e60334f84a0c266e1e7736800",
            "type": "ADD_SNIPPET",
            "codeSnippet": "frmCardlessTransaction.flxBorderAmount.skin=\"skntextFieldDividerBlue\";",
            "callbackType": null
        }]
    }
}