{
    "AS_TextField_ff50e45cf78043e8bbd3f105662253ff": {
        "id": "AS_TextField_ff50e45cf78043e8bbd3f105662253ff",
        "type": "ACTION_SEQUENCE",
        "params": [{
            "datatype": "collection",
            "name": "eventobject"
        }, {
            "datatype": "string",
            "name": "changedtext"
        }],
        "language": "js",
        "actions": [{
            "id": "ADD_SNIPPET_ide_onDone_f10674dcefa440139e1846b7a0f31322",
            "type": "ADD_SNIPPET",
            "codeSnippet": "animateLabel(\"DOWN\", \"lblNickName\",frmAddNewPrePayeeKA.tbxNickName.text);\nanimateLabel(\"UP\", \"lblBillerNumber\",frmAddNewPrePayeeKA.tbxBillerNumber.text);\nfrmAddNewPrePayeeKA.tbxNickName.text = frmAddNewPrePayeeKA.tbxNickName.text.trim();\nif (frmAddNewPrePayeeKA.tbxNickName.text !== null && frmAddNewPrePayeeKA.tbxNickName.text !== \"\") {\n  frmAddNewPrePayeeKA.flxUnderlineNickName.skin = \"sknFlxGreenLine\";\n} else {\n  frmAddNewPrePayeeKA.flxUnderlineNickName.skin = \"sknFlxOrangeLine\";\n}",
            "callbackType": null
        }]
    }
}