{
    "AS_TextField_a46f216012974bc9b18b5877204067c7": {
        "id": "AS_TextField_a46f216012974bc9b18b5877204067c7",
        "type": "ACTION_SEQUENCE",
        "name": "AS_TextField_onEndEditingDepositAmoutIPhone",
        "params": [{
            "datatype": "collection",
            "name": "eventobject"
        }, {
            "datatype": "string",
            "name": "changedtext"
        }],
        "contextObj": {
            "name": "frmOpenTermDeposit",
            "type": "forms",
            "platform": "",
            "KUID": "fec6fddbcf8543f2b30114c87e1a7e99"
        },
        "language": "js",
        "actions": [{
            "id": "ADD_SNIPPET__j40ff1ee32634db19cdcea0444c86e8c",
            "type": "ADD_SNIPPET",
            "codeSnippet": "//amountFieldCheck();\ncallRateService();\ncheckNextOpenDeposite();",
            "parentId": null,
            "callbackType": null
        }]
    }
}