{
    "AS_TextField_j258c48a208e47b9a798b54ea402f3f1": {
        "id": "AS_TextField_j258c48a208e47b9a798b54ea402f3f1",
        "type": "ACTION_SEQUENCE",
        "name": "AS_TextField_OnBeginEditingIBANBeneNameIphone",
        "params": [{
            "datatype": "collection",
            "name": "eventobject"
        }, {
            "datatype": "string",
            "name": "changedtext"
        }],
        "contextObj": {
            "name": "frmEPS",
            "type": "forms",
            "platform": "",
            "KUID": "c49bbb3175be499d86d933cee301b3c4"
        },
        "language": "js",
        "actions": [{
            "id": "ADD_SNIPPET__jd7379bbafc44f18a15db5709e92f624",
            "type": "ADD_SNIPPET",
            "codeSnippet": "animateLabel(\"UP\",\"lblIBANBeneName\",frmEPS.txtIBANBeneName.text);",
            "parentId": null,
            "callbackType": null
        }]
    }
}