{
    "AS_TextField_b2dbe8af2a984789a4c5a45306e90ce4": {
        "id": "AS_TextField_b2dbe8af2a984789a4c5a45306e90ce4",
        "type": "ACTION_SEQUENCE",
        "params": [{
            "datatype": "collection",
            "name": "eventobject"
        }, {
            "datatype": "string",
            "name": "changedtext"
        }],
        "language": "js",
        "actions": [{
            "id": "ADD_SNIPPET_ide_onDone_c25822b807b44d75afa85bcc3f348930",
            "type": "ADD_SNIPPET",
            "codeSnippet": "validateLblNext();",
            "callbackType": null
        }]
    }
}