{
    "AS_TextField_acb5c1faa2584742b622f861b4907d12": {
        "id": "AS_TextField_acb5c1faa2584742b622f861b4907d12",
        "type": "ACTION_SEQUENCE",
        "params": [{
            "datatype": "collection",
            "name": "eventobject"
        }, {
            "datatype": "string",
            "name": "changedtext"
        }],
        "contextObj": {
            "name": "frmEPS",
            "type": "forms",
            "platform": "",
            "KUID": "c49bbb3175be499d86d933cee301b3c4"
        },
        "language": "js",
        "actions": [{
            "id": "ADD_SNIPPET__h245c2c2f6744e9ebf2c2d52da570cd8",
            "type": "ADD_SNIPPET",
            "codeSnippet": "animateLabel(\"UP\",\"lblAddress\",frmEPS.txtAddressAlias.text);",
            "parentId": null,
            "callbackType": null
        }]
    }
}