{
    "AS_TextField_d65e49998c22433fad7720e1cba26e38": {
        "id": "AS_TextField_d65e49998c22433fad7720e1cba26e38",
        "type": "ACTION_SEQUENCE",
        "params": [{
            "datatype": "collection",
            "name": "eventobject"
        }, {
            "datatype": "string",
            "name": "changedtext"
        }],
        "contextObj": {
            "name": "frmCardsAddNickname",
            "type": "forms",
            "platform": null,
            "KUID": "d382c627ba0b45cfb446cc6dd8d8759e"
        },
        "language": "js",
        "actions": [{
            "id": "ADD_SNIPPET_ide_onDone_f7076d65be07496f840f08dc4f60562a",
            "type": "ADD_SNIPPET",
            "codeSnippet": "animateLabel(\"DOWN\",\"lblAddNickName\",frmCardsAddNickname.txtAddNickName.text);",
            "callbackType": null
        }]
    }
}