{
    "AS_TextField_c6b486d3aecb422185959a07495c2cf8": {
        "id": "AS_TextField_c6b486d3aecb422185959a07495c2cf8",
        "type": "ACTION_SEQUENCE",
        "params": [{
            "datatype": "collection",
            "name": "eventobject"
        }, {
            "datatype": "string",
            "name": "changedtext"
        }],
        "language": "js",
        "actions": [{
            "id": "ADD_SNIPPET_ide_onTextChange_hb15a9f88dbd41d5ba21208e5da77473",
            "type": "ADD_SNIPPET",
            "codeSnippet": "// alert(\"Slected Key: \"+frmCreditCardPayment.lBoxCardList.selectedKey);\n// alert(\"TextFieldAmount Text: \"+frmCreditCardPayment.txtFieldAmount.text);\n\nif(frmCreditCardPayment.txtFieldAmount.text!==\"\"&&frmCreditCardPayment.txtFieldAmount.text!==null&&frmCreditCardPayment.txtBoxOtherCard.text!==\"\"&&frmCreditCardPayment.txtBoxOtherCard.text.length===16.0)\n  {\n    frmCreditCardPayment.btnNext.skin=\"jomopaynextEnabled\";\n    frmCreditCardPayment.btnNext.focusSkin=\"jomopaynextEnabled\";\n  }\nelse\n  {\n     frmCreditCardPayment.btnNext.skin=\"jomopaynextDisabled\";\n    frmCreditCardPayment.btnNext.focusSkin=\"jomopaynextDisabled\";\n  }",
            "callbackType": null
        }]
    }
}