{
    "AS_TextField_27571be22cc04840a062cb88b77f0cb4": {
        "id": "AS_TextField_27571be22cc04840a062cb88b77f0cb4",
        "type": "ACTION_SEQUENCE",
        "params": [{
            "datatype": "collection",
            "name": "eventobject"
        }, {
            "datatype": "string",
            "name": "changedtext"
        }],
        "contextObj": {
            "type": "forms",
            "platform": "",
            "KUID": "1df7248b622b405fb1a73c4deef77bd8"
        },
        "language": "js",
        "actions": [{
            "id": "ADD_SNIPPET__4e6e8c3bd74d4d0fa957cd60a69104cf",
            "type": "ADD_SNIPPET",
            "codeSnippet": "CanEnableSelPayeeBtn();",
            "parentId": null,
            "callbackType": null
        }]
    }
}