{
    "AS_TextField_j41d88604e1749998fa8be0872a98d0c": {
        "id": "AS_TextField_j41d88604e1749998fa8be0872a98d0c",
        "type": "ACTION_SEQUENCE",
        "name": "AS_TextField_NationalIDRegistration_CardNumber_onBeginEditingIOS",
        "params": [{
            "datatype": "collection",
            "name": "eventobject"
        }, {
            "datatype": "string",
            "name": "changedtext"
        }],
        "contextObj": {
            "name": "frmRegisterUser",
            "type": "forms",
            "platform": "",
            "KUID": "cd7432ec5087404590338186c94e35d2"
        },
        "language": "js",
        "actions": [{
            "id": "ADD_SNIPPET__e6f21171f6d64b47871ad12f761315e5",
            "type": "ADD_SNIPPET",
            "codeSnippet": "animateLabel(\"UP\", \"lblIDCardNumberTitle\", frmRegisterUser.txtIDCardNumber.text);",
            "parentId": null,
            "callbackType": null
        }]
    }
}