{
    "AS_TextField_i5c0e351e86c40778d019aa96d25505d": {
        "id": "AS_TextField_i5c0e351e86c40778d019aa96d25505d",
        "type": "ACTION_SEQUENCE",
        "params": [{
            "datatype": "collection",
            "name": "eventobject"
        }, {
            "datatype": "string",
            "name": "changedtext"
        }],
        "contextObj": {
            "name": "frmEnrolluserLandingKA",
            "type": "forms",
            "platform": "",
            "KUID": "de724966138b4e7c9bfdd35033a0bdb3"
        },
        "language": "js",
        "actions": [{
            "id": "ADD_SNIPPET_ide_onEndEditing_h7d8a5c7b26147efbce334bbf6b50001",
            "type": "ADD_SNIPPET",
            "codeSnippet": "if(kony.retailBanking.util.validation.isValidUsername(frmEnrolluserLandingKA.tbxUsernameKA.text)){\n  frmEnrolluserLandingKA.flxUnderlineUsername.skin = \"sknFlxGreenLine\";\n  usernameFlag = true;\n}else{\n  frmEnrolluserLandingKA.flxUnderlineUsername.skin = \"sknFlxOrangeLine\";\n  usernameFlag = false;\n}\n\nanimateLabel(\"DOWN\", \"lblUsername\", frmEnrolluserLandingKA.tbxUsernameKA.text);",
            "callbackType": null
        }]
    }
}