{
    "AS_TextField_b35dcdc21e3c4955bb2ed9533732f403": {
        "id": "AS_TextField_b35dcdc21e3c4955bb2ed9533732f403",
        "type": "ACTION_SEQUENCE",
        "params": [{
            "datatype": "collection",
            "name": "eventobject"
        }, {
            "datatype": "string",
            "name": "changedtext"
        }],
        "language": "js",
        "actions": [{
            "id": "ADD_SNIPPET_ide_onEndEditing_c2d105018f4248eda715714cdf414c48",
            "type": "ADD_SNIPPET",
            "codeSnippet": "animateLabel(\"DOWN\",\"lblAmount\", frmAddNewPrePayeeKA.tbxAmount.text);",
            "callbackType": null
        }]
    }
}