{
    "AS_TextField_a1d722421d37415198e51f9c8e8121b0": {
        "id": "AS_TextField_a1d722421d37415198e51f9c8e8121b0",
        "type": "ACTION_SEQUENCE",
        "params": [{
            "datatype": "collection",
            "name": "eventobject"
        }, {
            "datatype": "string",
            "name": "changedtext"
        }],
        "contextObj": {
            "name": "frmLoginKA",
            "type": "forms",
            "platform": "",
            "KUID": "7b1aa8fceb6b4070833e9eab879b0e5e"
        },
        "language": "js",
        "actions": [{
            "id": "ADD_SNIPPET__ceb6a763f94d416eaca8b1c3c932ae69",
            "type": "ADD_SNIPPET",
            "codeSnippet": "try{\n  frmLoginKA.borderBottom.skin=\"skntextFieldDividerBlue\";\n}catch(err){\n  kony.print( \"err in pwd::\"+err);\n}",
            "parentId": null
        }]
    }
}