{
    "AS_TextField_fa5aa4c816044572bc5296bc0dde018d": {
        "id": "AS_TextField_fa5aa4c816044572bc5296bc0dde018d",
        "type": "ACTION_SEQUENCE",
        "name": "AS_TextField_onEndEdditngAndroidAmountCardless",
        "params": [{
            "datatype": "collection",
            "name": "eventobject"
        }, {
            "datatype": "string",
            "name": "changedtext"
        }],
        "language": "js",
        "actions": [{
            "id": "ADD_SNIPPET_ide_onEndEditing_f4488a36eced4afeabbd79e414a0c2a8",
            "type": "ADD_SNIPPET",
            "codeSnippet": "onendeditingCaredless();\nfrmCardlessTransaction.txtFieldAmount.maxTextLength = 20;\nfrmCardlessTransaction.txtFieldAmount.text=frmCardlessTransaction.lblHiddenAmount.text;",
            "callbackType": null
        }]
    }
}