{
    "AS_Label_f7fb93421982446f86b4d899530149ae": {
        "id": "AS_Label_f7fb93421982446f86b4d899530149ae",
        "type": "ACTION_SEQUENCE",
        "name": "asclicktransactionsaccountdetailstabdefault",
        "params": [{
            "datatype": "collection",
            "name": "eventobject"
        }, {
            "datatype": "string",
            "name": "x"
        }, {
            "datatype": "string",
            "name": "y"
        }],
        "contextObj": {
            "name": "frmAccountDetailKA",
            "type": "forms",
            "platform": "",
            "KUID": "5ed703cad63c441882fc4a36f5ea0c28"
        },
        "language": "js",
        "actions": [{
            "id": "ADD_SNIPPET__d38c8265a4f9400a8e4a0c5302f3e1b1",
            "type": "ADD_SNIPPET",
            "codeSnippet": "setDefaultAccountsSetTabView();",
            "parentId": null,
            "callbackType": null
        }]
    }
}