{
    "AS_Button_a25b538ea5c74e6692603f5cfffaf6f1": {
        "id": "AS_Button_a25b538ea5c74e6692603f5cfffaf6f1",
        "type": "ACTION_SEQUENCE",
        "name": "btn8_frmPinLoginSuccessKA",
        "params": [{
            "datatype": "collection",
            "name": "eventobject"
        }],
        "contextObj": {
            "type": "forms",
            "platform": "",
            "KUID": "4dc207cd9ba542e880a7fee434e24ecb"
        },
        "language": "js",
        "actions": [{
            "id": "ADD_SNIPPET__ce1c127354244e769f45085546ec1c17",
            "type": "ADD_SNIPPET",
            "codeSnippet": "check_updated(8);",
            "parentId": null,
            "callbackType": null
        }]
    }
}