{
    "AS_Button_b74c010841e9470d80e788476abb9c01": {
        "id": "AS_Button_b74c010841e9470d80e788476abb9c01",
        "type": "ACTION_SEQUENCE",
        "name": "btnInfoOnClick",
        "params": [{
            "datatype": "collection",
            "name": "eventobject"
        }],
        "contextObj": {
            "name": "frmLoginKA",
            "type": "forms",
            "platform": "",
            "KUID": "7b1aa8fceb6b4070833e9eab879b0e5e"
        },
        "language": "js",
        "actions": [{
            "id": "ADD_SNIPPET__g0a4873560e1486fa2a24e628a078d15",
            "type": "ADD_SNIPPET",
            "codeSnippet": "kony.print(\"Removed\");",
            "parentId": null,
            "callbackType": null
        }]
    }
}