{
    "AS_FlexContainer_fa0fcb9b7271434fba2b1637f603070e": {
        "id": "AS_FlexContainer_fa0fcb9b7271434fba2b1637f603070e",
        "type": "ACTION_SEQUENCE",
        "name": "clickonBackCurrencies",
        "params": [{
            "datatype": "collection",
            "name": "eventobject"
        }, {
            "datatype": "string",
            "name": "x"
        }, {
            "datatype": "string",
            "name": "y"
        }],
        "contextObj": {
            "name": "frmCurrency",
            "type": "forms",
            "platform": "",
            "KUID": "ad97ea383c7f4e06ae53164a57723f84"
        },
        "language": "js",
        "actions": [{
            "id": "ADD_SNIPPET__ada55426f27c49c3beac0c14a180ec5c",
            "type": "ADD_SNIPPET",
            "codeSnippet": "frmNewTransferKA.show();",
            "parentId": null,
            "callbackType": null
        }]
    }
}