{
    "AS_Form_a95e76c015d94d549ce9ccdb5503220e": {
        "id": "AS_Form_a95e76c015d94d549ce9ccdb5503220e",
        "type": "ACTION_SEQUENCE",
        "name": "devBackAccDetails",
        "params": [{
            "datatype": "collection",
            "name": "eventobject"
        }],
        "contextObj": {
            "name": "frmAccountDetailsScreen",
            "type": "forms",
            "platform": "",
            "KUID": "fed0ec30912249989a34e309123440c9"
        },
        "language": "js",
        "actions": [{
            "id": "ADD_SNIPPET__f9549345e1cd4899aa80cabb2d4b9aaf",
            "type": "ADD_SNIPPET",
            "codeSnippet": "if(kony.newCARD.applyCardsOption === true){\n  frmApplyNewCardsKA.show();\n  kony.newCARD.applyCardsOption = false;\n}else if(kony.application.getPreviousForm().id === \"frmCardLinkedAccounts\"){\n  frmCardLinkedAccounts.show();\n}else if(gblTModule == \"AccNumberStatement\"){\n  onClickAccBackToReqStmntScreen();\n}else if(gblTModule == \"AccountOrder\"){\n  onClickAccBackToOrderCheckBookScreen();\n}else if(gblTModule === \"BillPrePayNewBillKA\"){\n\tfrmPrePaidPayeeDetailsKA.show();\n}else{\nbackFromAccDetails();\n}",
            "parentId": null,
            "callbackType": null
        }]
    }
}