{
    "AS_Form_a316b8a48b0e4227993d47f419034596": {
        "id": "AS_Form_a316b8a48b0e4227993d47f419034596",
        "type": "ACTION_SEQUENCE",
        "name": "didTapDeviceBackISaver",
        "params": [{
            "datatype": "collection",
            "name": "eventobject"
        }],
        "contextObj": {
            "name": "frmSmartInfo",
            "type": "forms",
            "platform": "",
            "KUID": "hbc8e1f50349469c98875dd068ab58ff"
        },
        "language": "js",
        "actions": [{
            "id": "ADD_SNIPPET__h237d939087349159292958f95cc1622",
            "type": "ADD_SNIPPET",
            "codeSnippet": "//Omar Alnajjar\n if (gblTModule === \"newSubAccount\") {\n        frmNewSubAccountLandingNew.show();\n    } else if (gblTModule === \"accountInfo\") {\n        frmAccountInfoKA.show();\n    }\n    gblTModule = \"\";",
            "parentId": null,
            "callbackType": null
        }]
    }
}