{
    "AS_Form_46436bbe18f84abe9f63a73e3230bcb7": {
        "id": "AS_Form_46436bbe18f84abe9f63a73e3230bcb7",
        "type": "ACTION_SEQUENCE",
        "name": "frmAccountDetailKAedeviceback",
        "params": [{
            "datatype": "collection",
            "name": "eventobject"
        }],
        "contextObj": {
            "name": "frmAccountDetailKA",
            "type": "forms",
            "platform": "",
            "KUID": "5ed703cad63c441882fc4a36f5ea0c28"
        },
        "language": "js",
        "actions": [{
            "id": "ADD_SNIPPET__03e4499cd5724527aafc371ece69ab17",
            "type": "ADD_SNIPPET",
            "codeSnippet": "//Nart Rawashdeh 09/12/2020 <<\nif (frmAccountInfoKA.flxSSCInformation.isVisible === true){\n  frmAccountInfoKA.flxTabsWrapper.setVisibility = true;\n  frmAccountInfoKA.imgDivSett.setVisibility = true;\n  frmAccountInfoKA.flxAccountOptions.setVisibility = true;\n  frmAccountInfoKA.lblLoanAccountInfo.text = geti18Value(\"i18n.accounts.accounts\");\n  frmAccountInfoKA.flxSSCInformation.setVisibility = false;\n  //>>\n}else{\n  frmAccountsLandingKA.flxAccountsMain.setVisibility(true);\n  frmAccountsLandingKA.flxDeals.setVisibility(false);\n  frmAccountsLandingKA.flxLoans.setVisibility(false);\n  frmAccountsLandingKA.forceLayout();\n  kony.retailBanking.globalData.globals.accountDashboardFlowFlag = false;\n  if(frmAccountDetailKA.flxAccountdetailsSortContainer.top != \"100%\"){\n    animatePopup_Sort();\n  }\n  frmAccountDetailKA.imgSortDateAsc.src = \"map_arrow_straight_nonselected.png\";\n  frmAccountDetailKA.imgSortDateDesc.src = \"map_arrow_down_nonselected.png\";\n  frmAccountDetailKA.imgSortAmountAsc.src = \"map_arrow_straight_nonselected.png\";\n  frmAccountDetailKA.imgSortAmountDesc.src = \"map_arrow_down_nonselected.png\";\n  accountDashboardDataCall();\n  kony.print(\"Nav transaction to Dadhboard:::\");\n}",
            "parentId": null,
            "callbackType": null
        }]
    }
}