{
    "AS_Form_f2a58088805c4dd5a6f92dea41c52f99": {
        "id": "AS_Form_f2a58088805c4dd5a6f92dea41c52f99",
        "type": "ACTION_SEQUENCE",
        "name": "frmMinimumBalanceDeviceBack",
        "params": [{
            "datatype": "collection",
            "name": "eventobject"
        }],
        "contextObj": {
            "type": "forms",
            "platform": "",
            "KUID": "e24ed7ff632944baa75827eec8b1cee3"
        },
        "language": "js",
        "actions": [{
            "id": "ADD_SNIPPET__803bf701d27f4501b6940bc06bc0cd74",
            "type": "ADD_SNIPPET",
            "codeSnippet": "kony.print(\"Device Back\");",
            "parentId": null,
            "callbackType": null
        }]
    }
}