{
    "AS_FlexContainer_c3ccd85e19cf48c380dacaa90428a952": {
        "id": "AS_FlexContainer_c3ccd85e19cf48c380dacaa90428a952",
        "type": "ACTION_SEQUENCE",
        "name": "frmsetPinSwitchOff",
        "params": [{
            "datatype": "collection",
            "name": "eventobject"
        }],
        "contextObj": {
            "name": "frmUserSettingsPinLoginKA",
            "type": "forms",
            "platform": null,
            "KUID": "d6efcea46d734da8bf7a8f21578e100d"
        },
        "language": "js",
        "actions": [{
            "id": "ADD_SNIPPET_ide_onClick_de9619c5c4c24f8e8c67457f91534968",
            "type": "ADD_SNIPPET",
            "codeSnippet": "//frmsetPinSwitchOff();\n frmPinEntryStep1.show();\nkony.print(\"THis is \");"
        }]
    }
}