{
    "AS_Form_411f50f685894841a41572b35df2d83e": {
        "id": "AS_Form_411f50f685894841a41572b35df2d83e",
        "type": "ACTION_SEQUENCE",
        "name": "frmUnauthForgotUsernamePasswordKAdeviceback",
        "params": [{
            "datatype": "collection",
            "name": "eventobject"
        }],
        "contextObj": {
            "type": "forms",
            "platform": "",
            "KUID": "c38d4ade0023473db64baa102ba6dd38"
        },
        "language": "js",
        "actions": [{
            "id": "ADD_SNIPPET__8868f0e78ad849ba904a68920dfc20a1",
            "type": "ADD_SNIPPET",
            "codeSnippet": "kony.print(\"Device Back\");",
            "parentId": null,
            "callbackType": null
        }]
    }
}