{
    "AS_Button_9fbdb8686dfa429ba75a256de5844643": {
        "id": "AS_Button_9fbdb8686dfa429ba75a256de5844643",
        "type": "ACTION_SEQUENCE",
        "name": "iosBackButtonClick",
        "params": [{
            "datatype": "collection",
            "name": "eventobject"
        }],
        "contextObj": {
            "name": "frmUserSettingsMyProfileKA",
            "type": "forms",
            "platform": "",
            "KUID": "469d331305a541b8b65c6d8bdf903828"
        },
        "language": "js",
        "actions": [{
            "id": "ADD_SNIPPET__bd7f89816bc14a57a5c380c9bf1ad2fd",
            "type": "ADD_SNIPPET",
            "codeSnippet": "if(frmUserSettingsMyProfileKA.lblEditProfile.text == \"Save\"){\n\tfrmUserSettingsMyProfileKA.flxProfileEdit.isVisible = false;\n\tfrmUserSettingsMyProfileKA.mainContent.isVisible = true;\n    frmUserSettingsMyProfileKA.lblEditProfile.text = \"Edit\";\n}else{\n\tfrmSettingsKA.show();\n}",
            "parentId": null
        }]
    }
}