{
    "AS_Button_jb1f26bf82a349158fc8f47d8e2ea7f1": {
        "id": "AS_Button_jb1f26bf82a349158fc8f47d8e2ea7f1",
        "type": "ACTION_SEQUENCE",
        "name": "NavigatetoOwnTransfersScreen",
        "params": [{
            "datatype": "collection",
            "name": "eventobject"
        }],
        "contextObj": {
            "name": "frmPaymentDashboard",
            "type": "forms",
            "platform": "",
            "KUID": "j5584f57cd764e66adb4087c6fc15f67"
        },
        "language": "js",
        "actions": [{
            "id": "ADD_SNIPPET__d04b2cb544744085b6fb7b3c8a6fb72d",
            "type": "ADD_SNIPPET",
            "codeSnippet": "gblTModule=\"own\";\ngetAllAccounts();",
            "parentId": null,
            "callbackType": null
        }]
    }
}