{
    "AS_Label_dbff6c18e44d4e3fb2ffe3aaa62c1623": {
        "id": "AS_Label_dbff6c18e44d4e3fb2ffe3aaa62c1623",
        "type": "ACTION_SEQUENCE",
        "name": "nextFromBillDetailsScreen",
        "params": [{
            "datatype": "collection",
            "name": "eventobject"
        }, {
            "datatype": "string",
            "name": "x"
        }, {
            "datatype": "string",
            "name": "y"
        }],
        "contextObj": {
            "name": "frmNewBillDetails",
            "type": "forms",
            "platform": null,
            "KUID": "c2132c3b91ec4677ab952b729de9fc0e"
        },
        "language": "js",
        "actions": [{
            "id": "ADD_SNIPPET_ide_onTouchStart_d15dccebcf5a447db3372aef86c5f90d",
            "type": "ADD_SNIPPET",
            "codeSnippet": "if(validate_SufficientBalance()){\n  if(gblQuickFlow === \"post\"){\n    if (validate_MINMAXAMOUNTBILLPAYMENT() === \"min\") {\n      var minAmount = \"\";\n      minAmount = geti18Value(\"i18n.billPaymentminAmount\") + \" (\" + frmNewBillDetails.minAmount.text + \")\";\n      customAlertPopup(geti18Value(\"i18n.maps.Info\"), minAmount, popupCommonAlertDimiss, \"\");\n    } else if (validate_MINMAXAMOUNTBILLPAYMENT() === \"max\") {\n      var maxAmount = \"\";\n      maxAmount = geti18Value(\"i18n.billPaymentmaxAmount\") + \" (\" + frmNewBillDetails.maxAmount.text + \")\";\n      customAlertPopup(geti18Value(\"i18n.maps.Info\"), maxAmount, popupCommonAlertDimiss, \"\");\n    } else{\n      var x =nextFromNewDetailsScreen();\n      if(x==1)\n      {\n        assignDatatoConfirmPostpaid();\n        if(frmNewBillDetails.btnBillsPayCards.text === \"s\"){\n        \tserv_BILLSCOMISSIONCHARGE(frmNewBillDetails.tbxAmount.text.replace(/,/g,\"\"));\n        }else if(frmNewBillDetails.btnBillsPayCards.text === \"t\"){\n        \tfrmConfirmPayBill.show();\n        }\n    //     nextfrmPostPaidQuickPay();\n      }\n      else{\n\n      }\n    }\n  }\n  else{\n    if(frmNewBillDetails.btnBillsPayCards.text === \"s\")\n    \tserv_BILLSCOMISSIONCHARGE(frmNewBillKA.tbxAmount.text.replace(/,/g,\"\"));\n  //   nextfrmPrePaidQuickPay();\n    assignDatatoConfirmPrepaid();\n  }\n  QuickFlowprev = \"now\";\n}else{\n\tcustomAlertPopup(geti18Value(\"i18n.maps.Info\"), geti18Value(\"i18n.error.InsufficientFundInAccount\"), popupCommonAlertDimiss, \"\");\n}",
            "callbackType": null
        }]
    }
}