{
    "AS_TextField_c0d84383f6894df280a312a783fd0d9e": {
        "id": "AS_TextField_c0d84383f6894df280a312a783fd0d9e",
        "type": "ACTION_SEQUENCE",
        "name": "onBeginEditingUsernameLangAndroid",
        "params": [{
            "datatype": "collection",
            "name": "eventobject"
        }, {
            "datatype": "string",
            "name": "changedtext"
        }],
        "language": "js",
        "actions": [{
            "id": "ADD_SNIPPET_ide_onBeginEditing_a69c35c9ab1f4a5aa363308b59637424",
            "type": "ADD_SNIPPET",
            "codeSnippet": "frmLanguageChange.borderBottom.skin=\"skntextFieldDividerBlue\";\n//animateLabel(\"UP\",\"lblUserName\",frmLoginKA.tbxusernameTextField.text);",
            "callbackType": null
        }]
    }
}