{
    "AS_Label_ae3e6aa00e904163ab907f819f92eed5": {
        "id": "AS_Label_ae3e6aa00e904163ab907f819f92eed5",
        "type": "ACTION_SEQUENCE",
        "name": "onclickLoanBackIcon",
        "params": [{
            "datatype": "collection",
            "name": "eventobject"
        }, {
            "datatype": "string",
            "name": "x"
        }, {
            "datatype": "string",
            "name": "y"
        }],
        "contextObj": {
            "name": "frmAccountDetailKA",
            "type": "forms",
            "platform": "",
            "KUID": "5ed703cad63c441882fc4a36f5ea0c28"
        },
        "language": "js",
        "actions": [{
            "id": "ADD_SNIPPET__jd7645b2d2b748a287002eabe0769942",
            "type": "ADD_SNIPPET",
            "codeSnippet": "loansAnimation();\nfrmAccountsLandingKA.show();",
            "parentId": null,
            "callbackType": null
        }]
    }
}