{
    "AS_Button_f5c20349799a48c29aa3aafe1ad1a254": {
        "id": "AS_Button_f5c20349799a48c29aa3aafe1ad1a254",
        "type": "ACTION_SEQUENCE",
        "name": "onclickcitydropdownRegJP",
        "params": [{
            "datatype": "collection",
            "name": "eventobject"
        }],
        "contextObj": {
            "name": "frmJoMoPayRegistration",
            "type": "forms",
            "platform": null,
            "KUID": "h0b4f51069c74c7bbbbd6798301d77d6"
        },
        "language": "js",
        "actions": [{
            "id": "ADD_SNIPPET__ac45f786f2c64cb7931e9918a1372be9",
            "type": "ADD_SNIPPET",
            "codeSnippet": "kony.print(\"onclick of city\"+kony.i18n.getLocalizedString(\"i18n.jomopay.selectcountry\"));\nif(frmJoMoPayRegistration.lblCountry.text!== kony.i18n.getLocalizedString(\"i18n.jomopay.selectcountry\"))\n{\n  kony.boj.showCountryorCity(\"City\", \"lblCity\",frmJoMoPayRegistration.lblCountryCode.text);\n}",
            "parentId": null,
            "callbackType": null
        }]
    }
}