{
    "AS_Button_9d12c962e6df41aca05be904491a01e3": {
        "id": "AS_Button_9d12c962e6df41aca05be904491a01e3",
        "type": "ACTION_SEQUENCE",
        "name": "onclickbtnbackmanagepayeeland",
        "params": [{
            "datatype": "collection",
            "name": "eventobject"
        }],
        "contextObj": {
            "type": "forms",
            "platform": "",
            "KUID": "44daf1a4ec9741588d44f98b878a7745"
        },
        "language": "js",
        "actions": [{
            "id": "ADD_SNIPPET__fab43fa98dd9442e8e5f33328db8d326",
            "type": "ADD_SNIPPET",
            "codeSnippet": "kony.print(\"Removed\");",
            "parentId": null,
            "callbackType": null
        }]
    }
}