{
    "AS_Button_1512470bb2c44cea957d246a1890655d": {
        "id": "AS_Button_1512470bb2c44cea957d246a1890655d",
        "type": "ACTION_SEQUENCE",
        "name": "onclicktitlebarback",
        "params": [{
            "datatype": "collection",
            "name": "eventobject"
        }],
        "language": "js",
        "actions": [{
            "id": "ADD_SNIPPET_ide_onClick_dcbaa77dbe834f3aa90524dd6f9ae0d7",
            "type": "ADD_SNIPPET",
            "codeSnippet": "onclickbackenrolluserbtn();",
            "callbackType": null
        }]
    }
}