{
    "AS_Label_b28c9cf6b90049aea88d64bac4c1c0a6": {
        "id": "AS_Label_b28c9cf6b90049aea88d64bac4c1c0a6",
        "type": "ACTION_SEQUENCE",
        "name": "onclickDealBack",
        "params": [{
            "datatype": "collection",
            "name": "eventobject"
        }, {
            "datatype": "string",
            "name": "x"
        }, {
            "datatype": "string",
            "name": "y"
        }],
        "contextObj": {
            "name": "frmAccountDetailKA",
            "type": "forms",
            "platform": "",
            "KUID": "5ed703cad63c441882fc4a36f5ea0c28"
        },
        "language": "js",
        "actions": [{
            "id": "ADD_SNIPPET__g6ec514fcbd54bebab7342492a588cfb",
            "type": "ADD_SNIPPET",
            "codeSnippet": " dealsAnimation();\nfrmAccountsLandingKA.show();",
            "parentId": null,
            "callbackType": null
        }]
    }
}