{
    "AS_Button_b415de7d36b640b980a9069e59bfb302": {
        "id": "AS_Button_b415de7d36b640b980a9069e59bfb302",
        "type": "ACTION_SEQUENCE",
        "name": "onclickbtnList",
        "params": [{
            "datatype": "collection",
            "name": "eventobject"
        }],
        "language": "js",
        "actions": [{
            "id": "ADD_SNIPPET_ide_onClick_dd75861a7b0145d8810effcf0163ec75",
            "type": "ADD_SNIPPET",
            "codeSnippet": "locatorListViewEnabledAnimate();"
        }]
    }
}