{
    "AS_Button_f93e56f50dc44568abd93a498b7a5c9d": {
        "id": "AS_Button_f93e56f50dc44568abd93a498b7a5c9d",
        "type": "ACTION_SEQUENCE",
        "name": "onClickFavCheckBoxJomopayAddBiller",
        "params": [{
            "datatype": "collection",
            "name": "eventobject"
        }],
        "contextObj": {
            "name": "frmJOMOPayAddBiller",
            "type": "forms",
            "platform": null,
            "KUID": "df7e7935cb6a4e5c8a9dad110f300c3c"
        },
        "language": "js",
        "actions": [{
            "id": "ADD_SNIPPET__c2c256488d8245b0bc7032e38a1366b2",
            "type": "ADD_SNIPPET",
            "codeSnippet": "if(frmJOMOPayAddBiller.btnFavCheckBox.text === \"q\")\n\tfrmJOMOPayAddBiller.btnFavCheckBox.text = \"p\";\nelse\n\tfrmJOMOPayAddBiller.btnFavCheckBox.text = \"q\";",
            "parentId": null,
            "callbackType": null
        }]
    }
}