{
    "AS_FlexContainer_hc97617fc9e24c2eb00884546e9b6557": {
        "id": "AS_FlexContainer_hc97617fc9e24c2eb00884546e9b6557",
        "type": "ACTION_SEQUENCE",
        "name": "onClickCardStatementSortDateAscending",
        "params": [{
            "datatype": "collection",
            "name": "eventobject"
        }],
        "language": "js",
        "actions": [{
            "id": "ADD_SNIPPET__f48accd02ef542b8905b7e8e0c8121d3",
            "type": "ADD_SNIPPET",
            "codeSnippet": "accountInfoSorting(frmCardStatementKA.imgSortDateAsc,\"Date\",\"ascending\");",
            "parentId": null,
            "callbackType": null
        }]
    }
}