{
    "AS_FlexContainer_ic7e4cea21c74b4f86db0d81e3105511": {
        "id": "AS_FlexContainer_ic7e4cea21c74b4f86db0d81e3105511",
        "type": "ACTION_SEQUENCE",
        "name": "onClickDevice1DeRegistration",
        "params": [{
            "datatype": "collection",
            "name": "eventobject"
        }],
        "contextObj": {
            "name": "frmDeviceRegistration",
            "type": "forms",
            "platform": "",
            "KUID": "d3f5bb6d97f641aa9040a4a3bbbb5f11"
        },
        "language": "js",
        "actions": [{
            "id": "ADD_SNIPPET__ha76d93ba95e40c49fe3779fa56c0f72",
            "type": "ADD_SNIPPET",
            "codeSnippet": "// frmDeviceRegistration.flxThisDeviceSwitchOn.isVisible = false;\n// frmDeviceRegistration.flxThisDeviceSwitchOff.isVisible = true;\nonSelection_deviceDeregistration(frmDeviceRegistration.lblDeviceTitle1.text, frmDeviceRegistration.flxDevice1);",
            "parentId": null
        }]
    }
}