{
    "AS_Button_c0d38695780f4d85be603425d748fd93": {
        "id": "AS_Button_c0d38695780f4d85be603425d748fd93",
        "type": "ACTION_SEQUENCE",
        "name": "onClickRequestNewSubAccount",
        "params": [{
            "datatype": "collection",
            "name": "eventobject"
        }],
        "language": "js",
        "actions": [{
            "id": "ADD_SNIPPET_ide_onClick_ea433107c50845a281211b87ea22c022",
            "type": "ADD_SNIPPET",
            "codeSnippet": "frmNewSubAccountLandingNew.lblNext.skin = \"sknLblNextDisabled\";\nfrmNewSubAccountLandingNew.lblFre.text = geti18Value(\"i18n.common.accountType\");\nfrmNewSubAccountLandingNew.lblCurr.text = geti18Value(\"i18n.common.currencyType\");\nfrmNewSubAccountConfirm.lblCheck1.text = \"q\";\nfrmNewSubAccountLandingNew.lblFrequency.setVisibility(false);\nfrmNewSubAccountLandingNew.lblCurrHead.setVisibility(false);\nfrmNewSubAccountLandingNew.lblLine4.skin = \"sknFlxGreyLine\"\nfrmNewSubAccountLandingNew.CopylblLine0ib1721fa6b7140.skin = \"sknFlxGreyLine\";\nfrmNewSubAccountLandingNew.show();",
            "callbackType": null
        }]
    }
}