{
    "AS_FlexContainer_ef03458b73b84837ac1ebb70d703cca1": {
        "id": "AS_FlexContainer_ef03458b73b84837ac1ebb70d703cca1",
        "type": "ACTION_SEQUENCE",
        "name": "onClickOpenURL",
        "params": [{
            "datatype": "collection",
            "name": "eventobject"
        }],
        "contextObj": {
            "name": "frmInformationKA",
            "type": "forms",
            "platform": "",
            "KUID": "f18169832ba24ba09c8780278abfc207"
        },
        "language": "js",
        "actions": [{
            "id": "ADD_SNIPPET__db4724ff8cdb4c34a4372b078f63749b",
            "type": "ADD_SNIPPET",
            "codeSnippet": "openURLHomePage();",
            "parentId": null,
            "callbackType": null
        }]
    }
}