{
    "AS_FlexContainer_d80a55cbd1e44e3c9cabc4411967d21c": {
        "id": "AS_FlexContainer_d80a55cbd1e44e3c9cabc4411967d21c",
        "type": "ACTION_SEQUENCE",
        "name": "onClickSMSONSettings",
        "params": [{
            "datatype": "collection",
            "name": "eventobject"
        }],
        "contextObj": {
            "name": "frmSettingsKA",
            "type": "forms",
            "platform": "",
            "KUID": "hb0fb66c0c224ed284a1334d78669bfa"
        },
        "language": "js",
        "actions": [{
            "id": "ADD_SNIPPET__e185cbd86c6e44d99cf847758940b37e",
            "type": "ADD_SNIPPET",
            "codeSnippet": "onselection_ALERTANDNOTIFICATIONTOGGLE(\"SMS\");",
            "parentId": null,
            "callbackType": null
        }]
    }
}