{
    "AS_Button_g000e7df4b70472eb1a347e2921be6fe": {
        "id": "AS_Button_g000e7df4b70472eb1a347e2921be6fe",
        "type": "ACTION_SEQUENCE",
        "name": "onClickCardsBillPayment",
        "params": [{
            "datatype": "collection",
            "name": "eventobject"
        }],
        "language": "js",
        "actions": [{
            "id": "ADD_SNIPPET_ide_onClick_h6f87c02fb594a738604e85d4e6af91a",
            "type": "ADD_SNIPPET",
            "codeSnippet": "onChangingradioBtnNewBillKA(frmNewBillKA.btnBillsPayCards,frmNewBillKA.lblBillsPayCards.text);",
            "callbackType": null
        }]
    }
}