{
    "AS_Button_dc52f72c706648c08e3a41820daf1760": {
        "id": "AS_Button_dc52f72c706648c08e3a41820daf1760",
        "type": "ACTION_SEQUENCE",
        "name": "onClickNextCardLinkedAccounts",
        "params": [{
            "datatype": "collection",
            "name": "eventobject"
        }],
        "contextObj": {
            "name": "frmCardLinkedAccounts",
            "type": "forms",
            "platform": "",
            "KUID": "a036636d51ec418ca68edd197df523c6"
        },
        "language": "js",
        "actions": [{
            "id": "ADD_SNIPPET__j4f0acf6d60e498aac265cf712c08eb5",
            "type": "ADD_SNIPPET",
            "codeSnippet": "if(frmCardLinkedAccounts.btnNext.skin !== \"jomopaynextDisabled\")\nnavigate_CARD_ACCOUNT_LINK_CONFIRM();",
            "parentId": null,
            "callbackType": null
        }]
    }
}