{
    "AS_Button_d80742e86f584c558b5a3df3b7ea1d81": {
        "id": "AS_Button_d80742e86f584c558b5a3df3b7ea1d81",
        "type": "ACTION_SEQUENCE",
        "name": "onClickUpgradeCreditCard",
        "params": [{
            "datatype": "collection",
            "name": "eventobject"
        }],
        "contextObj": {
            "name": "frmApplyNewCardsKA",
            "type": "forms",
            "platform": "",
            "KUID": "a05ce8d2e4404e40bfbc8dad585d28dc"
        },
        "language": "js",
        "actions": [{
            "id": "ADD_SNIPPET__ife395c20f714b9e822ac4b9204825cd",
            "type": "ADD_SNIPPET",
            "codeSnippet": "onClick_RADIOBUTTON_APPLYNEWCARDSTYPE(frmApplyNewCardsKA.btnUpgradeCreditCard,frmApplyNewCardsKA.lblUpgradeCreditCardTitle,\"UpgradeCreditCard\");",
            "parentId": null
        }]
    }
}