{
    "AS_Button_ad1a22517f8647b89a973648e1e7c0a7": {
        "id": "AS_Button_ad1a22517f8647b89a973648e1e7c0a7",
        "type": "ACTION_SEQUENCE",
        "name": "onClickRelationshipTypeApplyCards",
        "params": [{
            "datatype": "collection",
            "name": "eventobject"
        }],
        "contextObj": {
            "name": "frmApplyNewCardsKA",
            "type": "forms",
            "platform": "",
            "KUID": "a05ce8d2e4404e40bfbc8dad585d28dc"
        },
        "language": "js",
        "actions": [{
            "id": "ADD_SNIPPET__i43b0f82ff094181997de76a7915991f",
            "type": "ADD_SNIPPET",
            "codeSnippet": "onChoose_OPTIONS_APPLYNEWCARDS(\"RelationShip\");",
            "parentId": null
        }]
    }
}