{
    "AS_FlexContainer_dfbacc341e6a472a86e64ea72fa7408a": {
        "id": "AS_FlexContainer_dfbacc341e6a472a86e64ea72fa7408a",
        "type": "ACTION_SEQUENCE",
        "name": "onClickFilterBack",
        "params": [{
            "datatype": "collection",
            "name": "eventobject"
        }],
        "contextObj": {
            "name": "frmFilterTransaction",
            "type": "forms",
            "platform": null,
            "KUID": "ff5ea79e22414b03ba4cca716d18a58c"
        },
        "language": "js",
        "actions": [{
            "id": "IF_CONDITION__he2c59b40124436ba4a3716b6fa39135",
            "type": "IF_CONDITION",
            "conditions": [{
                "leftValueType": "expression",
                "leftValue": "frmFilterTransaction.flxDatePicker.isVisible == true"
            }],
            "parentId": null,
            "criteria": "all"
        }, {
            "id": "ADD_SNIPPET__bbc5f827c07048a1b5a5a1a1a5b4110d",
            "type": "ADD_SNIPPET",
            "codeSnippet": "clearForm.filterTransactions();\nfrmFilterTransaction.flxDatePicker.isVisible = false;\nfrmFilterTransaction.flxFilterTransaction.isVisible = true;\nfrmFilterTransaction.lblFilterHeader.text = kony.i18n.getLocalizedString(\"i18n.FilterTransaction\");",
            "parentId": "IF_CONDITION__he2c59b40124436ba4a3716b6fa39135",
            "callbackType": null
        }, {
            "id": "ELSE_IF_CONDITION__a53aa53a6a6d4544984d0b0f6932d944",
            "type": "ELSE_IF_CONDITION",
            "conditions": [{
                "leftValueType": "expression",
                "leftValue": "frmFilterTransaction.flxFilterTransaction.isVisible == true || frmFilterTransaction.flxCardsFilterScreen.isVisible == true"
            }],
            "parentId": null,
            "criteria": "all"
        }, {
            "id": "ADD_SNIPPET__j903cd74619141f78bc9cf8f6ec989c6",
            "type": "ADD_SNIPPET",
            "codeSnippet": "kony.application.getPreviousForm().show();\nclearForm.filterTransactions();",
            "parentId": "ELSE_IF_CONDITION__a53aa53a6a6d4544984d0b0f6932d944",
            "callbackType": null
        }]
    }
}