{
    "AS_Button_g49eb981ff5a4833a8b1dd5a9ead9062": {
        "id": "AS_Button_g49eb981ff5a4833a8b1dd5a9ead9062",
        "type": "ACTION_SEQUENCE",
        "name": "onClickReasonApplyCards",
        "params": [{
            "datatype": "collection",
            "name": "eventobject"
        }],
        "contextObj": {
            "name": "frmApplyNewCardsKA",
            "type": "forms",
            "platform": "",
            "KUID": "a05ce8d2e4404e40bfbc8dad585d28dc"
        },
        "language": "js",
        "actions": [{
            "id": "ADD_SNIPPET__j794da71ab7e427e8f48caf82e88455d",
            "type": "ADD_SNIPPET",
            "codeSnippet": "onChoose_OPTIONS_APPLYNEWCARDS(\"Reason\");",
            "parentId": null
        }]
    }
}