{
    "AS_FlexContainer_j47f48a17e4a40e983dbf82d04a858c3": {
        "id": "AS_FlexContainer_j47f48a17e4a40e983dbf82d04a858c3",
        "type": "ACTION_SEQUENCE",
        "name": "onClickBackEcommerceLimit",
        "params": [{
            "datatype": "collection",
            "name": "eventobject"
        }],
        "contextObj": {
            "name": "frmEnableInternetTransactionKA",
            "type": "forms",
            "platform": "",
            "KUID": "fc2ebd4d755e4e999be8a252c972d865"
        },
        "language": "js",
        "actions": [{
            "id": "ADD_SNIPPET__if6db07a13794aa288c587633d5bcae9",
            "type": "ADD_SNIPPET",
            "codeSnippet": "frmManageCardsKA.show();\nreset_ECOMMERECELIMIT();",
            "parentId": null,
            "callbackType": null
        }]
    }
}