{
    "AS_Button_i2c92883041d44448c155f46ca5079cd": {
        "id": "AS_Button_i2c92883041d44448c155f46ca5079cd",
        "type": "ACTION_SEQUENCE",
        "name": "onClickInterestPaymentRadio",
        "params": [{
            "name": "eventobject",
            "datatype": "collection"
        }],
        "contextObj": {
            "name": "frmLoanPostpone",
            "type": "forms",
            "platform": "",
            "KUID": "c4f50ee093794ef7af792ffce1e5562c"
        },
        "language": "js",
        "actions": [{
            "id": "ADD_SNIPPET__a204c7d1f1f348998eb5ec1395ca2265",
            "type": "ADD_SNIPPET",
            "codeSnippet": "if(eventobject.id === \"btnEndOfLoan\"){\n\tradio_SELECTION_INTEREST_PAYMENT(frmLoanPostpone.btnEndOfLoan, frmLoanPostpone.btnCurLoanInst, 1);\n}else if(eventobject.id === \"btnCurLoanInst\"){\n\tradio_SELECTION_INTEREST_PAYMENT(frmLoanPostpone.btnEndOfLoan, frmLoanPostpone.btnCurLoanInst, 2);\n}",
            "parentId": null,
            "callbackType": null
        }]
    }
}