{
    "AS_FlexContainer_abc206f23580434a84e1b52f3ffd47f6": {
        "id": "AS_FlexContainer_abc206f23580434a84e1b52f3ffd47f6",
        "type": "ACTION_SEQUENCE",
        "name": "onClickBackTransferStatus",
        "params": [{
            "datatype": "collection",
            "name": "eventobject"
        }],
        "contextObj": {
            "name": "frmTransferStatus",
            "type": "forms",
            "platform": "",
            "KUID": "cb53baea48874043a47d535a2e20ccc3"
        },
        "language": "js",
        "actions": [{
            "id": "ADD_SNIPPET__jac4e778635245a78fe5f3cd844e7abe",
            "type": "ADD_SNIPPET",
            "codeSnippet": "frmShowAllBeneficiary.show();",
            "parentId": null,
            "callbackType": null
        }]
    }
}