{
    "AS_FlexContainer_f6aefc44f27c4e10a410f254b8e1507f": {
        "id": "AS_FlexContainer_f6aefc44f27c4e10a410f254b8e1507f",
        "type": "ACTION_SEQUENCE",
        "name": "onClickSortAmountDesc",
        "params": [{
            "datatype": "collection",
            "name": "eventobject"
        }],
        "contextObj": {
            "name": "frmAccountDetailKA",
            "type": "forms",
            "platform": "",
            "KUID": "5ed703cad63c441882fc4a36f5ea0c28"
        },
        "language": "js",
        "actions": [{
            "id": "INVOKE_FUNCTION___b7830b5478f34261a50789f2465e5f74",
            "type": "INVOKE_FUNCTION",
            "sequenceKUID": "accountInfoSorting",
            "display": "accountInfoSorting",
            "inputparams": [{
                "name": "widget",
                "value": "frmAccountDetailKA.imgSortAmountDesc"
            }, {
                "name": "sortby",
                "value": "\"Amount\""
            }, {
                "name": "type",
                "value": "\"descending\""
            }],
            "parentId": null,
            "callbackType": null,
            "disabled": null,
            "source": "module"
        }]
    }
}