{
    "AS_Form_j00a04e33cfc487d97e3fe005c85245e": {
        "id": "AS_Form_j00a04e33cfc487d97e3fe005c85245e",
        "type": "ACTION_SEQUENCE",
        "name": "onDeviceBackInEmailForm",
        "params": [{
            "datatype": "collection",
            "name": "eventobject"
        }],
        "contextObj": {
            "type": "forms",
            "platform": "",
            "KUID": "i2216dbab50146c68fa5b602e7af210e"
        },
        "language": "js",
        "actions": [{
            "id": "ADD_SNIPPET__c6766b022a3c4958a266a37afce75828",
            "type": "ADD_SNIPPET",
            "codeSnippet": "kony.print(\"Deleted\");\n",
            "parentId": null,
            "callbackType": null
        }]
    }
}