{
    "AS_Form_e26b285a21c2468a9c0e43de55e12450": {
        "id": "AS_Form_e26b285a21c2468a9c0e43de55e12450",
        "type": "ACTION_SEQUENCE",
        "name": "onDeviceBackJomoPayReg",
        "params": [{
            "datatype": "collection",
            "name": "eventobject"
        }],
        "contextObj": {
            "name": "frmJoMoPayRegistration",
            "type": "forms",
            "platform": "",
            "KUID": "h0b4f51069c74c7bbbbd6798301d77d6"
        },
        "language": "js",
        "actions": [{
            "id": "ADD_SNIPPET__dd7ee97fd71742fca96828600905ddd3",
            "type": "ADD_SNIPPET",
            "codeSnippet": "glbJmpFlow = \"dash\";\nfrmJoMoPayLanding.show();\n//frmJoMoPayRegistration.destroy();",
            "parentId": null,
            "callbackType": null
        }]
    }
}