{
    "AS_Form_f3e74f20c7d146a29d65cb85ed408a20": {
        "id": "AS_Form_f3e74f20c7d146a29d65cb85ed408a20",
        "type": "ACTION_SEQUENCE",
        "name": "onDeviceBackJomopayRegistrationCountry",
        "params": [{
            "datatype": "collection",
            "name": "eventobject"
        }],
        "contextObj": {
            "name": "frmJomopayRegCountry",
            "type": "forms",
            "platform": "",
            "KUID": "d51a5c7093c94271abefd2f2ca149349"
        },
        "language": "js",
        "actions": [{
            "id": "ADD_SNIPPET__d6d1dfa749184ac29c30c660168bf2b7",
            "type": "ADD_SNIPPET",
            "codeSnippet": "frmJoMoPayRegistration.show();",
            "parentId": null,
            "callbackType": null
        }]
    }
}