{
    "AS_TextField_i319f55c90e64987809e0d624052414b": {
        "id": "AS_TextField_i319f55c90e64987809e0d624052414b",
        "type": "ACTION_SEQUENCE",
        "name": "onEndEditingofamounttextboxandroidJomopay",
        "params": [{
            "datatype": "collection",
            "name": "eventobject"
        }, {
            "datatype": "string",
            "name": "changedtext"
        }],
        "contextObj": {
            "name": "frmJoMoPay",
            "type": "forms",
            "platform": "",
            "KUID": "d41a38dfc97d4e0a8f3b1db96d6a1ca0"
        },
        "language": "js",
        "actions": [{
            "id": "ADD_SNIPPET__iba7ffd0fe4e4cfda4e7dd45719dad5a",
            "type": "ADD_SNIPPET",
            "codeSnippet": "onendediting();",
            "parentId": null,
            "callbackType": null
        }]
    }
}