{
    "AS_Button_h9797b3d02094bdc980bd4a397ffde5f": {
        "id": "AS_Button_h9797b3d02094bdc980bd4a397ffde5f",
        "type": "ACTION_SEQUENCE",
        "name": "onIOSBackfrmUserSettingsFaceIDKA",
        "params": [{
            "datatype": "collection",
            "name": "eventobject"
        }],
        "contextObj": {
            "type": "forms",
            "platform": "",
            "KUID": "h33d1f3b10e240a5905eff93ee52b623"
        },
        "language": "js",
        "actions": [{
            "id": "ADD_SNIPPET__d4ba4ac50c7941b886567f90625e874a",
            "type": "ADD_SNIPPET",
            "codeSnippet": "kony.print(\"Removed\");",
            "parentId": null,
            "callbackType": null
        }]
    }
}