{
    "AS_RadioButtonGroup_e9244858028041fb888f52ac92a9f887": {
        "id": "AS_RadioButtonGroup_e9244858028041fb888f52ac92a9f887",
        "type": "ACTION_SEQUENCE",
        "name": "onSelectionRadioBtn",
        "params": [{
            "datatype": "collection",
            "name": "eventobject"
        }],
        "contextObj": {
            "name": "frmNewBillDetails",
            "type": "forms",
            "platform": "",
            "KUID": "c2132c3b91ec4677ab952b729de9fc0e"
        },
        "language": "js",
        "actions": [{
            "id": "ADD_SNIPPET__e7a5f39be7d84d2890d300f477c7ce6d",
            "type": "ADD_SNIPPET",
            "codeSnippet": "onChangingradioBtn();\nnextFromNewDetailsScreen();",
            "parentId": null,
            "callbackType": null
        }]
    }
}