{
    "AS_Slider_ba69a556cd064015a94144de7e64efaa": {
        "id": "AS_Slider_ba69a556cd064015a94144de7e64efaa",
        "type": "ACTION_SEQUENCE",
        "name": "onSlideEcommerceLimit",
        "params": [{
            "datatype": "collection",
            "name": "eventobject"
        }, {
            "datatype": "string",
            "name": "selectedvalue"
        }],
        "contextObj": {
            "name": "frmEnableInternetTransactionKA",
            "type": "forms",
            "platform": "",
            "KUID": "fc2ebd4d755e4e999be8a252c972d865"
        },
        "language": "js",
        "actions": [{
            "id": "ADD_SNIPPET__ice6163a862d48ba82e77f281ebe2fcd",
            "type": "ADD_SNIPPET",
            "codeSnippet": "if(eventobject.id === \"sliderECommerceLmt\"){\n\tonTextChange_ECOMMERCELIMIT(frmEnableInternetTransactionKA.txtEcomLimit, frmEnableInternetTransactionKA.sliderECommerceLmt, \"onSlide\", \"internetlimit\");\n}else if(eventobject.id === \"sliderMailOrderLimit\"){\n\tonTextChange_ECOMMERCELIMIT(frmEnableInternetTransactionKA.txtMailLimit, frmEnableInternetTransactionKA.sliderMailOrderLimit, \"onSlide\", \"mailorderlimit\");\n}",
            "parentId": null,
            "callbackType": null
        }]
    }
}