{
    "AS_TextField_dcb401986a3f4779b7a23aa125ed3fd5": {
        "id": "AS_TextField_dcb401986a3f4779b7a23aa125ed3fd5",
        "type": "ACTION_SEQUENCE",
        "name": "onTextChangeApplyCardsTransferedSalary",
        "params": [{
            "datatype": "collection",
            "name": "eventobject"
        }, {
            "datatype": "string",
            "name": "changedtext"
        }],
        "contextObj": {
            "name": "frmApplyNewCardsKA",
            "type": "forms",
            "platform": "",
            "KUID": "a05ce8d2e4404e40bfbc8dad585d28dc"
        },
        "language": "js",
        "actions": [{
            "id": "ADD_SNIPPET__j8e25312853640e99d06d23e434bd276",
            "type": "ADD_SNIPPET",
            "codeSnippet": "if(new RegExp(/[^0-9]/g).test(frmApplyNewCardsKA.txtTransferedSalary.text)){\n   frmApplyNewCardsKA.flxBorderTransferedSalary.skin = \"sknFlxOrangeLine\";\n}else{\n  frmApplyNewCardsKA.flxBorderTransferedSalary.skin = \"skntextFieldDividerGreen\";\n}\nvalidate_APPLYCARDSDETAILS();",
            "parentId": null,
            "callbackType": null
        }]
    }
}