{
    "AS_TextField_g8948cacdecc4b43beb9f1e8317b378b": {
        "id": "AS_TextField_g8948cacdecc4b43beb9f1e8317b378b",
        "type": "ACTION_SEQUENCE",
        "name": "onTextChangeApplyCardsNotes",
        "params": [{
            "datatype": "collection",
            "name": "eventobject"
        }, {
            "datatype": "string",
            "name": "changedtext"
        }],
        "contextObj": {
            "name": "frmApplyNewCardsKA",
            "type": "forms",
            "platform": "",
            "KUID": "a05ce8d2e4404e40bfbc8dad585d28dc"
        },
        "language": "js",
        "actions": [{
            "id": "ADD_SNIPPET__a954902cc877429091fe334eece0d331",
            "type": "ADD_SNIPPET",
            "codeSnippet": "if(frmApplyNewCardsKA.txtNotes.text !== \"\"){\n  frmApplyNewCardsKA.flxBorderNotes.skin = \"skntextFieldDividerGreen\";\n}else{\n\tfrmApplyNewCardsKA.flxBorderNotes.skin = \"skntextFieldDivider\";\n}",
            "parentId": null
        }]
    }
}