{
    "AS_TextField_hf1c8a08b2394166946de377bd41e62d": {
        "id": "AS_TextField_hf1c8a08b2394166946de377bd41e62d",
        "type": "ACTION_SEQUENCE",
        "name": "onTextChangeWeb",
        "params": [{
            "datatype": "collection",
            "name": "eventobject"
        }, {
            "datatype": "string",
            "name": "changedtext"
        }],
        "language": "js",
        "actions": [{
            "id": "ADD_SNIPPET_ide_onTextChange_e97b877c15a94e3a8e0176e5a9abef9f",
            "type": "ADD_SNIPPET",
            "codeSnippet": "if(frmWebCharge.txtFieldAmount!==null&&frmWebCharge.txtFieldAmount!==\"\"&&frmWebCharge.txtFieldAmount!==\"0\")\n  {\n    frmWebCharge.btnNext.skin=\"jomopaynextEnabled\";\n    frmWebCharge.btnNext.focusSkin=\"jomopaynextEnabled\";\n  }\nelse\n  {\n    frmWebCharge.btnNext.skin=\"jomopaynextDisabled\";\n    frmWebCharge.btnNext.focusSkin=\"jomopaynextDisabled\";\n  }",
            "callbackType": null
        }]
    }
}