{
    "AS_Label_g5a8dde9d55f42b9a57da8c2e7e11e6d": {
        "id": "AS_Label_g5a8dde9d55f42b9a57da8c2e7e11e6d",
        "type": "ACTION_SEQUENCE",
        "name": "onTouchEndMobileNumberClear",
        "params": [{
            "datatype": "collection",
            "name": "eventobject"
        }, {
            "datatype": "string",
            "name": "x"
        }, {
            "datatype": "string",
            "name": "y"
        }],
        "contextObj": {
            "name": "frmRegisterUser",
            "type": "forms",
            "platform": "",
            "KUID": "cd7432ec5087404590338186c94e35d2"
        },
        "language": "js",
        "actions": [{
            "id": "ADD_SNIPPET__d0662d073e8b4cd8a7bdcaa11cd02d91",
            "type": "ADD_SNIPPET",
            "codeSnippet": "frmRegisterUser.txtMobileNumber.text = \"\";\nfrmRegisterUser.CopyflxLine0a4214bb8a7c146.skin = \"sknFlxGreyLine\";\nfrmRegisterUser.lblMobileNumberClear.setVisibility(false);",
            "parentId": null,
            "callbackType": null
        }]
    }
}