{
    "AS_Label_j102319a5c2d4fbfa96be5a075caefd7": {
        "id": "AS_Label_j102319a5c2d4fbfa96be5a075caefd7",
        "type": "ACTION_SEQUENCE",
        "name": "onTouchEndFilterCardRing",
        "params": [{
            "datatype": "collection",
            "name": "eventobject"
        }, {
            "datatype": "string",
            "name": "x"
        }, {
            "datatype": "string",
            "name": "y"
        }],
        "contextObj": {
            "name": "frmFilterTransaction",
            "type": "forms",
            "platform": null,
            "KUID": "ff5ea79e22414b03ba4cca716d18a58c"
        },
        "language": "js",
        "actions": [{
            "id": "ADD_SNIPPET__c8f3eadb6b074640b9ce3cb3ac2f001d",
            "type": "ADD_SNIPPET",
            "codeSnippet": "if(frmFilterTransaction.lblCardTick.isVisible == false)\n\tfrmFilterTransaction.lblCardTick.isVisible = true;\nelse\n  frmFilterTransaction.lblCardTick.isVisible = false;",
            "parentId": null,
            "callbackType": null
        }]
    }
}