{
    "AS_TextField_b5ae23195c9d432a8aee48a41cb7af12": {
        "id": "AS_TextField_b5ae23195c9d432a8aee48a41cb7af12",
        "type": "ACTION_SEQUENCE",
        "name": "onTouchEndAliasJoMoPayRegistration",
        "params": [{
            "datatype": "collection",
            "name": "eventobject"
        }, {
            "datatype": "string",
            "name": "x"
        }, {
            "datatype": "string",
            "name": "y"
        }],
        "contextObj": {
            "name": "frmJoMoPayRegistration",
            "type": "forms",
            "platform": "",
            "KUID": "h0b4f51069c74c7bbbbd6798301d77d6"
        },
        "language": "js",
        "actions": [{
            "id": "ADD_SNIPPET__j5b0a16d341f4cc8a23c72bb3cbc508c",
            "type": "ADD_SNIPPET",
            "codeSnippet": "animate_NEWCARDSOPTIOS(\"UP\",\"lblAliasJMPRstatic\",frmJoMoPayRegistration.txtAlias.text);",
            "parentId": null,
            "callbackType": null
        }]
    }
}