{
    "AS_Label_ac7dbf71f91a4306b4e64bbbd005d013": {
        "id": "AS_Label_ac7dbf71f91a4306b4e64bbbd005d013",
        "type": "ACTION_SEQUENCE",
        "name": "onTouchEndUserLogin",
        "params": [{
            "datatype": "collection",
            "name": "eventobject"
        }, {
            "datatype": "string",
            "name": "x"
        }, {
            "datatype": "string",
            "name": "y"
        }],
        "contextObj": {
            "name": "frmLoginKA",
            "type": "forms",
            "platform": "",
            "KUID": "7b1aa8fceb6b4070833e9eab879b0e5e"
        },
        "language": "js",
        "actions": [{
            "id": "ADD_SNIPPET__f17c1d96ad2247d384b22ce6dbe0a2c0",
            "type": "ADD_SNIPPET",
            "codeSnippet": "var currentForm = kony.application.getCurrentForm();\nif(currentForm.id === \"frmLoginKA\" || currentForm.id === \"frmLanguageChange\"){\n\tcurrentForm.tbxusernameTextField.text=\"\";\n\tcurrentForm.borderBottom.skin=\"skntextFieldDivider\";\n\tanimateLabel(\"DOWN\",\"lblUserName\",currentForm.tbxusernameTextField.text);\n\tcurrentForm.lblInvalidCredentialsKA.isVisible = false;\n}",
            "parentId": null,
            "callbackType": null
        }]
    }
}