{
    "AS_Label_g1f059e22d0c4afb874f2681311f2888": {
        "id": "AS_Label_g1f059e22d0c4afb874f2681311f2888",
        "type": "ACTION_SEQUENCE",
        "name": "onTouchEndPaymentHistoryBack",
        "params": [{
            "datatype": "collection",
            "name": "eventobject"
        }, {
            "datatype": "string",
            "name": "x"
        }, {
            "datatype": "string",
            "name": "y"
        }],
        "contextObj": {
            "name": "frmJoMoPayLanding",
            "type": "forms",
            "platform": "",
            "KUID": "d298f6fe5af04a4dbf76c2b5625a9f8c"
        },
        "language": "js",
        "actions": [{
            "id": "ADD_SNIPPET__dd9bd44be6d5462eba92d970478f9e10",
            "type": "ADD_SNIPPET",
            "codeSnippet": "if(frmJoMoPayLanding.flxAccountdetailsSortContainer.top != \"100%\"){\n\tanimatePopup_Sort();\n}\nfrmPaymentDashboard.show();;",
            "parentId": null,
            "callbackType": null
        }]
    }
}