{
    "AS_TextField_b49d4180ced845678b40437a79b5055e": {
        "id": "AS_TextField_b49d4180ced845678b40437a79b5055e",
        "type": "ACTION_SEQUENCE",
        "name": "onTouchEndofTextboxPhoneRegJP",
        "params": [{
            "datatype": "collection",
            "name": "eventobject"
        }, {
            "datatype": "string",
            "name": "x"
        }, {
            "datatype": "string",
            "name": "y"
        }],
        "contextObj": {
            "name": "frmJoMoPay",
            "type": "forms",
            "platform": "",
            "KUID": "d41a38dfc97d4e0a8f3b1db96d6a1ca0"
        },
        "language": "js",
        "actions": [{
            "id": "ADD_SNIPPET__c0a6322467914d99936ceea3714ef549",
            "type": "ADD_SNIPPET",
            "codeSnippet": "animate_NEWCARDSOPTIOS(\"UP\",\"lblMobileNumberText\",frmJoMoPayRegistration.txtPhoneNo.text);\n// frmJoMoPayRegistration.txtPhoneNo.setFocus();",
            "parentId": null,
            "callbackType": null
        }]
    }
}