{
    "AS_Form_047f141ba2384d4f9152800098e55f76": {
        "id": "AS_Form_047f141ba2384d4f9152800098e55f76",
        "type": "ACTION_SEQUENCE",
        "name": "preShow_frmPINLoginSettingsKA",
        "params": [{
            "datatype": "collection",
            "name": "eventobject"
        }],
        "contextObj": {
            "type": "forms",
            "platform": "",
            "KUID": "4dc207cd9ba542e880a7fee434e24ecb"
        },
        "language": "js",
        "actions": [{
            "id": "ADD_SNIPPET__6aadb819624d4f718818bd35b35c39dc",
            "type": "ADD_SNIPPET",
            "codeSnippet": "clearProgressFlex();",
            "parentId": null,
            "callbackType": null
        }]
    }
}