{
    "AS_Form_de6f9f37b9ef4530bd86d912d87730ff": {
        "id": "AS_Form_de6f9f37b9ef4530bd86d912d87730ff",
        "type": "ACTION_SEQUENCE",
        "name": "preshowJoMoPay",
        "params": [{
            "datatype": "collection",
            "name": "eventobject"
        }],
        "contextObj": {
            "name": "frmJoMoPay",
            "type": "forms",
            "platform": "",
            "KUID": "d41a38dfc97d4e0a8f3b1db96d6a1ca0"
        },
        "language": "js",
        "actions": [{
            "id": "ADD_SNIPPET__b08ac597ce6a4951a36b207b19fc1a2e",
            "type": "ADD_SNIPPET",
            "codeSnippet": " inputObj1=[\"Person to Person\"];\n inputObj2=[\"Current Account ***2202\",\"Saving Accounts ***7786\",\"Salary Account ***2480\"];\n inputObj3=[\"Alias\",\"Mobile Number\",\"National ID\"];\nvar len1=inputObj1.length;\nvar len2=inputObj2.length;\nvar len3=inputObj3.length;\nif(len1<2)\n  {\n    frmJoMoPay.btnDropDown.setVisibility(false);\n  }\nif(len2<2)\n  {\n    frmJoMoPay.btnDropDownAccount.setVisibility(false);\n  }\nif(len3<2)\n  {\n    frmJoMoPay.btnAliasDropDown.setVisibility(false);\n  }",
            "parentId": null,
            "callbackType": null
        }]
    }
}