{
    "AS_FlexContainer_b53e7b129d034a25b7b81d2730acb461": {
        "id": "AS_FlexContainer_b53e7b129d034a25b7b81d2730acb461",
        "type": "ACTION_SEQUENCE",
        "name": "profieBackCLick",
        "params": [{
            "datatype": "collection",
            "name": "eventobject"
        }],
        "contextObj": {
            "name": "frmUserSettingsMyProfileKA",
            "type": "forms",
            "platform": "",
            "KUID": "469d331305a541b8b65c6d8bdf903828"
        },
        "language": "js",
        "actions": [{
            "id": "ADD_SNIPPET__e3cb8013f315437aa8d235e2ef4f9b3b",
            "type": "ADD_SNIPPET",
            "codeSnippet": "// if(frmUserSettingsMyProfileKA.lblEditProfile.text == \"Save\"){\n// \tfrmUserSettingsMyProfileKA.flxProfileEdit.isVisible = false;\n// \tfrmUserSettingsMyProfileKA.mainContent.isVisible = true;\n//     frmUserSettingsMyProfileKA.lblEditProfile.text = \"Edit\";\n// }else{\n\tfrmSettingsKA.show();\n// }",
            "parentId": null,
            "callbackType": null
        }]
    }
}