{
    "AS_Segment_cc56effc9e3b43f6815689c6b7c03f12": {
        "id": "AS_Segment_cc56effc9e3b43f6815689c6b7c03f12",
        "type": "ACTION_SEQUENCE",
        "name": "segSettingsOnClick",
        "params": [{
            "datatype": "collection",
            "name": "eventobject"
        }, {
            "datatype": "number",
            "name": "sectionNumber"
        }, {
            "datatype": "number",
            "name": "rowNumber"
        }],
        "language": "js",
        "actions": [{
            "id": "ADD_SNIPPET__a671d777f20b4c0ea42df7378fd07e31",
            "type": "ADD_SNIPPET",
            "codeSnippet": "kony.print(\"Deleted\");",
            "parentId": null,
            "callbackType": null
        }]
    }
}