{
    "AS_Button_dfa6896f69b34010872764585affb677": {
        "id": "AS_Button_dfa6896f69b34010872764585affb677",
        "type": "ACTION_SEQUENCE",
        "name": "TouchLoginCall",
        "params": [{
            "datatype": "collection",
            "name": "eventobject"
        }],
        "contextObj": {
            "name": "frmLoginKA",
            "type": "forms",
            "platform": "",
            "KUID": "7b1aa8fceb6b4070833e9eab879b0e5e"
        },
        "language": "js",
        "actions": [{
            "id": "ADD_SNIPPET_ide_onClick_da3884a095cb435d8569f2ce0d91327b",
            "type": "ADD_SNIPPET",
            "codeSnippet": "kony.print(\"Touch iD invoke\");\nisAlternateLoginEnabled(\"T\")",
            "callbackType": null
        }]
    }
}