{
    "@class": "com.kony.gen.viz.model.container.KVizSegment2",
    "DNDConfig": null,
    "__parentReadjusting__": false,
    "_data_": [
        {
            "CopytransactionName0bfeb2626799d46": {
                "@class": "com.viz.ide.model.segment.SimpleTextSegmentData",
                "text": "Delivered"
            },
            "chevron": {
                "@class": "com.viz.ide.model.segment.ImageSegmentData",
                "src": "right_chevron_icon.png"
            },
            "lblNumberOfLeafletsKA": {
                "@class": "com.viz.ide.model.segment.SimpleTextSegmentData",
                "text": "Leaflets: 20"
            },
            "transactionDate": {
                "@class": "com.viz.ide.model.segment.SimpleTextSegmentData",
                "text": "Oct 10, 2015"
            },
            "transactionName": {
                "@class": "com.viz.ide.model.segment.SimpleTextSegmentData",
                "text": "Payment to City of Austin"
            }
        },
        {
            "CopytransactionName0bfeb2626799d46": {
                "@class": "com.viz.ide.model.segment.SimpleTextSegmentData",
                "text": "Delivered"
            },
            "chevron": {
                "@class": "com.viz.ide.model.segment.ImageSegmentData",
                "src": "right_chevron_icon.png"
            },
            "lblNumberOfLeafletsKA": {
                "@class": "com.viz.ide.model.segment.SimpleTextSegmentData",
                "text": "Leaflets: 20"
            },
            "transactionDate": {
                "@class": "com.viz.ide.model.segment.SimpleTextSegmentData",
                "text": "Oct 10, 2015"
            },
            "transactionName": {
                "@class": "com.viz.ide.model.segment.SimpleTextSegmentData",
                "text": "Payment to City of Austin"
            }
        },
        {
            "CopytransactionName0bfeb2626799d46": {
                "@class": "com.viz.ide.model.segment.SimpleTextSegmentData",
                "text": "Delivered"
            },
            "chevron": {
                "@class": "com.viz.ide.model.segment.ImageSegmentData",
                "src": "right_chevron_icon.png"
            },
            "lblNumberOfLeafletsKA": {
                "@class": "com.viz.ide.model.segment.SimpleTextSegmentData",
                "text": "Leaflets: 20"
            },
            "transactionDate": {
                "@class": "com.viz.ide.model.segment.SimpleTextSegmentData",
                "text": "Oct 10, 2015"
            },
            "transactionName": {
                "@class": "com.viz.ide.model.segment.SimpleTextSegmentData",
                "text": "Payment to City of Austin"
            }
        },
        {
            "CopytransactionName0bfeb2626799d46": {
                "@class": "com.viz.ide.model.segment.SimpleTextSegmentData",
                "text": "Delivered"
            },
            "chevron": {
                "@class": "com.viz.ide.model.segment.ImageSegmentData",
                "src": "right_chevron_icon.png"
            },
            "lblNumberOfLeafletsKA": {
                "@class": "com.viz.ide.model.segment.SimpleTextSegmentData",
                "text": "Leaflets: 20"
            },
            "transactionDate": {
                "@class": "com.viz.ide.model.segment.SimpleTextSegmentData",
                "text": "Oct 10, 2015"
            },
            "transactionName": {
                "@class": "com.viz.ide.model.segment.SimpleTextSegmentData",
                "text": "Payment to City of Austin"
            }
        },
        {
            "CopytransactionName0bfeb2626799d46": {
                "@class": "com.viz.ide.model.segment.SimpleTextSegmentData",
                "text": "Delivered"
            },
            "chevron": {
                "@class": "com.viz.ide.model.segment.ImageSegmentData",
                "src": "right_chevron_icon.png"
            },
            "lblNumberOfLeafletsKA": {
                "@class": "com.viz.ide.model.segment.SimpleTextSegmentData",
                "text": "Leaflets: 20"
            },
            "transactionDate": {
                "@class": "com.viz.ide.model.segment.SimpleTextSegmentData",
                "text": "Oct 10, 2015"
            },
            "transactionName": {
                "@class": "com.viz.ide.model.segment.SimpleTextSegmentData",
                "text": "Payment to City of Austin"
            }
        },
        {
            "CopytransactionName0bfeb2626799d46": {
                "@class": "com.viz.ide.model.segment.SimpleTextSegmentData",
                "text": "Delivered"
            },
            "chevron": {
                "@class": "com.viz.ide.model.segment.ImageSegmentData",
                "src": "right_chevron_icon.png"
            },
            "lblNumberOfLeafletsKA": {
                "@class": "com.viz.ide.model.segment.SimpleTextSegmentData",
                "text": "Leaflets: 20"
            },
            "transactionDate": {
                "@class": "com.viz.ide.model.segment.SimpleTextSegmentData",
                "text": "Oct 10, 2015"
            },
            "transactionName": {
                "@class": "com.viz.ide.model.segment.SimpleTextSegmentData",
                "text": "Payment to City of Austin"
            }
        }
    ],
    "_height_": {
        "type": "ref",
        "value": "preferred"
    },
    "_indicator_": "none",
    "_left_": {
        "type": "string",
        "value": "0dp"
    },
    "_margin_": [
        0,
        0,
        0,
        0
    ],
    "_orientation_": 2,
    "_padding_": [
        0,
        0,
        0,
        0
    ],
    "_top_": {
        "type": "string",
        "value": "0.00%"
    },
    "_width_": {
        "type": "string",
        "value": "100%"
    },
    "autogrowmode": 1,
    "canUpdateUI": true,
    "containerweight": 100,
    "counter": "05",
    "disabledSkins": {},
    "editstyle": "swipe",
    "focusedindex": null,
    "focuseditem": null,
    "groupcells": false,
    "hasSections": false,
    "id": "contactsegment",
    "ide_onRowClick": "AS_Segment_6246333d6f2b45ab98c2149c1526b216",
    "info": null,
    "ipad": {
        "psp": {
            "indicator": "rowselect"
        }
    },
    "iphone": {
        "psp": {
            "bounces": true,
            "editStyle": "swipe",
            "indicator": "none"
        }
    },
    "isvisible": true,
    "kuid": "fd83aeb8a8d84990b738c3892943e7ee",
    "masterdata": {},
    "name": "kony.ui.SegmentedUI2",
    "needpageindicator": true,
    "paddinginpixel": false,
    "pageoffdotimage": "pageoffdot.png",
    "pageondotimage": "pageondot.png",
    "paginationconfig": {
        "position": "bottom"
    },
    "parent": "mainContent",
    "pf": "frmCheckReOrderListKA",
    "retainselection": false,
    "rowTemplateId": "5ed145a4b4af4b639659458fefb0645a",
    "rowcounter": 5,
    "rowfocusskin": "s5fa38be22fb4f22b7c642b08276ab82",
    "rowskin": "sd2ca277651a46c0ba82f3226859f5a6",
    "rowtemplate": "CopyFlexContainer02f94a2abf98249",
    "screenlevelwidget": false,
    "seccounter": 0,
    "sectionHeaderTemplateId": null,
    "sectionheaderskin": "s67621b8a82d49f285da06b4f5a0c993",
    "selectedRows": null,
    "selectedState": false,
    "selectedindex": null,
    "selectedindices": null,
    "selecteditems": null,
    "selectedsectionindex": 0,
    "selectionbehavior": "default",
    "separatorrequired": false,
    "showscrollbars": false,
    "viewtype": "tableview",
    "vizProps": {},
    "wType": "Segment",
    "widgetalignment": 5,
    "widgetdatamap": {
        "CopyFlexContainer02f94a2abf98249": "CopyFlexContainer02f94a2abf98249",
        "CopytransactionName0bfeb2626799d46": "CopytransactionName0bfeb2626799d46",
        "FlexContainer01ff055a4331e4f": "FlexContainer01ff055a4331e4f",
        "chevron": "chevron",
        "contactListDivider": "contactListDivider",
        "flxImageandNameKA": "flxImageandNameKA",
        "lblNumberOfLeafletsKA": "lblNumberOfLeafletsKA",
        "transactionDate": "transactionDate",
        "transactionName": "transactionName"
    },
    "zindex": 1
}