{
    "@class": "com.kony.gen.viz.model.component.KVizButton",
    "DNDConfig": null,
    "__parentReadjusting__": false,
    "_height_": {
        "type": "string",
        "value": "70%"
    },
    "_margin_": [
        6,
        6,
        6,
        6
    ],
    "_padding_": [
        0,
        0,
        0,
        0
    ],
    "_skin_": "sf7766faf6e34d0789442a84c1e76e1a",
    "_text_": "Add New Cardless",
    "_width_": {
        "type": "string",
        "value": "70%"
    },
    "canUpdateUI": true,
    "centerx": {
        "type": "string",
        "value": "50%"
    },
    "centery": {
        "type": "string",
        "value": "50%"
    },
    "containerweight": 100,
    "contentalignment": 5,
    "disabledSkins": {},
    "displaytext": true,
    "focusskin": "sad5d6d4890b44858a39e4bf8a290332",
    "id": "btnAddCardless",
    "ide_onTouchEnd": "AS_Button_d4029aa9fa854a2b886033a5e39a22f4",
    "info": null,
    "isvisible": true,
    "kuid": "a09e28530f8948f38d7f059ac14168e0",
    "maxheight": {
        "type": "string",
        "value": "70%"
    },
    "name": "kony.ui.Button",
    "parent": "flxButtonAdd",
    "pf": "frmManageCardLess",
    "texti18n": "i18n.Cardless.NewCardless",
    "wType": "Button",
    "zindex": 2
}