{
    "@class": "com.kony.gen.viz.model.component.KVizLabel",
    "DNDConfig": null,
    "__parentReadjusting__": false,
    "_height_": {
        "type": "ref",
        "value": "preferred"
    },
    "_margin_": [
        1,
        1,
        1,
        1
    ],
    "_padding_": [
        0,
        0,
        0,
        0
    ],
    "_skin_": "sde7cf78f64c4cfdb298663505be5947",
    "_text_": "No Records Found",
    "_width_": {
        "type": "ref",
        "value": "preferred"
    },
    "_wrapping_": 2,
    "android": {
        "textStyle": {
            "letterSpacing": 0,
            "strikeThrough": false
        }
    },
    "canUpdateUI": true,
    "centerx": {
        "type": "string",
        "value": "50%"
    },
    "centery": {
        "type": "string",
        "value": "5%"
    },
    "containerweight": 100,
    "contentalignment": 4,
    "id": "lblNoSearchResults",
    "info": null,
    "ipad": {
        "psp": {
            "wrapping": 2
        }
    },
    "iphone": {
        "psp": {
            "wrapping": 2
        }
    },
    "isvisible": false,
    "kuid": "a57e46a61ed8404a9db0624cd02e8749",
    "name": "kony.ui.Label",
    "parent": "flxSIList",
    "pf": "frmStandingInstructions",
    "tooltip": "",
    "wType": "Label",
    "zindex": 1
}