{
  "operationConfig" : {
    "name" : "getBillsDueForUser2212",
    "type" : "MappedToBackend",
    "cachable" : false,
    "smsEnabled" : false,
    "security" : "authorized_app_user",
    "responseEncoding" : "UTF-8",
    "httpMethod" : "GET",
    "decodeResponseBody" : false,
    "odata" : [ {
      "id" : "$select",
      "dataType" : "string",
      "encode" : true,
      "accessType" : "readonly"
    }, {
      "id" : "$filter",
      "dataType" : "string",
      "encode" : true,
      "accessType" : "readonly"
    }, {
      "id" : "$orderby",
      "dataType" : "string",
      "encode" : true,
      "accessType" : "readonly"
    }, {
      "id" : "$top",
      "dataType" : "string",
      "encode" : true,
      "accessType" : "readonly"
    }, {
      "id" : "$skip",
      "dataType" : "string",
      "encode" : true,
      "accessType" : "readonly"
    }, {
      "id" : "$expand",
      "dataType" : "string",
      "encode" : true,
      "accessType" : "readonly"
    }, {
      "id" : "$batchsize",
      "dataType" : "string",
      "encode" : true,
      "accessType" : "readonly"
    }, {
      "id" : "$batchid",
      "dataType" : "string",
      "encode" : true,
      "accessType" : "readonly"
    } ],
    "oMapping" : "<?xml version=\"1.0\" encoding=\"UTF-8\" standalone=\"yes\"?><mapper xmlns=\"http://www.kony.com/ns/mapper\">  <map inputpath=\"response_in\" outputpath=\"response_out\">    <map inputpath=\"Bills\" outputpath=\"Bills\">      <set-param inputpath=\"billerCategory\" outputpath=\"billerCategory\"/>      <set-param inputpath=\"payeeName\" outputpath=\"payeeName\"/>      <set-param inputpath=\"ebillStatus\" outputpath=\"ebillStatus\"/>      <set-param inputpath=\"fromAccountNumber\" outputpath=\"fromAccountNumber\"/>      <set-param inputpath=\"fromAccountName\" outputpath=\"fromAccountName\"/>      <set-param inputpath=\"paidDate\" outputpath=\"paidDate\"/>      <set-param inputpath=\"dueAmount\" outputpath=\"dueAmount\"/>      <set-param inputpath=\"description\" outputpath=\"description\"/>      <set-param inputpath=\"id\" outputpath=\"id\"/>      <set-param inputpath=\"balanceAmount\" outputpath=\"balanceAmount\"/>      <set-param inputpath=\"billDueDate\" outputpath=\"billDueDate\"/>      <set-param inputpath=\"paidAmount\" outputpath=\"paidAmount\"/>    </map>  </map></mapper>",
    "applyCommonMapping" : true,
    "backendMeta" : {
      "serviceVersion" : "1.0",
      "operationName" : "getBillsDueForUser",
      "serviceName" : "RetailBankingBEServices"
    },
    "relationshipHierarchyMapping" : {
      "children" : [ ],
      "name" : "Bills",
      "selected" : true
    },
    "requestXmlMappingOverride" : false,
    "responseXmlMappingOverride" : false
  }
}