{
  "type" : "svcdriven",
  "custom" : false,
  "junction" : false,
  "customizable" : false,
  "verbs" : {
    "getbypk" : "getbypkMapping",
    "get" : "getMapping"
  },
  "entityProperties" : {
    "BatchMode" : "buffer",
    "designTimeBackendMeta" : {
    },
    "backendMeta" : {
      "serviceVersion" : "1.0",
      "operationName" : "getAccounts",
      "serviceName" : "RetailBankingBEServices"
    }
  }
}