{
    "@class": "com.kony.gen.viz.model.component.KVizTable",
    "DNDConfig": null,
    "__parentReadjusting__": false,
    "_data_": [
        {
            "col1": "200 - 999",
            "col2": "0.10%"
        },
        {
            "col1": "1,000 - 2,999",
            "col2": "0.20%"
        },
        {
            "col1": "3,000 - 4,999",
            "col2": "0.40%"
        },
        {
            "col1": "5,000 - 6,999",
            "col2": "0.60%"
        },
        {
            "col1": "7,000 - 8,999",
            "col2": "0.80%"
        },
        {
            "col1": "9,000 - 11,999",
            "col2": "1.00%"
        },
        {
            "col1": "12,000 - 14,999",
            "col2": "1.25%"
        },
        {
            "col1": "15,000 - 19,999",
            "col2": "1.50%"
        },
        {
            "col1": "20,000 - 29,999",
            "col2": "1.75%"
        },
        {
            "col1": "30,000 - 39,999",
            "col2": "2.00%"
        },
        {
            "col1": "40,000 - 49,999",
            "col2": "0.50%"
        },
        {
            "col1": "50,000 +",
            "col2": "0.50%"
        }
    ],
    "_height_": {
        "type": "string",
        "value": "70%"
    },
    "_left_": {
        "type": "string",
        "value": "0dp"
    },
    "_margin_": [
        0,
        0,
        0,
        0
    ],
    "_padding_": [
        0,
        0,
        0,
        0
    ],
    "_top_": {
        "type": "string",
        "value": "0dp"
    },
    "_width_": {
        "type": "string",
        "value": "80%"
    },
    "android": {
        "psp": {
            "gridlineColor": "ffffff00"
        }
    },
    "canUpdateUI": true,
    "cellBorder": "3px solid #F4F4F4",
    "centerx": {
        "type": "string",
        "value": "50.00%"
    },
    "columnheadersconfig": [
        {
            "columnContentAlignment": 5,
            "columnHeaderTemplate": null,
            "columnHeaderText": "Cluster شرائح",
            "columnHeaderType": "text",
            "columnID": "col1",
            "columnText": "Not Defined",
            "columnType": "text",
            "columnWidthInPercentage": 50,
            "isColumnSortable": false,
            "kuid": "a90de7fff38345a2a36abff3cfb0b066"
        },
        {
            "columnContentAlignment": 5,
            "columnHeaderTemplate": null,
            "columnHeaderText": "%IR سعرالفائدة",
            "columnHeaderType": "text",
            "columnID": "col2",
            "columnText": "Not Defined",
            "columnType": "text",
            "columnWidthInPercentage": 50,
            "isColumnSortable": false,
            "kuid": "ad154f0788324da489242aaada3088fe"
        }
    ],
    "columnids": [
        "col1",
        "col2"
    ],
    "columntype": [
        "text",
        "text"
    ],
    "containerweight": 100,
    "contentalignment": 5,
    "context": {
        "channel": "mobile",
        "formID": "frmSmartInfo",
        "platform": "iphone",
        "templateType": "forms",
        "topLevelBox": null
    },
    "counter": "111",
    "disabledSkins": {},
    "focusedindex": null,
    "focuseditem": null,
    "gridlinestyle": "solid",
    "headerskin": "s248a33962b146a9aa51c82fc73d6322",
    "id": "dgRates",
    "info": null,
    "iscustomlayout": false,
    "ismultiselect": false,
    "isvisible": true,
    "kuid": "e4ccbc07bed6441582aab20c0e0e2460",
    "name": "kony.ui.DataGrid",
    "parent": "FlexScrollContainer0c7fbb045130942",
    "pf": "frmSmartInfo",
    "retaincontentalignment": false,
    "retainflexpositionproperties": false,
    "rowalternateskin": "sd585da4b2504524bec8da5144b12426",
    "rowcount": 12,
    "rowfocusskin": "sd585da4b2504524bec8da5144b12426",
    "rownormalskin": "sd585da4b2504524bec8da5144b12426",
    "selectedcellindex": null,
    "selectedcellitem": null,
    "selectedindex": null,
    "selectedindices": null,
    "selecteditem": null,
    "selecteditems": null,
    "showcolumnheaders": false,
    "wType": "DataGrid",
    "winphone8": {
        "psp": {
            "gridlineColor": "ffffff00"
        }
    },
    "zindex": 1
}