{
    "@class": "com.kony.gen.viz.model.component.KVizButton",
    "DNDConfig": null,
    "__parentReadjusting__": false,
    "_height_": {
        "type": "string",
        "value": "50dp"
    },
    "_left_": {
        "type": "string",
        "value": "0dp"
    },
    "_margin_": [
        6,
        6,
        6,
        6
    ],
    "_padding_": [
        0,
        0,
        0,
        0
    ],
    "_skin_": "s42097848aa844c9a25e6237b1b50a5b",
    "_text_": "",
    "_top_": {
        "type": "string",
        "value": "1dp"
    },
    "_width_": {
        "type": "string",
        "value": "50dp"
    },
    "canUpdateUI": true,
    "containerweight": 100,
    "contentalignment": 5,
    "displaytext": true,
    "focusskin": "s86cba35d2a34a219807da2b84f4f553",
    "id": "backButton",
    "ide_onClick": "AS_Button_f19d125d5f104fc3ba767cc84a163ad2",
    "info": null,
    "iphone": {
        "psp": {
            "showProgressIndicator": false
        }
    },
    "isvisible": false,
    "kuid": "78e55b6c7f994cbbb148de61cee92659",
    "name": "kony.ui.Button",
    "onclick": "AS_Button_08aeae098b264f7fad4511d12f4d8b83",
    "parent": "iosTitleBar",
    "pf": "frmManageCardsKA",
    "showprogressindicator": false,
    "wType": "Button",
    "zindex": 1
}