{
    "@class": "com.kony.gen.viz.model.component.KVizButton",
    "DNDConfig": null,
    "__parentReadjusting__": false,
    "_height_": {
        "type": "string",
        "value": "50%"
    },
    "_left_": {
        "type": "string",
        "value": "30%"
    },
    "_margin_": [
        6,
        6,
        6,
        6
    ],
    "_padding_": [
        0,
        0,
        0,
        0
    ],
    "_skin_": "s51be37cda7245ce9923161f93f488eb",
    "_text_": "Change Pin",
    "_top_": {
        "type": "string",
        "value": "40%"
    },
    "_width_": {
        "type": "string",
        "value": "60%"
    },
    "canUpdateUI": true,
    "centerx": {
        "type": "string",
        "value": "50%"
    },
    "centery": {
        "type": "string",
        "value": "50%"
    },
    "containerweight": 100,
    "contentalignment": 5,
    "disabledSkins": {},
    "displaytext": true,
    "focusskin": "s6e8459b84e349d98629a088bbfe1304",
    "id": "btnChangePin",
    "ide_onClick": "AS_Button_d56b1c75f641436a8b7ea4a04631e0bd",
    "info": null,
    "isvisible": false,
    "kuid": "572c50d868af4b20add0b440ba25cdc7",
    "name": "kony.ui.Button",
    "parent": "flxPinKA",
    "pf": "frmManageCardsKA",
    "texti18n": "i18n.cards.ChangePin",
    "wType": "Button",
    "zindex": 1
}