{
    "@class": "com.kony.gen.viz.model.component.KVizButton",
    "DNDConfig": null,
    "__parentReadjusting__": false,
    "_height_": {
        "type": "string",
        "value": "60dp"
    },
    "_margin_": [
        6,
        6,
        6,
        6
    ],
    "_padding_": [
        0,
        0,
        0,
        0
    ],
    "_right_": {
        "type": "string",
        "value": "5%"
    },
    "_skin_": "s0aa44764bc8464da74d20a85680330d",
    "_text_": "C",
    "_width_": {
        "type": "string",
        "value": "60dp"
    },
    "canUpdateUI": true,
    "centery": {
        "type": "string",
        "value": "-10%"
    },
    "containerweight": 100,
    "contentalignment": 5,
    "displaytext": true,
    "focusskin": "s0aa44764bc8464da74d20a85680330d",
    "id": "btnApplyNewCard",
    "ide_onClick": "AS_Button_he29dc34a4024cb3ab60bf4e7d31a84e",
    "info": null,
    "isvisible": false,
    "kuid": "b514b6051aec475182ccdb5009ab76c5",
    "name": "kony.ui.Button",
    "parent": "overview",
    "pf": "frmCardsLandingKA",
    "wType": "Button",
    "zindex": 200
}