{
    "@class": "com.kony.gen.viz.model.component.KVizButton",
    "DNDConfig": null,
    "__parentReadjusting__": false,
    "_height_": {
        "type": "string",
        "value": "50dp"
    },
    "_margin_": [
        6,
        6,
        6,
        6
    ],
    "_padding_": [
        0,
        0,
        0,
        14
    ],
    "_skin_": "s46eecdcfa6f4f5e87236256a5539738",
    "_text_": "G",
    "_width_": {
        "type": "string",
        "value": "100%"
    },
    "canUpdateUI": true,
    "centerx": {
        "type": "string",
        "value": "50%"
    },
    "centery": {
        "type": "string",
        "value": "50%"
    },
    "containerweight": 100,
    "contentalignment": 5,
    "disabledSkins": {},
    "displaytext": true,
    "focusskin": "s9cc327d4cc74bf9a89705c4d99a3773",
    "id": "CopybtnAccounts0ia3b1ff37c304b",
    "info": null,
    "iphone": {
        "psp": {
            "showProgressIndicator": false
        }
    },
    "isvisible": true,
    "kuid": "c7cc24a6d0074152b76a34e5ca5bb134",
    "name": "kony.ui.Button",
    "paddinginpixel": false,
    "parent": "FlxTranfers",
    "pf": "frmCardsLandingKA",
    "showprogressindicator": false,
    "wType": "Button",
    "zindex": 10
}