{
    "@class": "com.kony.gen.viz.model.component.KVizListBox",
    "DNDConfig": null,
    "__parentReadjusting__": false,
    "_height_": {
        "type": "string",
        "value": "100%"
    },
    "_left_": {
        "type": "string",
        "value": "4.97%"
    },
    "_margin_": [
        0,
        0,
        0,
        0
    ],
    "_padding_": [
        0,
        0,
        0,
        0
    ],
    "_skin_": "sfcc4a6d1fe74c0a9a01d523472866d4",
    "_top_": {
        "type": "string",
        "value": "33dp"
    },
    "_width_": {
        "type": "string",
        "value": "90%"
    },
    "canUpdateUI": true,
    "centery": {
        "type": "string",
        "value": "50.00%"
    },
    "containerweight": 100,
    "contentalignment": 4,
    "context": {
        "channel": "mobile",
        "formID": "frmEnterLocationKA",
        "platform": "android",
        "templateType": "forms",
        "topLevelBox": null
    },
    "dropdownimage": "dropdown.png",
    "focusskin": "sfcc4a6d1fe74c0a9a01d523472866d4",
    "groupcells": false,
    "id": "ListState",
    "info": null,
    "isvisible": true,
    "kuid": "59e78b5f0a744d709ee99cf9f50a6c3f",
    "masterdata": [
        [
            "lb1",
            "Listbox One"
        ],
        [
            "lb2",
            "Listbox Two"
        ],
        [
            "lb3",
            "Listbox Three"
        ]
    ],
    "name": "kony.ui.ListBox",
    "parent": "answerFIeldWrapper",
    "pf": "frmEnterLocationKA",
    "selectedkeys": null,
    "selectedkeyvalue": null,
    "selectedkeyvalues": null,
    "size": 18,
    "viewconfig": {
        "toggleViewConfig": {
            "viewStyle": 0
        }
    },
    "viewtype": 0,
    "wType": "ListBox",
    "zindex": 1
}