{
    "@class": "com.kony.gen.viz.model.component.KVizLabel",
    "DNDConfig": null,
    "__parentReadjusting__": false,
    "_height_": {
        "type": "ref",
        "value": "preferred"
    },
    "_left_": {
        "type": "string",
        "value": "4%"
    },
    "_margin_": [
        1,
        1,
        1,
        1
    ],
    "_padding_": [
        0,
        0,
        0,
        0
    ],
    "_skin_": "s1b0f89cfd734cb39fe321eea964e34c",
    "_text_": "xyzBank Accounts",
    "_top_": {
        "type": "string",
        "value": "0dp"
    },
    "_width_": {
        "type": "string",
        "value": "96%"
    },
    "_wrapping_": 2,
    "canUpdateUI": true,
    "centery": {
        "type": "string",
        "value": "50%"
    },
    "containerweight": 100,
    "contentalignment": 4,
    "enabled": false,
    "id": "CopyLabel03e39ab4661a845",
    "info": null,
    "ipad": {
        "psp": {
            "wrapping": 2
        }
    },
    "iphone": {
        "psp": {
            "wrapping": 2
        }
    },
    "isvisible": true,
    "kuid": "eeceb65d63314325a84beb1a7692542e",
    "name": "kony.ui.Label",
    "parent": "CopytoInternalLabel0dd19c29451b147",
    "pf": "frmNewBillDetails",
    "texti18n": "i18n.transfer.xyzBankAccounts",
    "tooltip": "",
    "wType": "Label",
    "zindex": 1
}