{
    "@class": "com.kony.gen.viz.model.component.KVizButton",
    "DNDConfig": null,
    "__parentReadjusting__": false,
    "_height_": {
        "type": "string",
        "value": "100%"
    },
    "_margin_": [
        6,
        6,
        6,
        6
    ],
    "_padding_": [
        0,
        0,
        0,
        0
    ],
    "_right_": {
        "type": "number",
        "value": "2"
    },
    "_skin_": "sf26de229d5e42d191bc571b8d358f10",
    "_text_": "",
    "_top_": {
        "type": "string",
        "value": "5dp"
    },
    "_width_": {
        "type": "string",
        "value": "35dp"
    },
    "canUpdateUI": true,
    "centery": {
        "type": "string",
        "value": "50%"
    },
    "containerweight": 100,
    "contentalignment": 5,
    "disabledSkins": {
        "focusSkin": "s10149300144466da99cbf92f4fdacc8"
    },
    "displaytext": true,
    "id": "btnCloseSCard",
    "ide_onClick": "AS_Button_d0f30fc5a2244282a00975ddda8ed8b9",
    "info": null,
    "isvisible": true,
    "kuid": "ae3f16424c5b4dd99fe5e3f3e51079c9",
    "name": "kony.ui.Button",
    "parent": "androidTitleBar",
    "pf": "frmStopCardKA",
    "wType": "Button",
    "zindex": 5
}