{
    "@class": "com.kony.gen.viz.model.container.KVizScrollFlexForm",
    "DNDConfig": null,
    "_footers_": [],
    "_headers_": [],
    "_init_": "AS_Form_39212ccb536d4114b1106a63e715682a",
    "_margin_": [
        0,
        0,
        0,
        0
    ],
    "_padding_": [
        0,
        0,
        0,
        0
    ],
    "_skin_": "saccb95b58984589af381140b9870839",
    "_title_": "",
    "addWidgetsdone": false,
    "allboxes": [],
    "allowhorizontalbounce": false,
    "allowverticalbounce": true,
    "android": {
        "ide_onDeviceBack": "AS_Form_j5d716ac3cd34d04939b2c9c89ae9f0f",
        "inTransitionConfig": {
            "formAnimation": 3
        },
        "needAppMenu": false,
        "outTransitionConfig": {
            "formAnimation": 0
        },
        "psp": {
            "onDeviceMenu": "AS_Form_8762887e7d1041c3bbb27194be529619"
        }
    },
    "bounces": true,
    "canUpdateUI": true,
    "children": [
        "mainContainer"
    ],
    "configurestatusbarstyle": true,
    "containerweight": 100,
    "currentLocale": "ar",
    "desktopweb": {
        "needAppMenu": false
    },
    "device": "GalaxyS5",
    "displayorientation": 1,
    "enabled": false,
    "enabledforidletimeout": true,
    "enablescrolling": true,
    "footer": "frmManagePayeeKA_footer",
    "header": "frmManagePayeeKA_header",
    "id": "frmManagePayeeKA",
    "ide_init": "AS_Form_fae9ecbd34f0457dac6853b42d3c2228",
    "ide_preShow": "AS_Form_b7beb66108cf4da4a9ffb2fa88d3e21c",
    "info": null,
    "initdone": false,
    "inputaccessoryviewtype": 4,
    "invokedProperty": "footers",
    "ipad": {
        "psp": {
            "inputAccessoryViewType": 4
        }
    },
    "iphone": {
        "inTransitionConfig": {
            "transitionDirection": "none",
            "transitionEffect": "none"
        },
        "needAppMenu": false,
        "outTransitionConfig": {
            "transitionDirection": "none",
            "transitionEffect": "none"
        },
        "psp": {
            "configureStatusBarStyle": true,
            "inputAccessoryViewType": 4,
            "maxZoomScale": 1,
            "minZoomScale": 1,
            "statusBarHidden": false,
            "statusBarStyle": "STATUS_BAR_STYLE_LIGHT_CONTENT",
            "titleBarAttributes": {
                "barStyle": 0,
                "hidesBackButton": true,
                "kuid": "fcbfe5304de348d4a28ee24ba755db30",
                "leftBarButtonItems": [],
                "leftItemsSupplementBackButton": true,
                "prompt": "",
                "renderTitleText": true,
                "rightBarButtonItems": [
                    {
                        "enabled": true,
                        "info": {
                            "title": "Cancel"
                        },
                        "kuid": "a2c72daa76d043c3a10b442b36c7fb60",
                        "style": 0,
                        "tintColor": "33333300",
                        "type": 1
                    }
                ],
                "tintColor": "33333300",
                "translucent": true
            },
            "zoomScale": 1
        },
        "titleBar": false
    },
    "isvisible": true,
    "kuid": "794f84071c7c4320866cf3978ca5357e",
    "layouttype": 4,
    "maxZoomScale": 1,
    "minZoomScale": 1,
    "name": "kony.ui.Form2",
    "needappmenu": true,
    "onhide": "AS_Form_13c5aac48baf4dd98dc247871dcae840",
    "orientation": 1,
    "paddinginpixel": false,
    "percent": true,
    "platform": "android",
    "preshow": "AS_Form_20ad885405434b808e4ab48eee04cb28",
    "prevDevice": "iPhoneXS",
    "prevPlatform": "iphone",
    "retainscrollposition": false,
    "shellCSS": "and_GalaxyS5",
    "snapgridsize": 10,
    "snaptogrid": true,
    "spa": {
        "inTransitionConfig": {
            "formTransition": "rightCenter"
        },
        "outTransitionConfig": {
            "formTransition": "none"
        }
    },
    "spaan": {
        "needAppMenu": false
    },
    "spabb": {
        "needAppMenu": false
    },
    "spaip": {
        "needAppMenu": false
    },
    "spawinphone8": {
        "needAppMenu": false
    },
    "statusbarstyle": "STATUS_BAR_STYLE_LIGHT_CONTENT",
    "titleBarSkin": "se84cf96156c48bca40ac7667fa12b5c",
    "titlebar": false,
    "type": 3,
    "wType": "Form",
    "winphone8": {
        "inTransitionConfig": {
            "inTransition": "none",
            "transitionMode": "none",
            "transitionSpeed": 0
        },
        "needAppMenu": false,
        "outTransitionConfig": {
            "outTransition": "none",
            "transitionMode": "none",
            "transitionSpeed": 0
        }
    },
    "zoomScale": 1
}