{
    "@class": "com.kony.gen.viz.model.component.KVizButton",
    "DNDConfig": null,
    "__parentReadjusting__": false,
    "_height_": {
        "type": "string",
        "value": "60%"
    },
    "_left_": {
        "type": "string",
        "value": "0%"
    },
    "_margin_": [
        6,
        6,
        6,
        6
    ],
    "_padding_": [
        0,
        0,
        0,
        0
    ],
    "_skin_": "s1858dc0a19e403a93a532b59571c961",
    "_text_": "t",
    "_width_": {
        "type": "string",
        "value": "15%"
    },
    "canUpdateUI": true,
    "centery": {
        "type": "string",
        "value": "50%"
    },
    "containerweight": 100,
    "contentalignment": 5,
    "displaytext": true,
    "focusskin": "s1858dc0a19e403a93a532b59571c961",
    "id": "btnEndOfLoan",
    "ide_onClick": "AS_Button_i2c92883041d44448c155f46ca5079cd",
    "info": null,
    "isvisible": true,
    "kuid": "d1f559e2650a46e68b6580d3d9133fd5",
    "name": "kony.ui.Button",
    "parent": "flxEndOfLoan",
    "pf": "frmLoanPostpone",
    "wType": "Button",
    "zindex": 1
}