{
    "@class": "com.kony.gen.viz.model.component.KVizButton",
    "DNDConfig": null,
    "__parentReadjusting__": false,
    "_height_": {
        "type": "string",
        "value": "90%"
    },
    "_margin_": [
        6,
        6,
        6,
        6
    ],
    "_padding_": [
        0,
        0,
        0,
        0
    ],
    "_right_": {
        "type": "string",
        "value": "0%"
    },
    "_skin_": "sef0e6318cb74729a63354552567c681",
    "_text_": "Button",
    "_top_": {
        "type": "string",
        "value": "0%"
    },
    "_width_": {
        "type": "string",
        "value": "20%"
    },
    "canUpdateUI": true,
    "containerweight": 100,
    "contentalignment": 5,
    "displaytext": true,
    "focusskin": "sef0e6318cb74729a63354552567c681",
    "id": "btnNext",
    "ide_onClick": "AS_Button_e8923b24d7a9462591827bab82cc8a27",
    "info": null,
    "isvisible": true,
    "kuid": "j5c4e2ac4d2e4a9a8b8335fb19a8046e",
    "name": "kony.ui.Button",
    "parent": "flxHeader",
    "pf": "frmLoanPostpone",
    "texti18n": "i18n.login.next",
    "wType": "Button",
    "zindex": 1
}