{
    "@class": "com.kony.gen.viz.model.component.KVizLabel",
    "DNDConfig": null,
    "_margin_": [
        1,
        1,
        1,
        1
    ],
    "_padding_": [
        3,
        2,
        3,
        0
    ],
    "_skin_": "sbdc565b2c794235ab59d9c015811f6e",
    "_text_": "Are you sure you want to\nde-register this device ?",
    "_wrapping_": 2,
    "android": {
        "textStyle": {
            "letterSpacing": 0,
            "strikeThrough": false
        }
    },
    "canUpdateUI": true,
    "containerweight": 100,
    "contentalignment": 5,
    "id": "lblTitle",
    "info": null,
    "ipad": {
        "psp": {
            "wrapping": 2
        }
    },
    "iphone": {
        "psp": {
            "wrapping": 2
        }
    },
    "isvisible": true,
    "kuid": "e72b23a62a7940809ebff8d435258166",
    "name": "kony.ui.Label",
    "paddinginpixel": false,
    "parent": "HBxContent1",
    "pf": "PopupDeviceRegistration",
    "tooltip": "",
    "wType": "Label"
}